<?xml version="1.0" encoding="UTF-8" standalone="no"?>
<!-- Created with Inkscape (http://www.inkscape.org/) -->

<svg
   xmlns:dc="http://purl.org/dc/elements/1.1/"
   xmlns:cc="http://creativecommons.org/ns#"
   xmlns:rdf="http://www.w3.org/1999/02/22-rdf-syntax-ns#"
   xmlns:svg="http://www.w3.org/2000/svg"
   xmlns="http://www.w3.org/2000/svg"
   xmlns:sodipodi="http://sodipodi.sourceforge.net/DTD/sodipodi-0.dtd"
   xmlns:inkscape="http://www.inkscape.org/namespaces/inkscape"
   width="419.14053"
   height="324.97968"
   id="svg4048"
   version="1.1"
   inkscape:version="0.92.1 r15371"
   sodipodi:docname="Bo75-P5-137.svg"
   inkscape:export-filename="/media/hdd/Nehemie/Bogazkoy/BoKe/BoKeWTer/Images/SVG/Geb85/clean/Bo75-P5-137.png"
   inkscape:export-xdpi="300"
   inkscape:export-ydpi="300">
  <title
     id="title2983">Bo75-P5-137</title>
  <defs
     id="defs4050" />
  <sodipodi:namedview
     id="base"
     pagecolor="#ffffff"
     bordercolor="#666666"
     borderopacity="1.0"
     inkscape:pageopacity="0.0"
     inkscape:pageshadow="2"
     inkscape:zoom="0.98994949"
     inkscape:cx="-31.610293"
     inkscape:cy="92.661893"
     inkscape:document-units="px"
     inkscape:current-layer="layer18"
     showgrid="true"
     units="mm"
     inkscape:window-width="1280"
     inkscape:window-height="974"
     inkscape:window-x="0"
     inkscape:window-y="26"
     inkscape:window-maximized="1"
     fit-margin-top="0"
     fit-margin-left="0"
     fit-margin-right="0"
     fit-margin-bottom="0">
    <inkscape:grid
       type="xygrid"
       id="grid4079"
       units="cm"
       empspacing="5"
       visible="false"
       enabled="false"
       snapvisiblegridlinesonly="true"
       originx="-189.46757"
       originy="-770.50409"
       spacingx="37.795276"
       spacingy="37.795276" />
  </sodipodi:namedview>
  <metadata
     id="metadata4053">
    <rdf:RDF>
      <cc:Work
         rdf:about="">
        <dc:format>image/svg+xml</dc:format>
        <dc:type
           rdf:resource="http://purl.org/dc/dcmitype/StillImage" />
        <dc:title>Bo75-P5-137</dc:title>
        <cc:license
           rdf:resource="http://creativecommons.org/licenses/by/4.0/" />
        <dc:creator>
          <cc:Agent>
            <dc:title>Néhémie Strupler</dc:title>
          </cc:Agent>
        </dc:creator>
        <dc:description>Pottery Drawing from the BoKeWTer database </dc:description>
        <dc:contributor>
          <cc:Agent>
            <dc:title>Illustrator:
İrem Göçmez
Basic digitisation: Mehmet Turgut
Final work and metadata: Néhémie Strupler</dc:title>
          </cc:Agent>
        </dc:contributor>
        <dc:subject>
          <rdf:Bag>
            <rdf:li>Pottery</rdf:li>
            <rdf:li>Drawing</rdf:li>
            <rdf:li>BoKeWTer</rdf:li>
            <rdf:li>Westterrasse</rdf:li>
            <rdf:li>Boğazköy</rdf:li>
            <rdf:li>Bogazkoy</rdf:li>
            <rdf:li>Hattusa</rdf:li>
            <rdf:li>Late Bronze Age</rdf:li>
            <rdf:li>Turquie</rdf:li>
          </rdf:Bag>
        </dc:subject>
        <dc:date>2015-05-28</dc:date>
        <dc:rights>
          <cc:Agent>
            <dc:title>Néhémie Strupler</dc:title>
          </cc:Agent>
        </dc:rights>
        <dc:relation />
      </cc:Work>
      <cc:License
         rdf:about="http://creativecommons.org/licenses/by/4.0/">
        <cc:permits
           rdf:resource="http://creativecommons.org/ns#Reproduction" />
        <cc:permits
           rdf:resource="http://creativecommons.org/ns#Distribution" />
        <cc:requires
           rdf:resource="http://creativecommons.org/ns#Notice" />
        <cc:requires
           rdf:resource="http://creativecommons.org/ns#Attribution" />
        <cc:permits
           rdf:resource="http://creativecommons.org/ns#DerivativeWorks" />
      </cc:License>
    </rdf:RDF>
  </metadata>
  <g
     inkscape:groupmode="layer"
     id="layer2"
     inkscape:label="section">
    <path
       id="path6389"
       style="display:inline;fill:#000000;fill-opacity:1;stroke:#000000;stroke-width:2;stroke-linecap:round;stroke-linejoin:round;stroke-miterlimit:3.89398885;stroke-dasharray:none;stroke-dashoffset:0"
       d="m 14.131649,56.765407 c 0,0 1.7,-0.02933 4.078667,-0.072 38.997333,-0.692 77.184191,6.780952 114.226854,19.034286 36.28667,12.004 72.21067,26.358667 106.796,42.571997 1.72134,0.80667 3.528,1.65333 5.36134,2.51333 43.536,20.40534 84.59333,43.84268 122.95066,73.22135 6.39334,4.89866 10.56267,11.58819 10.56267,11.58819 m 0.0247,-0.14599 c -2.29258,3.70486 -5.00621,7.16316 -8.27138,10.2818 -0.62,0.59066 -1.30534,0.932 -1.91867,1.13866 -1.49467,0.51467 -3.164,0.468 -5.01067,-0.13866 -26.66666,-16.468 -53.45866,-32.25067 -81.30533,-46.89334 -5.28667,-2.77866 -10.896,-5.74133 -15.09333,-7.99066 -42.156,-22.58267 -86.76267,-37.29334 -132.33734,-51.32267 -8.716,-2.68267 -29.10133,-9.07467 -38.825331,-12.345332 -18.397334,-6.193333 -61.104,-10.389333 -72.197334,-25.168003 -3.504944,-4.66749 -6.362274,-10.683156 -8.937254,-16.64352"
       inkscape:connector-curvature="0"
       sodipodi:nodetypes="ccccccccccccccccc" />
  </g>
  <g
     inkscape:label="Layer 1"
     inkscape:groupmode="layer"
     id="layer1"
     transform="translate(-189.46757,-27.035876)"
     style="display:inline">
    <path
       id="path6387"
       d="m 212.64075,100.07424 c -5.672,-7.553333 -9.648,-18.637333 -13.476,-27.304 -4.112,-9.316 -10.89067,-22.033333 -8.552,-32.334667 0.39866,-1.748 1.02666,-3.477333 1.84666,-5.248 1.10934,-2.4 2.40667,-4.284 4.16134,-6.336 6.52133,-1.845333 16.10666,-1.425333 25.97866,0.953334 45.14267,10.877333 91.09334,26.918666 136.076,39.556 6.44,1.809333 11.23467,3.156 11.23467,3.156 l 49.16667,11 c 0,0 0.62,0.130666 1.688,0.353333 46.396,9.716 91.076,25.084 137.32,35.22 3.008,0.65867 5.976,1.30933 8.576,1.88 7.23466,1.244 13.09866,3.95733 19.40133,7.84133 1.972,10.644 0.67467,39.84 -2.03067,50.24934 -5.62,21.624 -7.56,47.36 -24.70266,63.73333 -0.62,0.59067 -1.30534,0.932 -1.91867,1.13867 -1.49467,0.51466 -3.164,0.468 -5.01067,-0.13867 -26.66666,-16.468 -53.45866,-32.25067 -81.30533,-46.89333 -5.28667,-2.77867 -10.896,-5.74134 -15.09333,-7.99067 -42.156,-22.58267 -86.76267,-37.29333 -132.33734,-51.32267 -8.716,-2.68266 -29.10133,-9.07466 -38.82533,-12.34533 -18.39733,-6.19333 -61.104,-10.38933 -72.19733,-25.168 z"
       style="fill:none;stroke:#000000;stroke-width:2;stroke-linecap:round;stroke-linejoin:round;stroke-miterlimit:3.89398885;stroke-dasharray:none"
       inkscape:connector-curvature="0" />
    <path
       id="path6399"
       d="m 316.89294,242.70134 c -4.70267,-11.43733 -19.82267,-40.41733 -16.27333,-51.55866 0.45866,-2.05867 1.65066,-3.292 3.58133,-3.70134 l 7.15067,3.89867 c 14.748,8.05067 30.628,37.772 36.74266,53.93867 11.89867,31.46933 0.352,52.29333 -46.372,69.432 -10.924,4.076 -27.55733,6.92533 -38.57866,-0.99734 -1.34667,-1.38533 -2.044,-3.03066 -2.09067,-4.93733 0.604,-7.272 9.46933,-11.004 15.05467,-13.87467 17.39866,-8.94 45.432,-21.99066 46.412,-27.508 1.08933,-6.14933 -1.69734,-15.12933 -5.62667,-24.692 z"
       style="fill-rule:evenodd;stroke:#000000;stroke-width:2;stroke-linecap:round;stroke-linejoin:round;stroke-miterlimit:3.89398885;stroke-dasharray:none"
       inkscape:connector-curvature="0" />
    <line
       id="line6401"
       y2="332.08932"
       x2="289.69958"
       y1="345.42267"
       x1="284.19958"
       style="fill:none;stroke:#000000;stroke-width:2;stroke-linecap:round;stroke-linejoin:round;stroke-miterlimit:3.89398885;stroke-dasharray:none" />
    <line
       id="line6403"
       y2="196.61868"
       x2="357.43961"
       y1="209.95201"
       x1="351.93961"
       style="fill:none;stroke:#000000;stroke-width:2;stroke-linecap:round;stroke-linejoin:round;stroke-miterlimit:3.89398885;stroke-dasharray:none" />
    <line
       id="line6405"
       y2="158.96225"
       x2="375.81543"
       y1="172.29559"
       x1="370.31543"
       style="fill:none;stroke:#000000;stroke-width:2;stroke-linecap:round;stroke-linejoin:round;stroke-miterlimit:3.89398885;stroke-dasharray:none" />
    <line
       id="line6407"
       y2="56.378235"
       x2="414.81543"
       y1="69.682228"
       x1="409.90872"
       style="fill:none;stroke:#000000;stroke-width:2;stroke-linecap:round;stroke-linejoin:round;stroke-miterlimit:3.89398885;stroke-dasharray:none" />
  </g>
  <g
     inkscape:groupmode="layer"
     id="layer18"
     inkscape:label="scale#1"
     transform="translate(-189.46757,-27.035876)"
     style="display:inline">
    <g
       style="display:inline"
       id="g3705-8"
       transform="matrix(1.244841,0,0,1.3514373,-1230.8576,-1256.0605)">
      <g
         id="g5680-5">
        <g
           style="display:inline;stroke-width:0.96372944;stroke-miterlimit:4;stroke-dasharray:none"
           id="g3676-5"
           transform="translate(0,2.1333334)" />
        <g
           id="g7531">
          <rect
             style="display:inline;fill:none;stroke:#000000;stroke-width:0.72790647;stroke-miterlimit:4;stroke-dasharray:none"
             id="rect3757-68-4"
             height="14.872388"
             width="151.35283"
             y="1165.4614"
             x="1312.9863" />
          <rect
             style="display:inline;fill:none;stroke:#000000;stroke-width:1.02797806;stroke-miterlimit:4;stroke-dasharray:none"
             id="rect3759-1-4"
             height="7.4221625"
             width="30.233034"
             y="1173.1925"
             x="1312.845" />
          <rect
             style="display:inline;stroke:#000000;stroke-width:1.02797806;stroke-miterlimit:4;stroke-dasharray:none"
             id="rect3761-59-6"
             height="7.4221625"
             width="30.233034"
             y="1173.193"
             x="1343.1003" />
          <rect
             style="display:inline;fill:none;stroke:#000000;stroke-width:1.02797806;stroke-miterlimit:4;stroke-dasharray:none"
             id="rect3763-46-2"
             height="7.4221625"
             width="30.2341"
             y="1173.1893"
             x="1373.3547" />
          <rect
             style="display:inline;stroke:#000000;stroke-width:1.02797806;stroke-miterlimit:4;stroke-dasharray:none"
             id="rect3765-3-5"
             height="7.4221625"
             width="30.2341"
             y="1173.193"
             x="1403.6101" />
          <rect
             style="display:inline;fill:none;stroke:#000000;stroke-width:1.02797806;stroke-miterlimit:4;stroke-dasharray:none"
             id="rect3767-4-88"
             height="7.4221625"
             width="30.233034"
             y="1173.193"
             x="1433.8656" />
          <rect
             style="display:inline;stroke:#000000;stroke-width:1.02797806;stroke-miterlimit:4;stroke-dasharray:none"
             id="rect3771-4-96"
             height="7.4221625"
             width="30.233034"
             y="1165.6871"
             x="1312.845" />
          <rect
             style="display:inline;fill:none;stroke:#000000;stroke-width:1.02797806;stroke-miterlimit:4;stroke-dasharray:none"
             id="rect3773-0-2"
             height="7.4221625"
             width="30.233034"
             y="1165.6876"
             x="1343.1003" />
          <rect
             style="display:inline;stroke:#000000;stroke-width:1.02797806;stroke-miterlimit:4;stroke-dasharray:none"
             id="rect3775-6-4"
             height="7.4221625"
             width="30.235167"
             y="1165.684"
             x="1373.3547" />
          <rect
             style="display:inline;fill:none;stroke:#000000;stroke-width:1.02797806;stroke-miterlimit:4;stroke-dasharray:none"
             id="rect3777-7-20"
             height="7.4221625"
             width="30.2341"
             y="1165.6876"
             x="1403.6101" />
          <rect
             style="display:inline;stroke:#000000;stroke-width:1.02797806;stroke-miterlimit:4;stroke-dasharray:none"
             id="rect3779-1-33"
             height="7.4221625"
             width="30.233034"
             y="1165.6876"
             x="1433.8656" />
          <text
             y="1161.1484"
             x="1311.672"
             font-size="12"
             id="text3783-2-4"
             style="font-style:normal;font-variant:normal;font-weight:normal;font-stretch:normal;font-size:13.86666679px;line-height:0%;font-family:'Gentium Book Basic';-inkscape-font-specification:'Gentium Book Basic';stroke-width:1.06666672">0</text>
          <text
             y="1161.1823"
             x="1437.318"
             font-size="12"
             id="text3787-8-1"
             style="font-style:normal;font-variant:normal;font-weight:normal;font-stretch:normal;font-size:13.86666679px;line-height:0%;font-family:'Gentium Book Basic';-inkscape-font-specification:'Gentium Book Basic';stroke-width:1.06666672">5 cm</text>
        </g>
        <text
           id="text3215-1-6"
           y="1626.2449"
           x="2214.0234"
           style="font-style:normal;font-weight:normal;font-size:12.80000019px;line-height:0%;font-family:sans-serif;letter-spacing:0px;word-spacing:0px;fill:#000000;fill-opacity:1;stroke:none;stroke-width:1.06666672"
           xml:space="preserve"><tspan
             y="1626.2449"
             x="2214.0234"
             id="tspan3217-7-1"
             sodipodi:role="line"
             style="font-size:12.80000019px;line-height:1.25;font-family:sans-serif;stroke-width:1.06666672"> </tspan></text>
      </g>
    </g>
    <path
       style="fill:none;stroke:#000000;stroke-width:2;stroke-linecap:round;stroke-linejoin:round;stroke-miterlimit:3.89398885;stroke-dasharray:none;stroke-opacity:1"
       d="m 563.9191,250.17053 13.46871,8.61997"
       id="path6621"
       inkscape:connector-curvature="0" />
    <path
       style="fill:none;stroke:#000000;stroke-width:2;stroke-linecap:round;stroke-linejoin:round;stroke-miterlimit:3.89398885;stroke-dasharray:none;stroke-opacity:1"
       d="m 594.06734,131.66762 14.00744,6.46498"
       id="path6623"
       inkscape:connector-curvature="0" />
    <path
       style="display:inline;fill:none;stroke:#000000;stroke-width:2;stroke-linecap:round;stroke-linejoin:round;stroke-miterlimit:3.89398885;stroke-dasharray:none;stroke-opacity:1"
       d="m 572.45244,237.37053 13.4687,8.61997"
       id="path6621-0"
       inkscape:connector-curvature="0" />
  </g>
  <style
     id="style5430"
     type="text/css">

@font-face{font-family:'ArialMT';src:url(&quot;data:;base64,\
T1RUTwADACAAAQAQQ0ZGIOJhRYsAAACgAAAEdkdQT1Ov/L6JAAAFGAAAAFpjbWFwATIBOQAAADwA\
AABkAAAAAQAAAAMAAAAMAAQAWAAAABIAEAADAAIAIAAtADEAMwA1ADcAQgBQ//8AAAAgAC0AMQAz\
ADUANwBCAE/////h/9X/0v/R/9D/z//F/7kAAQAAAAAAAAAAAAAAAAAAAAAAAAEABAIAAQEBCEFy\
aWFsTVQAAQEBO/gbAfgYBPgcDBUc+q/9LRwQABwIDAUeoABIgoEl/4uLHqAASIKBJf+LiwwH9ykP\
9zwQ9z4RkxwEbhIAAgEBMj9BcmlhbCBpcyBhIHRyYWRlbWFyayBvZiBUaGUgTW9ub3R5cGUgQ29y\
cG9yYXRpb24uL0ZTVHlwZSA4IGRlZgAAAAABAA4AEgAUABYAGAAjADAAMQAAAAoCAAEAGwAeACwA\
VgEVAZoB4AKXA0sDrMr3lBYcBQD6lBz7AAf+dKsV+lQcBMD+VAYO/hwO/avM+EwV90n4vftJBw75\
jxb7SBwEewZgYlJhRWJEYkxsU3YI90IH8LrjxdbO1s7BzarKCPcIBg7h+BcV90ijoCWuQr1eGV68\
yHTSG+DSqMbGH8XGqNPiGt5wz1XBHsBVRqY4G2lhhH5YH5/3MgWKl5WKkhvY0J+zyB/Is6rJ3hrN\
dcJeth62XlKhRBtFUXVfXB9cX21JfjP7SKsYofcNvejZzgjN2eys9wgb29V6ac4fzmi/XK9QCK5Q\
nUxIGkx6UWlXHmlXWWJIbOJ3zmK7TAi7TKM8LBr7FFz7AC4yHjIu+wpe+yMb+xUhsdg2HzbYWu5/\
9w4IDuD4FBX3UZuZL6xGvl0ZXL7IdNMb4tSszMcfx8yp4vcAGvJu3FLGHsZRP6kuG1FXfnFcH1xw\
Z2lwYfs9oRj3IvmFBflt+0D83QY8/B4FyOPnquwb9xT3AF8y4x/jMrf7BvsfGvsZZPsGPioe+wst\
+xRQ+zcb+xn7AbDWNx821lvuf/cPCA7sHAT6FfdB+kn7IAcuKC77GDD7OS/7OUT7PVn7Qmf7D3T7\
GoH7Jgj7TQaN9wei9yC29ze29zfK9zLc9yzc9yvh9xTm8wgOIPcqFhwFuvi6B/cE5Xxuzx/ObcBd\
sk4IsU2eSkgaTHpQaVQeaVRYXkZp5HHPX7tMCLpMo0E2GkZ9TG5QHm5QZ11ga2BrVnNLewh6SjyD\
Lhv8AfnmFffRBuHJkZawH7yasaOkrQikrZe2vhq8f7Z0sB50sGmkYJkImGBAkiIb+7kG/vQE+AEG\
yreNkKQfuJOwmKmeqZ6kpp6vCJ6ulbS6GsJ9um+0Hm+zZKdanAibWUOTLhv75wYO9wzu+V4V94fM\
91P3F/ceHvcd9xf3PND3Yxv3G/cOa0r3AR/3AUreMcT7BwjE+win+xf7Jxr7KW37GU/7CR5P+wk2\
MvsCTwhO+wL7C237Exv7HvsPrM77AR/7Ac455lP3BwhT9wdv9w73FRr3XIgV+0W7+x/qJh4l6vcL\
WPcjG/cm9wy+8uof6fK69yX3URr3C3f0Y+QeYuRQ0D68CLw9NKMqG/sd+wpcLSgfKCxZ+zH7cRoO\
IPcyFhwFuvi9B+zWhoK+H9N/x3S8arxpslypTgioTppJQhr7EWMiPDUeNDz7JGD7Yxv8DPzoBvmV\
BPgPBvcR5KK6wB/AuqXM4BrIfMBstx5stmKoWJkIlGpPjzMb/AsGDhwEcxQcBcEVAAAAAQAAAAoA\
HgAsAAFERkxUAAgABAAAAAD//wABAAAAAWtlcm4ACAAAAAEAAAABAAQAAgAAAAEACAABABoABAAA\
AAIADgAUAAEAA/9oAAEAAf/bAAEAAgADAAkAAA==&quot;)}

</style>
  <style
     id="style6382"
     type="text/css">

@font-face{font-family:'ArialMT';src:url(&quot;data:;base64,\
T1RUTwADACAAAQAQQ0ZGIOJhRYsAAACgAAAEdkdQT1Ov/L6JAAAFGAAAAFpjbWFwATIBOQAAADwA\
AABkAAAAAQAAAAMAAAAMAAQAWAAAABIAEAADAAIAIAAtADEAMwA1ADcAQgBQ//8AAAAgAC0AMQAz\
ADUANwBCAE/////h/9X/0v/R/9D/z//F/7kAAQAAAAAAAAAAAAAAAAAAAAAAAAEABAIAAQEBCEFy\
aWFsTVQAAQEBO/gbAfgYBPgcDBUc+q/9LRwQABwIDAUeoABIgoEl/4uLHqAASIKBJf+LiwwH9ykP\
9zwQ9z4RkxwEbhIAAgEBMj9BcmlhbCBpcyBhIHRyYWRlbWFyayBvZiBUaGUgTW9ub3R5cGUgQ29y\
cG9yYXRpb24uL0ZTVHlwZSA4IGRlZgAAAAABAA4AEgAUABYAGAAjADAAMQAAAAoCAAEAGwAeACwA\
VgEVAZoB4AKXA0sDrMr3lBYcBQD6lBz7AAf+dKsV+lQcBMD+VAYO/hwO/avM+EwV90n4vftJBw75\
jxb7SBwEewZgYlJhRWJEYkxsU3YI90IH8LrjxdbO1s7BzarKCPcIBg7h+BcV90ijoCWuQr1eGV68\
yHTSG+DSqMbGH8XGqNPiGt5wz1XBHsBVRqY4G2lhhH5YH5/3MgWKl5WKkhvY0J+zyB/Is6rJ3hrN\
dcJeth62XlKhRBtFUXVfXB9cX21JfjP7SKsYofcNvejZzgjN2eys9wgb29V6ac4fzmi/XK9QCK5Q\
nUxIGkx6UWlXHmlXWWJIbOJ3zmK7TAi7TKM8LBr7FFz7AC4yHjIu+wpe+yMb+xUhsdg2HzbYWu5/\
9w4IDuD4FBX3UZuZL6xGvl0ZXL7IdNMb4tSszMcfx8yp4vcAGvJu3FLGHsZRP6kuG1FXfnFcH1xw\
Z2lwYfs9oRj3IvmFBflt+0D83QY8/B4FyOPnquwb9xT3AF8y4x/jMrf7BvsfGvsZZPsGPioe+wst\
+xRQ+zcb+xn7AbDWNx821lvuf/cPCA7sHAT6FfdB+kn7IAcuKC77GDD7OS/7OUT7PVn7Qmf7D3T7\
GoH7Jgj7TQaN9wei9yC29ze29zfK9zLc9yzc9yvh9xTm8wgOIPcqFhwFuvi6B/cE5Xxuzx/ObcBd\
sk4IsU2eSkgaTHpQaVQeaVRYXkZp5HHPX7tMCLpMo0E2GkZ9TG5QHm5QZ11ga2BrVnNLewh6SjyD\
Lhv8AfnmFffRBuHJkZawH7yasaOkrQikrZe2vhq8f7Z0sB50sGmkYJkImGBAkiIb+7kG/vQE+AEG\
yreNkKQfuJOwmKmeqZ6kpp6vCJ6ulbS6GsJ9um+0Hm+zZKdanAibWUOTLhv75wYO9wzu+V4V94fM\
91P3F/ceHvcd9xf3PND3Yxv3G/cOa0r3AR/3AUreMcT7BwjE+win+xf7Jxr7KW37GU/7CR5P+wk2\
MvsCTwhO+wL7C237Exv7HvsPrM77AR/7Ac455lP3BwhT9wdv9w73FRr3XIgV+0W7+x/qJh4l6vcL\
WPcjG/cm9wy+8uof6fK69yX3URr3C3f0Y+QeYuRQ0D68CLw9NKMqG/sd+wpcLSgfKCxZ+zH7cRoO\
IPcyFhwFuvi9B+zWhoK+H9N/x3S8arxpslypTgioTppJQhr7EWMiPDUeNDz7JGD7Yxv8DPzoBvmV\
BPgPBvcR5KK6wB/AuqXM4BrIfMBstx5stmKoWJkIlGpPjzMb/AsGDhwEcxQcBcEVAAAAAQAAAAoA\
HgAsAAFERkxUAAgABAAAAAD//wABAAAAAWtlcm4ACAAAAAEAAAABAAQAAgAAAAEACAABABoABAAA\
AAIADgAUAAEAA/9oAAEAAf/bAAEAAgADAAkAAA==&quot;)}

</style>
</svg>
