<?xml version="1.0" encoding="UTF-8" standalone="no"?>
<!-- Created with Inkscape (http://www.inkscape.org/) -->

<svg
   xmlns:dc="http://purl.org/dc/elements/1.1/"
   xmlns:cc="http://creativecommons.org/ns#"
   xmlns:rdf="http://www.w3.org/1999/02/22-rdf-syntax-ns#"
   xmlns:svg="http://www.w3.org/2000/svg"
   xmlns="http://www.w3.org/2000/svg"
   xmlns:sodipodi="http://sodipodi.sourceforge.net/DTD/sodipodi-0.dtd"
   xmlns:inkscape="http://www.inkscape.org/namespaces/inkscape"
   width="1008.1906"
   height="305.70898"
   id="svg4048"
   version="1.1"
   inkscape:version="0.92.1 r15371"
   sodipodi:docname="Bo75-P5-101.svg">
  <title
     id="title2983">Bo75-P5-101</title>
  <defs
     id="defs4050" />
  <sodipodi:namedview
     id="base"
     pagecolor="#ffffff"
     bordercolor="#666666"
     borderopacity="1.0"
     inkscape:pageopacity="0.0"
     inkscape:pageshadow="2"
     inkscape:zoom="0.82101012"
     inkscape:cx="338.22422"
     inkscape:cy="28.938206"
     inkscape:document-units="px"
     inkscape:current-layer="layer17"
     showgrid="true"
     units="mm"
     inkscape:window-width="1280"
     inkscape:window-height="974"
     inkscape:window-x="0"
     inkscape:window-y="26"
     inkscape:window-maximized="1"
     fit-margin-top="0"
     fit-margin-left="0"
     fit-margin-right="0"
     fit-margin-bottom="0">
    <inkscape:grid
       type="xygrid"
       id="grid4079"
       units="cm"
       empspacing="5"
       visible="false"
       enabled="false"
       snapvisiblegridlinesonly="true"
       originx="89.971257"
       originy="-811.48993"
       spacingx="40.314961"
       spacingy="40.314961" />
  </sodipodi:namedview>
  <metadata
     id="metadata4053">
    <rdf:RDF>
      <cc:Work
         rdf:about="">
        <dc:format>image/svg+xml</dc:format>
        <dc:type
           rdf:resource="http://purl.org/dc/dcmitype/StillImage" />
        <dc:title>Bo75-P5-101</dc:title>
        <cc:license
           rdf:resource="http://creativecommons.org/licenses/by-nc-sa/4.0/" />
        <dc:creator>
          <cc:Agent>
            <dc:title>Néhémie Strupler</dc:title>
          </cc:Agent>
        </dc:creator>
        <dc:description>Pottery Drawing from the BoKeWTer database</dc:description>
        <dc:contributor>
          <cc:Agent>
            <dc:title>Illustrator: İrem Göçmez 
Basic digitisation: Mehmet Turgut
Final work and metadata: Néhémie Strupler</dc:title>
          </cc:Agent>
        </dc:contributor>
        <dc:subject>
          <rdf:Bag>
            <rdf:li>Archaeology</rdf:li>
            <rdf:li>Pottery</rdf:li>
            <rdf:li>Drawing</rdf:li>
            <rdf:li>BoKeWTer</rdf:li>
            <rdf:li>Westterrasse</rdf:li>
            <rdf:li>Boğazköy</rdf:li>
            <rdf:li>Bogazkoy</rdf:li>
            <rdf:li>Hattusa</rdf:li>
            <rdf:li>Hittites</rdf:li>
            <rdf:li>Late Bronze Age</rdf:li>
            <rdf:li>Turkey</rdf:li>
          </rdf:Bag>
        </dc:subject>
        <dc:date>2017-03-07</dc:date>
        <dc:rights>
          <cc:Agent>
            <dc:title>Néhémie Strupler</dc:title>
          </cc:Agent>
        </dc:rights>
        <dc:relation />
      </cc:Work>
      <cc:License
         rdf:about="http://creativecommons.org/licenses/by-nc-sa/4.0/">
        <cc:permits
           rdf:resource="http://creativecommons.org/ns#Reproduction" />
        <cc:permits
           rdf:resource="http://creativecommons.org/ns#Distribution" />
        <cc:requires
           rdf:resource="http://creativecommons.org/ns#Notice" />
        <cc:requires
           rdf:resource="http://creativecommons.org/ns#Attribution" />
        <cc:prohibits
           rdf:resource="http://creativecommons.org/ns#CommercialUse" />
        <cc:permits
           rdf:resource="http://creativecommons.org/ns#DerivativeWorks" />
        <cc:requires
           rdf:resource="http://creativecommons.org/ns#ShareAlike" />
      </cc:License>
    </rdf:RDF>
  </metadata>
  <g
     inkscape:groupmode="layer"
     id="layer17"
     inkscape:label="scale"
     transform="translate(89.971257,-5.3207272)">
    <g
       style="display:inline"
       id="g3705"
       transform="matrix(1.244841,0,0,1.3514373,-1398.4796,-1285.1923)">
      <g
         id="g5680">
        <g
           style="display:inline;stroke-width:0.96372944;stroke-miterlimit:4;stroke-dasharray:none"
           id="g3676"
           transform="translate(0,2.1333334)">
          <rect
             x="1312.9849"
             y="1163.6376"
             width="302.44238"
             height="14.843801"
             id="rect3757-68"
             style="display:inline;fill:none;stroke:#000000;stroke-width:1.02797806;stroke-miterlimit:4;stroke-dasharray:none" />
          <rect
             x="1312.845"
             y="1171.0591"
             width="30.233034"
             height="7.4221625"
             id="rect3759-1"
             style="display:inline;fill:none;stroke:#000000;stroke-width:1.02797806;stroke-miterlimit:4;stroke-dasharray:none" />
          <rect
             x="1343.1003"
             y="1171.0597"
             width="30.233034"
             height="7.4221625"
             id="rect3761-59"
             style="display:inline;stroke:#000000;stroke-width:1.02797806;stroke-miterlimit:4;stroke-dasharray:none" />
          <rect
             x="1373.3547"
             y="1171.056"
             width="30.2341"
             height="7.4221625"
             id="rect3763-46"
             style="display:inline;fill:none;stroke:#000000;stroke-width:1.02797806;stroke-miterlimit:4;stroke-dasharray:none" />
          <rect
             x="1403.6101"
             y="1171.0597"
             width="30.2341"
             height="7.4221625"
             id="rect3765-3"
             style="display:inline;stroke:#000000;stroke-width:1.02797806;stroke-miterlimit:4;stroke-dasharray:none" />
          <rect
             x="1433.8656"
             y="1171.0597"
             width="30.233034"
             height="7.4221625"
             id="rect3767-4"
             style="display:inline;fill:none;stroke:#000000;stroke-width:1.02797806;stroke-miterlimit:4;stroke-dasharray:none" />
          <rect
             x="1464.12"
             y="1171.056"
             width="151.16623"
             height="7.421639"
             id="rect3769-0"
             style="display:inline;stroke:#000000;stroke-width:1.02797806;stroke-miterlimit:4;stroke-dasharray:none" />
          <rect
             x="1312.845"
             y="1163.5538"
             width="30.233034"
             height="7.4221625"
             id="rect3771-4"
             style="display:inline;stroke:#000000;stroke-width:1.02797806;stroke-miterlimit:4;stroke-dasharray:none" />
          <rect
             x="1343.1003"
             y="1163.5543"
             width="30.233034"
             height="7.4221625"
             id="rect3773-0"
             style="display:inline;fill:none;stroke:#000000;stroke-width:1.02797806;stroke-miterlimit:4;stroke-dasharray:none" />
          <rect
             x="1373.3547"
             y="1163.5507"
             width="30.235167"
             height="7.4221625"
             id="rect3775-6"
             style="display:inline;stroke:#000000;stroke-width:1.02797806;stroke-miterlimit:4;stroke-dasharray:none" />
          <rect
             x="1403.6101"
             y="1163.5543"
             width="30.2341"
             height="7.4221625"
             id="rect3777-7"
             style="display:inline;fill:none;stroke:#000000;stroke-width:1.02797806;stroke-miterlimit:4;stroke-dasharray:none" />
          <rect
             x="1433.8656"
             y="1163.5543"
             width="30.233034"
             height="7.4221625"
             id="rect3779-1"
             style="display:inline;stroke:#000000;stroke-width:1.02797806;stroke-miterlimit:4;stroke-dasharray:none" />
          <rect
             x="1464.12"
             y="1163.5507"
             width="151.1673"
             height="7.421639"
             id="rect3781-5"
             style="display:inline;fill:none;stroke:#000000;stroke-width:1.02797806;stroke-miterlimit:4;stroke-dasharray:none" />
        </g>
        <g
           transform="translate(-5.1280561,-109.29891)"
           id="g3755-2"
           style="display:inline">
          <g
             id="g3304-2">
            <g
               id="g3671">
              <text
                 y="1270.4474"
                 x="1316.8"
                 font-size="12"
                 id="text3783-2"
                 style="font-style:normal;font-variant:normal;font-weight:normal;font-stretch:normal;font-size:13.86666679px;font-family:'Gentium Book Basic';-inkscape-font-specification:'Gentium Book Basic';stroke-width:1.06666672">0</text>
              <text
                 y="1270.4067"
                 x="1465.0667"
                 font-size="12"
                 id="text3785-4"
                 style="font-style:normal;font-variant:normal;font-weight:normal;font-stretch:normal;font-size:13.86666679px;font-family:'Gentium Book Basic';-inkscape-font-specification:'Gentium Book Basic';stroke-width:1.06666672">5</text>
              <text
                 y="1270.4812"
                 x="1586.6666"
                 font-size="12"
                 id="text3787-8"
                 style="font-style:normal;font-variant:normal;font-weight:normal;font-stretch:normal;font-size:13.86666679px;font-family:'Gentium Book Basic';-inkscape-font-specification:'Gentium Book Basic';stroke-width:1.06666672">10 cm</text>
            </g>
          </g>
          <g
             inkscape:groupmode="layer"
             id="layer7"
             inkscape:label="scale"
             style="display:inline" />
          <text
             xml:space="preserve"
             style="font-style:normal;font-weight:normal;font-size:12.80000019px;line-height:125%;font-family:Sans;letter-spacing:0px;word-spacing:0px;fill:#000000;fill-opacity:1;stroke:none;stroke-width:1.06666672"
             x="2219.1514"
             y="1735.5438"
             id="text3215-1"><tspan
               sodipodi:role="line"
               id="tspan3217-7"
               x="2219.1514"
               y="1746.8688"
               style="stroke-width:1.06666672" /></text>
        </g>
      </g>
    </g>
  </g>
  <g
     inkscape:label="Layer 1"
     inkscape:groupmode="layer"
     id="layer1"
     transform="translate(89.971257,-5.3207299)">
    <path
       id="path6"
       d="m 704.22009,85.23533 c -4.44555,-2.2464 -10.341,-4.44555 -13.8537,-8.16885 -8.7858,-9.3096 -9.1206,-40.81455 -6.23295,-52.8606 0.82215,-3.4398 2.05605,-6.28425 3.56805,-8.6373 4.22145,-6.56775 16.84395,-10.85535 24.00705,-6.7851 14.5152,8.24445 3.132,32.79285 9.28125,43.45785 4.08915,7.09695 14.45985,13.83075 25.90515,19.7559 21.21525,10.9809 42.46965,18.80685 62.4429,32.37975 20.4606,13.9023 37.51515,31.42125 54.63315,48.87405 2.2383,2.28015 3.7044,3.77595 3.7044,3.77595 0,0 4.0284,4.9464 8.70885,10.69335 7.46145,9.16245 26.72865,39.25665 31.9599,49.38165 -1.8279,6.05205 -10.27755,19.09845 -15.35625,22.95 -0.50625,0.50625 -2.19375,-1.6875 -2.19375,-1.6875 -10.26675,-14.97825 -21.3867,-30.1266 -32.25555,-44.5311 -3.32505,-4.40505 -6.6609,-8.8776 -9.06795,-12.2229 -31.0284,-43.1433 -68.7258,-61.60185 -115.37505,-83.0736 -6.04395,-2.781 -25.72155,-11.20365 -25.72155,-11.20365 0,0 -1.76715,-0.8937 -4.15395,-2.0979 z"
       style="clip-rule:evenodd;fill-rule:evenodd;stroke:#000000;stroke-width:1.35000002;stroke-miterlimit:3.86369991"
       inkscape:connector-curvature="0" />
    <path
       id="path8"
       d="m 120.01434,5.99708 c -2.0412,0.14715 -3.8286,0.6399 -5.4162,1.5417 -14.5125,8.24445 -3.1293,32.79285 -9.27855,43.45785 -4.09185,7.09695 -14.45985,13.83075 -25.90785,19.7559 -21.21525,10.9809 -42.46965,18.80685 -62.4429,32.37975 -20.4579,13.9023 -37.51515,31.42125 -54.63315,48.87405 l -3.7044,3.77595 -8.70885,10.69335 c -7.45875,9.16245 -26.71785,39.28635 -31.9491,49.41135"
       style="clip-rule:evenodd;fill:none;fill-rule:evenodd;stroke:#000000;stroke-width:1.35000002;stroke-miterlimit:3.86369991"
       inkscape:connector-curvature="0" />
    <line
       id="line20"
       y2="5.9957299"
       x2="119.94549"
       y1="5.9957299"
       x1="691.33301"
       style="clip-rule:evenodd;fill:none;fill-rule:evenodd;stroke:#000000;stroke-width:1.35000002;stroke-miterlimit:3.86369991" />
    <line
       id="line22"
       y2="239.88322"
       x2="423.358"
       y1="6.33323"
       x1="423.358"
       style="clip-rule:evenodd;fill:none;fill-rule:evenodd;stroke:#000000;stroke-width:1.35000002;stroke-miterlimit:3.86369991" />
    <line
       id="line24"
       y2="228.83076"
       x2="-89.388206"
       y1="218.70576"
       x1="-83.481956"
       style="clip-rule:evenodd;fill:none;fill-rule:evenodd;stroke:#000000;stroke-width:1.35000002;stroke-miterlimit:3.86369991" />
    <line
       id="line26"
       y2="254.14058"
       x2="901.07843"
       y1="244.01558"
       x1="895.17218"
       style="clip-rule:evenodd;fill:none;fill-rule:evenodd;stroke:#000000;stroke-width:1.35000002;stroke-miterlimit:3.86369991" />
    <line
       id="line28"
       y2="231.02184"
       x2="917.63623"
       y1="220.89684"
       x1="911.72998"
       style="clip-rule:evenodd;fill:none;fill-rule:evenodd;stroke:#000000;stroke-width:1.35000002;stroke-miterlimit:3.86369991" />
  </g>
  <style
     id="style5430"
     type="text/css">

@font-face{font-family:'ArialMT';src:url(&quot;data:;base64,\
T1RUTwADACAAAQAQQ0ZGIOJhRYsAAACgAAAEdkdQT1Ov/L6JAAAFGAAAAFpjbWFwATIBOQAAADwA\
AABkAAAAAQAAAAMAAAAMAAQAWAAAABIAEAADAAIAIAAtADEAMwA1ADcAQgBQ//8AAAAgAC0AMQAz\
ADUANwBCAE/////h/9X/0v/R/9D/z//F/7kAAQAAAAAAAAAAAAAAAAAAAAAAAAEABAIAAQEBCEFy\
aWFsTVQAAQEBO/gbAfgYBPgcDBUc+q/9LRwQABwIDAUeoABIgoEl/4uLHqAASIKBJf+LiwwH9ykP\
9zwQ9z4RkxwEbhIAAgEBMj9BcmlhbCBpcyBhIHRyYWRlbWFyayBvZiBUaGUgTW9ub3R5cGUgQ29y\
cG9yYXRpb24uL0ZTVHlwZSA4IGRlZgAAAAABAA4AEgAUABYAGAAjADAAMQAAAAoCAAEAGwAeACwA\
VgEVAZoB4AKXA0sDrMr3lBYcBQD6lBz7AAf+dKsV+lQcBMD+VAYO/hwO/avM+EwV90n4vftJBw75\
jxb7SBwEewZgYlJhRWJEYkxsU3YI90IH8LrjxdbO1s7BzarKCPcIBg7h+BcV90ijoCWuQr1eGV68\
yHTSG+DSqMbGH8XGqNPiGt5wz1XBHsBVRqY4G2lhhH5YH5/3MgWKl5WKkhvY0J+zyB/Is6rJ3hrN\
dcJeth62XlKhRBtFUXVfXB9cX21JfjP7SKsYofcNvejZzgjN2eys9wgb29V6ac4fzmi/XK9QCK5Q\
nUxIGkx6UWlXHmlXWWJIbOJ3zmK7TAi7TKM8LBr7FFz7AC4yHjIu+wpe+yMb+xUhsdg2HzbYWu5/\
9w4IDuD4FBX3UZuZL6xGvl0ZXL7IdNMb4tSszMcfx8yp4vcAGvJu3FLGHsZRP6kuG1FXfnFcH1xw\
Z2lwYfs9oRj3IvmFBflt+0D83QY8/B4FyOPnquwb9xT3AF8y4x/jMrf7BvsfGvsZZPsGPioe+wst\
+xRQ+zcb+xn7AbDWNx821lvuf/cPCA7sHAT6FfdB+kn7IAcuKC77GDD7OS/7OUT7PVn7Qmf7D3T7\
GoH7Jgj7TQaN9wei9yC29ze29zfK9zLc9yzc9yvh9xTm8wgOIPcqFhwFuvi6B/cE5Xxuzx/ObcBd\
sk4IsU2eSkgaTHpQaVQeaVRYXkZp5HHPX7tMCLpMo0E2GkZ9TG5QHm5QZ11ga2BrVnNLewh6SjyD\
Lhv8AfnmFffRBuHJkZawH7yasaOkrQikrZe2vhq8f7Z0sB50sGmkYJkImGBAkiIb+7kG/vQE+AEG\
yreNkKQfuJOwmKmeqZ6kpp6vCJ6ulbS6GsJ9um+0Hm+zZKdanAibWUOTLhv75wYO9wzu+V4V94fM\
91P3F/ceHvcd9xf3PND3Yxv3G/cOa0r3AR/3AUreMcT7BwjE+win+xf7Jxr7KW37GU/7CR5P+wk2\
MvsCTwhO+wL7C237Exv7HvsPrM77AR/7Ac455lP3BwhT9wdv9w73FRr3XIgV+0W7+x/qJh4l6vcL\
WPcjG/cm9wy+8uof6fK69yX3URr3C3f0Y+QeYuRQ0D68CLw9NKMqG/sd+wpcLSgfKCxZ+zH7cRoO\
IPcyFhwFuvi9B+zWhoK+H9N/x3S8arxpslypTgioTppJQhr7EWMiPDUeNDz7JGD7Yxv8DPzoBvmV\
BPgPBvcR5KK6wB/AuqXM4BrIfMBstx5stmKoWJkIlGpPjzMb/AsGDhwEcxQcBcEVAAAAAQAAAAoA\
HgAsAAFERkxUAAgABAAAAAD//wABAAAAAWtlcm4ACAAAAAEAAAABAAQAAgAAAAEACAABABoABAAA\
AAIADgAUAAEAA/9oAAEAAf/bAAEAAgADAAkAAA==&quot;)}

</style>
  <style
     id="style6533"
     type="text/css">

@font-face{font-family:'ArialMT';src:url(&quot;data:;base64,\
T1RUTwADACAAAQAQQ0ZGIOHrJ9IAAACwAAAHv0dQT1OvQL7DAAAIcAAAAGRjbWFwAdcB2gAAADwA\
AAB0AAAAAQAAAAMAAAAMAAQAaAAAABYAEAADAAYAIAAtADIAOAA6AEIATwBSAGMAbf//AAAAIAAs\
ADEANQA6AEEATwBSAGMAbf///+H/1v/T/9H/0P/K/77/vP+s/6MAAQAAAAAAAAAAAAAAAAAAAAAA\
AAAAAAABAAQCAAEBAQhBcmlhbE1UAAEBATv4GwH4GAT4HAwVHPqv/S0cEAAcCAwFHqAASIKBJf+L\
ix6gAEiCgSX/i4sMB/cpD/dIEPdKEZIcB7gSAAIBATI/QXJpYWwgaXMgYSB0cmFkZW1hcmsgb2Yg\
VGhlIE1vbm90eXBlIENvcnBvcmF0aW9uLi9GU1R5cGUgOCBkZWYAAAEAAQAADQEAEgEAFgMAGwAA\
IgEAMAAAMwAARAAATgAAAAARAgABABwAHgBGAFMAfQEHAYwCVAKaA3oDlAPTBIsFPwXMBk8G3Pnw\
95QWHAUA+pQc+wAH/nSrFfpUHATA/lQGDiAOIPdKFvdh92H7YQdAfk5wXR5wXGFnUXJZ2BixnKej\
naydq5W5jcgIDpHM+EwV90n4vftJBw75jxb7SBwEewZgYlJhRWJEYkxsU3YI90IH8LrjxdbO1s7B\
zarKCPcIBg76m/dBFftB/l0HiraStZqzpM2yzMLLwcvZ1fLf9zP3F/cA8sPYCMPXp9PPGtJyyFi8\
HrxYSKM5GzRGcVdXH1dXcUOKL/tNnhiY9x669N7UCNPe9wOv9x8b9yH3A2Q93R/dPbQq+wcaUH9S\
c1Iec1JjUFRMU0wuNfsV+wH7ADBGTmxrbGpya3dqCA7g+BQV91GbmS+sRr5dGVy+yHTTG+LUrMzH\
H8fMqeL3ABrybtxSxh7GUT+pLhtRV35xXB9ccGdpcGH7PaEY9yL5hQX5bftA/N0GPPweBcjj56rs\
G/cU9wBfMuMf4zK3+wb7Hxr7GWT7Bj4qHvsLLfsUUPs3G/sZ+wGw1jcfNtZb7n/3DwgO+o/65xX7\
R3170nS+bqsZvlpPpUQbUlh7a2AfUmJfTmo8ajx6+wWK+ye2zcC8yqsIq8rMm9Ab9wzxXzPgH98y\
tfsG+yAaL3c2ZDweYzxUTkZhCGFGPHYzG/sq+w7C9wMsHyz3Alz3SveRGvevv/di9PcVHvcE5vcP\
w/cvG/cH6mtK1R/USrcymvsGCP1z/QwVTZhQplIepVKwYLpuCG26vXy/G9fMqsjCH8LIpt/0GvBw\
21XGHsVVR6g5GzpGblFSH1JQbz8sGg7sHAT6FfdB+kn7IAcuKC77GDD7OS/7OUT7PVn7Qmf7D3T7\
GoH7Jgj7TQaN9wei9yC29ze29zfK9zLc9yzc9yvh9xTm8wgO9/75rxVAplSyZ74IZ755x9Ia9rHk\
2NQe1Njxr/cTG/cU8mZB2R/ZQLIxIBpHeVBoWR5nWFVkQnDlbtBbukoIukqiPTAa+xFfITI2HjYy\
+whg+yUb+yX7CLbhMh8y4F/29xQa6qPbvMweu8vQt+SiCGf3xRVGoVK4Xx5fuMV10hvQxKG3uB+3\
tqHByhrNdMNeuB64XVKhRxtGUnVfXh9eX3RWThpR/TkVWJdZpFseo1uvZrtxCHC7v37CG+HSp8LD\
H8PCp9LgGuJu0lLEHsRRQ6c0GzZFb1NUH1NTb0U3Gg4g90357RX3Yfdh+2EH+2H97RX3Yfdh+2EH\
DvlGiBb4xxwFugX3ZQb47Bz6RgX7cQb7P/hQBfz5Bvs1/FAF92347hX4hQb7LfgqXPcPafF02hl4\
LXEuaS4IDvlG9yoWHAW6+LoH9wTlfG7PH85twF2yTgixTZ5KSBpMelBpVB5pVFheRmnkcc9fu0wI\
ukyjQTYaRn1MblAeblBnXWBrYGtWc0t7CHpKPIMuG/wB+eYV99EG4cmRlrAfvJqxo6StCKStl7a+\
Grx/tnSwHnSwaaRgmQiYYECSIhv7uQb+9AT4AQbKt42QpB+4k7CYqZ6pnqSmnq8Inq6VtLoawn26\
b7Qeb7Nkp1qcCJtZQ5MuG/vnBg76Ke75XhX3h8z3U/cX9x4e9x33F/c80PdjG/cb9w5rSvcBH/cB\
St4xxPsHCMT7CKf7F/snGvspbfsZT/sJHk/7CTYy+wJPCE77AvsLbfsTG/se+w+szvsBH/sBzjnm\
U/cHCFP3B2/3DvcVGvdciBX7Rbv7H+omHiXq9wtY9yMb9yb3DL7y6h/p8rr3JfdRGvcLd/Rj5B5i\
5FDQPrwIvD00oyob+x37ClwtKB8oLFn7MftxGg75t/c1FhwFuvkeB/cX7n5xzx/PcMFdtEgItEif\
QjoaI2kzSEQeSEQjXfsheL5ysnOmc8RXwEq+PfeT/CMY+4gG+1b3xVLjXc5muhlmumurbp5unm2Y\
bZIIkHVnjVkb+3X9Hwb5xwT4NQbk0JSevR+9nbGopbQIpbOYt7oa0HLEWbgeuFg8ofsBG/xkBg73\
8PnQ+BkV90V0ePsOWSw8RhlGOylo+wgb+yX7CbvqMx8y6l/3HPdFGvcHnu+x4R6x4cXM2bYIttjg\
oOYb9wfqblHUH9RQujigIPtDcBh60m7BYa8Ir2BYnU8bMEJrSlIfUkpvJPshGvsjpiTCSh5KwtJr\
4xvSxqG2uh+6tqnOmOUIDvqa9xsW+rr3NfspB6y/uLXCqwiqwsqb0hvay3tqvh+9aq5eoFAI9xDf\
9wHJ9xsb9NxuUcQfxFCnMfsNGv1t+0f5MQfThb+Aqx5/qnalbJ4InmxnlWIbQE1yWlofWllyO/sB\
Gvz9+0j5RgfbfMdusx6zblufSBtYXX5wYB9gcGtkeFgIeFiBQSoa/LsHDhwEcxT5OBUAAAEAAAAK\
AB4ALAABREZMVAAIAAQAAAAA//8AAQAAAAFrZXJuAAgAAAABAAAAAQAEAAIAAAABAAgAAQAiAAQA\
AAADABAAFgAcAAEAC/+PAAEABP9oAAEAAf+PAAEAAwABAAQACw==&quot;)}

</style>
</svg>
