	Janvier	Février	Mars	Avril	Mai	Juin	Juillet	Août	Septembre	Octobre	Novembre	Décembre
Température moyenne (°C)	0.5	2.3	6.8	12.2	16.9	21.2	24.6	24.2	19.6	13.6	6.9	2.6
Température maximale moyenne (°C)	4.1	6.7	12.5	18	23	27.5	31	30.9	26.7	20.5	12.6	6.2
Température minimale moyenne (°C)	-2.9	-1.8	1.4	6.1	10.2	13.8	16.7	16.4	12.2	7.4	2.2	-0.7
Ensoleillement (h/j)	2.4	4.2	5.3	6.6	8.4	10.3	11.4	11.1	9.2	6.3	4.2	2.2
Nombre de jours avec précipitations	11.2	10.1	9.9	11.3	10.9	7.9	3	2.5	3.6	6.5	8	10.5
Précipitations (mm)	43	31.9	35.5	45.5	50.8	37.1	11.1	9.6	13.5	29.4	31.8	43.4
Moyenne des mesures réalisées entre 1950 et 2015												
Source : http://www.mgm.gov.tr/veridegerlendirme/il-ve-ilceler-istatistik.aspx?m=KIRIKKALE [04.04.2016]												
