	Janvier	Février	Mars	Avril	Mai	Juin	Juillet	Août	Septembre	Octobre	Novembre	Décembre
Température moyenne (°C)	-1.8	-0.8	3	8.5	13.1	16.8	19.7	19.8	15.6	10.3	4.6	0.5
Température maximale moyenne (°C)	2.3	3.7	8.2	14	18.7	22.6	26	26.5	22.8	16.9	10.2	4.6
Température minimale moyenne (°C)	-5.2	-4.6	-1.3	3.4	7.3	10.4	12.9	13	9.5	5.4	0.6	-2.8
Ensoleillement (h/j)	3	4.1	5.2	6.3	8.2	10	11.1	10.6	9.1	6.4	4.5	3
Nombre de jours avec précipitations	14	13	13.7	13.7	13.9	9.2	3.1	2.4	4	7.6	9.5	13.4
Précipitations (mm)	68.7	62.8	67	62.3	65.3	44.4	12.4	8.9	17.8	36.8	56.1	76.2
Moyenne des mesures réalisées entre 1950 et 2015												
Source : http://www.mgm.gov.tr/veridegerlendirme/il-ve-ilceler-istatistik.aspx?m=YOZGAT [04.04.2016]												
