	Janvier	Février	Mars	Avril	Mai	Juin	Juillet	Août	Septembre	Octobre	Novembre	Décembre
Température moyenne (°C)	-0.3	1	5	10.6	15	18.6	21.3	21.2	17.2	11.8	5.9	1.8
Température maximale moyenne (°C)	4.3	6.4	11.5	17.5	22	25.9	29	29.4	25.6	19.6	12.7	6.3
Température minimale moyenne (°C)	-4.2	-3.6	-0.7	3.8	7.3	10.2	12.4	12.4	9.1	5.1	0.7	-2.1
Ensoleillement (h/j)	2.2	3.3	4.5	6.1	7.3	9.6	10.1	10	8.2	5.4	3.4	2
Nombre de jours avec précipitations	12.3	11	11.9	12.6	13.9	10.1	4.1	3	4.5	7.4	8.4	11.8
Précipitations (mm)	38.9	30.2	39.5	49.4	60.9	52.3	18.9	13.7	22.2	28.6	33.4	43.5
Moyenne des mesures réalisées entre 1950 et 2015												
Source :http://www.mgm.gov.tr/veridegerlendirme/il-ve-ilceler-istatistik.aspx?m=CORUM [04.04.2016]												
