<?xml version="1.0" encoding="UTF-8" standalone="no"?>
<!-- Created with Inkscape (http://www.inkscape.org/) -->

<svg
   xmlns:dc="http://purl.org/dc/elements/1.1/"
   xmlns:cc="http://creativecommons.org/ns#"
   xmlns:rdf="http://www.w3.org/1999/02/22-rdf-syntax-ns#"
   xmlns:svg="http://www.w3.org/2000/svg"
   xmlns="http://www.w3.org/2000/svg"
   xmlns:sodipodi="http://sodipodi.sourceforge.net/DTD/sodipodi-0.dtd"
   xmlns:inkscape="http://www.inkscape.org/namespaces/inkscape"
   width="1087.6575"
   height="1027.0864"
   id="svg4048"
   version="1.1"
   inkscape:version="0.91 r13725"
   sodipodi:docname="Bo75-U6-1.svg"
   viewBox="0 0 1087.6575 1027.0864">
  <title
     id="title2983">Bo75-U6-1</title>
  <defs
     id="defs4050" />
  <sodipodi:namedview
     id="base"
     pagecolor="#ffffff"
     bordercolor="#666666"
     borderopacity="1.0"
     inkscape:pageopacity="0.0"
     inkscape:pageshadow="2"
     inkscape:zoom="0.29027091"
     inkscape:cx="832.94428"
     inkscape:cy="544.85584"
     inkscape:document-units="px"
     inkscape:current-layer="layer1"
     showgrid="true"
     units="mm"
     inkscape:window-width="1280"
     inkscape:window-height="974"
     inkscape:window-x="0"
     inkscape:window-y="26"
     inkscape:window-maximized="1"
     fit-margin-top="0"
     fit-margin-left="0"
     fit-margin-right="0"
     fit-margin-bottom="0">
    <inkscape:grid
       type="xygrid"
       id="grid4079"
       units="cm"
       empspacing="5"
       visible="false"
       enabled="false"
       snapvisiblegridlinesonly="true"
       originx="191.82334"
       originy="-709.84369" />
  </sodipodi:namedview>
  <metadata
     id="metadata4053">
    <rdf:RDF>
      <cc:Work
         rdf:about="">
        <dc:format>image/svg+xml</dc:format>
        <dc:type
           rdf:resource="http://purl.org/dc/dcmitype/StillImage" />
        <dc:title>Bo75-U6-1</dc:title>
        <cc:license
           rdf:resource="http://creativecommons.org/licenses/by/3.0/" />
        <dc:creator>
          <cc:Agent>
            <dc:title>Néhémie Strupler</dc:title>
          </cc:Agent>
        </dc:creator>
        <dc:description>Pottery Drawing from the BoKeWTer database </dc:description>
        <dc:contributor>
          <cc:Agent>
            <dc:title>Illustrator: Néhémie Strupler
Basic digitisation: Mehmet Turgut
Final work and metadata: Néhémie Strupler</dc:title>
          </cc:Agent>
        </dc:contributor>
        <dc:subject>
          <rdf:Bag>
            <rdf:li>Archaeology</rdf:li>
            <rdf:li>Pottery</rdf:li>
            <rdf:li>Drawing</rdf:li>
            <rdf:li>BoKeWTer</rdf:li>
            <rdf:li>Westterrasse</rdf:li>
            <rdf:li>Boğazköy</rdf:li>
            <rdf:li>Bogazkoy</rdf:li>
            <rdf:li>Hattusa</rdf:li>
            <rdf:li>Hittites</rdf:li>
            <rdf:li>Late Bronze Age</rdf:li>
            <rdf:li>Turkey</rdf:li>
          </rdf:Bag>
        </dc:subject>
        <dc:date>2016-11-08</dc:date>
        <dc:rights>
          <cc:Agent>
            <dc:title>Néhémie Strupler</dc:title>
          </cc:Agent>
        </dc:rights>
        <dc:relation />
      </cc:Work>
      <cc:License
         rdf:about="http://creativecommons.org/licenses/by/3.0/">
        <cc:permits
           rdf:resource="http://creativecommons.org/ns#Reproduction" />
        <cc:permits
           rdf:resource="http://creativecommons.org/ns#Distribution" />
        <cc:requires
           rdf:resource="http://creativecommons.org/ns#Notice" />
        <cc:requires
           rdf:resource="http://creativecommons.org/ns#Attribution" />
        <cc:permits
           rdf:resource="http://creativecommons.org/ns#DerivativeWorks" />
      </cc:License>
    </rdf:RDF>
  </metadata>
  <g
     inkscape:groupmode="layer"
     id="layer17"
     inkscape:label="scale"
     transform="translate(191.82333,684.5679)">
    <g
       style="display:inline"
       id="g3705"
       transform="matrix(1.244841,0,0,1.3514373,-1354.19,-1153.9396)">
      <g
         id="g5680">
        <g
           style="display:inline;stroke-width:0.96372944;stroke-miterlimit:4;stroke-dasharray:none"
           id="g3676"
           transform="translate(0,2.0000001)">
          <rect
             x="1230.9233"
             y="1090.9103"
             width="283.53973"
             height="13.916063"
             id="rect3757-68"
             style="display:inline;fill:none;stroke:#000000;stroke-width:0.96372944;stroke-miterlimit:4;stroke-dasharray:none" />
          <rect
             x="1230.7921"
             y="1097.8679"
             width="28.34347"
             height="6.9582772"
             id="rect3759-1"
             style="display:inline;fill:none;stroke:#000000;stroke-width:0.96372944;stroke-miterlimit:4;stroke-dasharray:none" />
          <rect
             x="1259.1566"
             y="1097.8684"
             width="28.34347"
             height="6.9582772"
             id="rect3761-59"
             style="display:inline;stroke:#000000;stroke-width:0.96372944;stroke-miterlimit:4;stroke-dasharray:none" />
          <rect
             x="1287.52"
             y="1097.865"
             width="28.344469"
             height="6.9582772"
             id="rect3763-46"
             style="display:inline;fill:none;stroke:#000000;stroke-width:0.96372944;stroke-miterlimit:4;stroke-dasharray:none" />
          <rect
             x="1315.8845"
             y="1097.8684"
             width="28.344469"
             height="6.9582772"
             id="rect3765-3"
             style="display:inline;stroke:#000000;stroke-width:0.96372944;stroke-miterlimit:4;stroke-dasharray:none" />
          <rect
             x="1344.249"
             y="1097.8684"
             width="28.34347"
             height="6.9582772"
             id="rect3767-4"
             style="display:inline;fill:none;stroke:#000000;stroke-width:0.96372944;stroke-miterlimit:4;stroke-dasharray:none" />
          <rect
             x="1372.6125"
             y="1097.865"
             width="141.71834"
             height="6.9577866"
             id="rect3769-0"
             style="display:inline;stroke:#000000;stroke-width:0.96372944;stroke-miterlimit:4;stroke-dasharray:none" />
          <rect
             x="1230.7921"
             y="1090.8317"
             width="28.34347"
             height="6.9582772"
             id="rect3771-4"
             style="display:inline;stroke:#000000;stroke-width:0.96372944;stroke-miterlimit:4;stroke-dasharray:none" />
          <rect
             x="1259.1566"
             y="1090.8322"
             width="28.34347"
             height="6.9582772"
             id="rect3773-0"
             style="display:inline;fill:none;stroke:#000000;stroke-width:0.96372944;stroke-miterlimit:4;stroke-dasharray:none" />
          <rect
             x="1287.52"
             y="1090.8287"
             width="28.345469"
             height="6.9582772"
             id="rect3775-6"
             style="display:inline;stroke:#000000;stroke-width:0.96372944;stroke-miterlimit:4;stroke-dasharray:none" />
          <rect
             x="1315.8845"
             y="1090.8322"
             width="28.344469"
             height="6.9582772"
             id="rect3777-7"
             style="display:inline;fill:none;stroke:#000000;stroke-width:0.96372944;stroke-miterlimit:4;stroke-dasharray:none" />
          <rect
             x="1344.249"
             y="1090.8322"
             width="28.34347"
             height="6.9582772"
             id="rect3779-1"
             style="display:inline;stroke:#000000;stroke-width:0.96372944;stroke-miterlimit:4;stroke-dasharray:none" />
          <rect
             x="1372.6125"
             y="1090.8287"
             width="141.71935"
             height="6.9577866"
             id="rect3781-5"
             style="display:inline;fill:none;stroke:#000000;stroke-width:0.96372944;stroke-miterlimit:4;stroke-dasharray:none" />
        </g>
        <g
           transform="translate(-4.8075526,-102.46773)"
           id="g3755-2"
           style="display:inline">
          <g
             id="g3304-2">
            <g
               id="g3671">
              <text
                 y="1191.0444"
                 x="1234.5"
                 font-size="12"
                 id="text3783-2"
                 style="font-style:normal;font-variant:normal;font-weight:normal;font-stretch:normal;font-size:13px;font-family:'Gentium Book Basic';-inkscape-font-specification:'Gentium Book Basic'">0</text>
              <text
                 y="1191.0063"
                 x="1373.5"
                 font-size="12"
                 id="text3785-4"
                 style="font-style:normal;font-variant:normal;font-weight:normal;font-stretch:normal;font-size:13px;font-family:'Gentium Book Basic';-inkscape-font-specification:'Gentium Book Basic'">5</text>
              <text
                 y="1191.0762"
                 x="1487.5"
                 font-size="12"
                 id="text3787-8"
                 style="font-style:normal;font-variant:normal;font-weight:normal;font-stretch:normal;font-size:13px;font-family:'Gentium Book Basic';-inkscape-font-specification:'Gentium Book Basic'">10 cm</text>
            </g>
          </g>
          <g
             inkscape:groupmode="layer"
             id="layer7"
             inkscape:label="scale"
             style="display:inline" />
          <text
             xml:space="preserve"
             style="font-style:normal;font-weight:normal;font-size:12px;line-height:125%;font-family:Sans;letter-spacing:0px;word-spacing:0px;fill:#000000;fill-opacity:1;stroke:none"
             x="2077.3782"
             y="1590.157"
             id="text3215-1"
             sodipodi:linespacing="125%"
             transform="translate(3.0762894,36.91539)"><tspan
               sodipodi:role="line"
               id="tspan3217-7"
               x="2077.3782"
               y="1590.157" /></text>
        </g>
      </g>
    </g>
  </g>
  <g
     inkscape:label="Layer 1"
     inkscape:groupmode="layer"
     id="layer1"
     transform="translate(191.82333,684.56789)">
    <path
       style="clip-rule:evenodd;fill-rule:evenodd;stroke:#000000;stroke-width:1.26999998;stroke-miterlimit:3.86369991"
       inkscape:connector-curvature="0"
       stroke-miterlimit="3.8637"
       d="m 523.55936,-649.47272 c 12.14501,-17.66062 34.22777,-42.58183 57.89422,-30.68066 5.06095,2.54508 9.70915,5.82422 11.7983,11.34618 1.45542,10.93597 -12.44854,21.18106 -23.00605,27.80538 -30.35935,19.04746 -67.88658,74.10958 -74.43216,109.3216 -1.36398,5.90677 -3.03911,13.16609 -3.03911,13.16609 l -1.74625,4.92125 -1.27,9.2075 -1.905,17.4625 -1.905,15.71625 -0.3175,12.7 -0.15875,17.30375 -0.15875,17.30375 1.42875,19.685 1.27,15.875 1.42875,13.17625 2.54,15.5575 2.69875,21.43125 3.81,13.81125 3.175,13.0175 4.92125,21.11375 6.50875,23.97125 5.08,16.1925 4.445,9.8425 11.1125,24.60625 10.4775,20.16125 13.6525,22.86 6.35,10.63625 16.66875,27.14625 7.9375,11.43 18.57375,23.01748 13.97,16.8275 17.30375,19.52625 21.43125,24.28875 17.145,18.415 9.525,8.5725 10.16,11.1125 13.17625,15.24 14.44625,15.5575 11.43,10.16 9.36625,12.065 11.7475,13.0175 13.81125,15.39875 8.89,10.795 7.9375,9.525 11.27125,15.875 9.2075,12.3825 11.90625,12.22375 14.605,17.78 15.71625,16.98625 12.22375,15.08125 10.16,9.525 8.255,9.2075 5.715,6.35 c 0.84709,1.26746 0.84709,2.64414 0,4.1275 l -6.82625,6.35 -11.43,10.16 c -1.37287,1.15316 -2.90703,1.25857 -4.60375,0.3175 l -7.14375,-6.6675 -9.36625,-8.89 -12.3825,-13.17625 -10.00125,-11.27125 -13.0175,-14.2875 -16.1925,-16.98625 -15.875,-18.7325 -12.065,-15.71625 -14.76375,-19.685 -16.51,-19.20875 -16.35125,-17.145 -13.6525,-15.08125 -11.43,-12.3825 -14.605,-14.44625 -20.79625,-21.11375 -15.08125,-11.43 -20.32,-15.39875 -18.57375,-15.24 -10.31875,-7.77875 -5.715,-4.7625 -9.525,-14.76375 -13.0175,-23.1775 -10.00125,-16.1925 -10.95375,-18.25625 -6.6675,-11.1125 -7.9375,-11.90625 c -1.27762,-6.19125 -4.71678,-11.80084 -10.31875,-16.8275 -1.22555,-9.33323 -4.82473,-16.05407 -10.795,-20.16125 l -3.33375,-6.82625 c -0.27813,-8.92683 -3.24104,-15.54226 -8.89,-19.84375 l -3.175,-5.87375 c -0.36195,-9.04113 -3.21945,-16.39697 -8.5725,-22.06625 -0.17399,-10.30732 -3.1369,-18.24482 -8.89,-23.8125 0.75184,-12.13993 -1.41732,-20.92452 -6.50875,-26.3525 l -1.42875,-5.715 c 0.55118,-8.07085 -1.143,-14.5796 -5.08,-19.52625 l -3.175,-8.89 -1.74625,-10.16 -2.06375,-11.43 -2.54,-19.52625 -0.635,-20.0025 -2.06375,-20.955 -1.11125,-23.1775 0.3175,-22.225 0.47625,-20.47875 1.5875,-15.39875 2.06375,-19.84375 c 0,0 0.43942,-2.41808 1.00711,-5.53847 10.33526,-56.85155 19.94535,-75.53198 51.14671,-123.20397 3.7211,-5.68452 9.12368,-13.97254 9.12368,-13.97254 0,0 3.37185,-4.81203 6.49605,-9.35609 z"
       id="path7" />
    <path
       style="clip-rule:evenodd;fill:none;fill-rule:evenodd;stroke:#000000;stroke-width:1.26999998;stroke-miterlimit:3.86369991"
       inkscape:connector-curvature="0"
       stroke-miterlimit="3.8637"
       d="m 493.40956,-345.63665 c 0,0 0.75692,-1.68275 1.67513,-3.72999 12.69746,-36.06165 52.97043,-19.76501 79.17942,-11.4046 3.38201,1.0795 6.14045,1.95834 6.14045,1.95834 l 11.7475,6.0325 13.0175,8.89 c 0,0 2.31267,1.84658 5.35305,4.27355 38.45306,30.69844 68.5165,54.94147 86.39556,102.51186 1.90627,5.07111 3.66014,9.73709 3.66014,9.73709 l 2.69875,6.82625 2.2225,8.89 0.15875,7.62 3.65125,22.70125 3.01625,20.6375 1.74625,15.875 0.79375,15.39875 c 0,0 -1.38811,22.62378 -1.56718,25.56256 -4.59994,24.78024 -7.96417,70.41134 -39.8526,74.60869 -1.59512,0 -4.14147,0 -4.14147,0"
       id="path9" />
    <path
       style="clip-rule:evenodd;fill:none;fill-rule:evenodd;stroke:#000000;stroke-width:1.26999998;stroke-miterlimit:3.86369991"
       inkscape:connector-curvature="0"
       stroke-miterlimit="3.8637"
       d="m 490.39331,-514.54665 c 0,0 1.56718,1.45542 3.04038,3.30454 7.48792,9.40943 16.67383,10.28954 27.90444,11.32459 25.19807,2.3241 39.1287,-3.32867 65.45961,3.61696 5.00888,1.32207 9.97966,2.69621 14.87297,3.90271 22.28723,5.49656 43.65371,13.69568 63.07074,25.94356 2.93497,1.85039 13.77188,9.53389 13.77188,9.53389 l 16.66875,12.3825 c 0,0 4.43992,3.33248 7.55777,5.7531 34.87801,27.07259 65.41262,62.82182 86.44128,101.86035 2.9464,5.47243 6.17093,11.44905 6.17093,11.44905 l 4.445,8.5725 6.35,13.17625 6.82625,16.51 4.7625,17.4625 4.445,19.685 4.1275,16.66875 3.96875,15.71625 4.28625,22.06625 3.01625,23.495 1.27,17.4625 1.11125,17.145 c 0,0 0.29845,2.32283 0.66929,5.19938 1.54305,11.99769 2.39649,24.05888 3.10896,36.14039 l 1.98374,31.84398 c 1.30556,22.39391 2.82194,44.78274 6.06425,67.0052 0.81915,5.61213 1.66751,11.4173 1.66751,11.4173 l 2.69875,19.84375 3.96875,11.27125 1.27,14.12875 2.54,10.31875 0.79375,11.1125 4.28625,16.1925 2.8575,12.85875 6.50875,21.11375 3.33375,11.27125 1.74625,11.7475 3.33375,12.85875 1.905,14.12875 0.79375,7.77875 1.42875,9.04875 0.79375,5.715 1.5875,-0.23876 1.03251,1.98501 0.47625,1.11125 -1.905,0.9525 -0.39751,1.5875 0.23876,1.66751 0.71501,0.55626 -0.08,1.35001 -5.87375,4.36626"
       id="path11" />
    <path
       style="clip-rule:evenodd;fill:none;fill-rule:evenodd;stroke:#000000;stroke-width:1.26999998;stroke-miterlimit:3.86369991"
       inkscape:connector-curvature="0"
       stroke-miterlimit="3.8637"
       d="m 540.08206,-683.9329 -413.78124,1.66751 -3.89001,0.23749 -4.60375,1.82626 -5.31876,2.46126 c 0,0 -0.25527,0.19431 -0.67691,0.42291 -27.64409,14.96314 8.54583,39.65829 22.63394,47.54753 15.89278,8.89889 36.60775,34.36747 44.56049,50.68951 1.36906,2.81051 2.77749,5.47878 2.77749,5.47878 l 7.14375,17.62125 3.65125,7.9375 5.08,14.605 5.55625,12.065 2.54,7.14375 1.11125,11.7475 1.5875,19.20875 1.74625,14.605 1.11125,17.4625 c 0,0 -0.16129,7.20598 -0.29591,13.22959 -0.47498,16.36903 -0.76581,29.79039 -1.41605,41.92143 -0.51435,9.59485 -0.96647,18.59661 -2.22885,28.17241 -2.41554,18.3388 -6.33984,36.91636 -12.08405,63.30188 -1.03124,4.73202 -1.91389,8.79094 -1.91389,8.79094 l -2.69875,12.065 -5.23875,17.30375 -6.19125,20.6375 -6.50875,13.97 -7.62,20.16125 -8.73125,18.415 -10.63625,19.3675 c 0,0 -4.83616,7.1247 -8.90016,13.05306 -12.60348,18.38198 -23.15591,37.19449 -36.01085,55.33898 -13.08354,18.46707 -30.24378,35.26155 -45.23486,52.20589 -1.85801,2.09931 -6.85038,8.30707 -6.85038,8.30707 l -12.065,13.335 -19.84375,21.59 -10.95375,14.44625 -9.04875,8.5725 -9.8425,11.27125 -13.81125,15.24 -13.97,14.44625 -5.3975,6.985 -9.68375,11.7475 -8.255,8.89 -11.1125,13.49375 -10.00125,12.22375 -11.90625,12.065 -10.4775,11.58875 -3.81,7.14375 -2.69875,5.3975 -10.16,11.90625 -9.2075,10.16 -11.7475,13.335 -6.82625,9.36625 -16.1925,19.3675 -4.7625,7.62 -6.6675,5.715"
       id="path13" />
    <line
       style="clip-rule:evenodd;fill:none;fill-rule:evenodd;stroke:#000000;stroke-width:1.26999998;stroke-miterlimit:3.86369991"
       stroke-miterlimit="3.8637"
       x1="347.99457"
       y1="-683.29791"
       x2="353.39206"
       y2="220.3071"
       id="line15" />
    <line
       style="clip-rule:evenodd;fill:none;fill-rule:evenodd;stroke:#000000;stroke-width:1.26999998;stroke-miterlimit:3.86369991"
       stroke-miterlimit="3.8637"
       x1="-182.7067"
       y1="224.27585"
       x2="-191.43794"
       y2="230.94334"
       id="line33" />
    <line
       style="clip-rule:evenodd;fill:none;fill-rule:evenodd;stroke:#000000;stroke-width:1.26999998;stroke-miterlimit:3.86369991"
       stroke-miterlimit="3.8637"
       x1="870.06494"
       y1="242.2984"
       x2="877.3255"
       y2="250.54456"
       id="line35" />
    <line
       style="fill:none;stroke:#000000;stroke-width:1.26999998;stroke-miterlimit:3.86369991"
       stroke-miterlimit="3.8637"
       x1="889.89337"
       y1="222.26675"
       x2="895.28076"
       y2="231.8412"
       id="line37" />
    <path
       style="fill:#000000;fill-opacity:0.33333333;fill-rule:evenodd;stroke:#000000;stroke-width:1px;stroke-linecap:butt;stroke-linejoin:miter;stroke-opacity:1"
       d="m 653.77895,-302.55447 c -22.36223,-21.42499 -27.55215,-59.58484 3.46298,-92.84343 31.73695,-34.03262 69.30444,-20.72707 90.87607,0.54037 20.08438,19.80116 20.62377,63.67767 1.7046,84.59495 -21.5443,23.81967 -72.85236,29.9274 -96.04365,7.70811 z"
       id="path4845"
       inkscape:connector-curvature="0"
       sodipodi:nodetypes="asaaa" />
    <path
       style="fill:none;fill-rule:evenodd;stroke:#000000;stroke-width:1px;stroke-linecap:butt;stroke-linejoin:miter;stroke-opacity:1"
       d="m 631.53911,-283.79674 12.48462,-12.48462 m 109.31656,-109.31656 10.9621,-10.96211"
       id="path4847"
       inkscape:connector-curvature="0"
       sodipodi:nodetypes="cccc" />
  </g>
  <style
     id="style5430"
     type="text/css">

@font-face{font-family:'ArialMT';src:url(&quot;data:;base64,\
T1RUTwADACAAAQAQQ0ZGIOJhRYsAAACgAAAEdkdQT1Ov/L6JAAAFGAAAAFpjbWFwATIBOQAAADwA\
AABkAAAAAQAAAAMAAAAMAAQAWAAAABIAEAADAAIAIAAtADEAMwA1ADcAQgBQ//8AAAAgAC0AMQAz\
ADUANwBCAE/////h/9X/0v/R/9D/z//F/7kAAQAAAAAAAAAAAAAAAAAAAAAAAAEABAIAAQEBCEFy\
aWFsTVQAAQEBO/gbAfgYBPgcDBUc+q/9LRwQABwIDAUeoABIgoEl/4uLHqAASIKBJf+LiwwH9ykP\
9zwQ9z4RkxwEbhIAAgEBMj9BcmlhbCBpcyBhIHRyYWRlbWFyayBvZiBUaGUgTW9ub3R5cGUgQ29y\
cG9yYXRpb24uL0ZTVHlwZSA4IGRlZgAAAAABAA4AEgAUABYAGAAjADAAMQAAAAoCAAEAGwAeACwA\
VgEVAZoB4AKXA0sDrMr3lBYcBQD6lBz7AAf+dKsV+lQcBMD+VAYO/hwO/avM+EwV90n4vftJBw75\
jxb7SBwEewZgYlJhRWJEYkxsU3YI90IH8LrjxdbO1s7BzarKCPcIBg7h+BcV90ijoCWuQr1eGV68\
yHTSG+DSqMbGH8XGqNPiGt5wz1XBHsBVRqY4G2lhhH5YH5/3MgWKl5WKkhvY0J+zyB/Is6rJ3hrN\
dcJeth62XlKhRBtFUXVfXB9cX21JfjP7SKsYofcNvejZzgjN2eys9wgb29V6ac4fzmi/XK9QCK5Q\
nUxIGkx6UWlXHmlXWWJIbOJ3zmK7TAi7TKM8LBr7FFz7AC4yHjIu+wpe+yMb+xUhsdg2HzbYWu5/\
9w4IDuD4FBX3UZuZL6xGvl0ZXL7IdNMb4tSszMcfx8yp4vcAGvJu3FLGHsZRP6kuG1FXfnFcH1xw\
Z2lwYfs9oRj3IvmFBflt+0D83QY8/B4FyOPnquwb9xT3AF8y4x/jMrf7BvsfGvsZZPsGPioe+wst\
+xRQ+zcb+xn7AbDWNx821lvuf/cPCA7sHAT6FfdB+kn7IAcuKC77GDD7OS/7OUT7PVn7Qmf7D3T7\
GoH7Jgj7TQaN9wei9yC29ze29zfK9zLc9yzc9yvh9xTm8wgOIPcqFhwFuvi6B/cE5Xxuzx/ObcBd\
sk4IsU2eSkgaTHpQaVQeaVRYXkZp5HHPX7tMCLpMo0E2GkZ9TG5QHm5QZ11ga2BrVnNLewh6SjyD\
Lhv8AfnmFffRBuHJkZawH7yasaOkrQikrZe2vhq8f7Z0sB50sGmkYJkImGBAkiIb+7kG/vQE+AEG\
yreNkKQfuJOwmKmeqZ6kpp6vCJ6ulbS6GsJ9um+0Hm+zZKdanAibWUOTLhv75wYO9wzu+V4V94fM\
91P3F/ceHvcd9xf3PND3Yxv3G/cOa0r3AR/3AUreMcT7BwjE+win+xf7Jxr7KW37GU/7CR5P+wk2\
MvsCTwhO+wL7C237Exv7HvsPrM77AR/7Ac455lP3BwhT9wdv9w73FRr3XIgV+0W7+x/qJh4l6vcL\
WPcjG/cm9wy+8uof6fK69yX3URr3C3f0Y+QeYuRQ0D68CLw9NKMqG/sd+wpcLSgfKCxZ+zH7cRoO\
IPcyFhwFuvi9B+zWhoK+H9N/x3S8arxpslypTgioTppJQhr7EWMiPDUeNDz7JGD7Yxv8DPzoBvmV\
BPgPBvcR5KK6wB/AuqXM4BrIfMBstx5stmKoWJkIlGpPjzMb/AsGDhwEcxQcBcEVAAAAAQAAAAoA\
HgAsAAFERkxUAAgABAAAAAD//wABAAAAAWtlcm4ACAAAAAEAAAABAAQAAgAAAAEACAABABoABAAA\
AAIADgAUAAEAA/9oAAEAAf/bAAEAAgADAAkAAA==&quot;)}

</style>
  <style
     id="style6533"
     type="text/css">

@font-face{font-family:'ArialMT';src:url(&quot;data:;base64,\
T1RUTwADACAAAQAQQ0ZGIOHrJ9IAAACwAAAHv0dQT1OvQL7DAAAIcAAAAGRjbWFwAdcB2gAAADwA\
AAB0AAAAAQAAAAMAAAAMAAQAaAAAABYAEAADAAYAIAAtADIAOAA6AEIATwBSAGMAbf//AAAAIAAs\
ADEANQA6AEEATwBSAGMAbf///+H/1v/T/9H/0P/K/77/vP+s/6MAAQAAAAAAAAAAAAAAAAAAAAAA\
AAAAAAABAAQCAAEBAQhBcmlhbE1UAAEBATv4GwH4GAT4HAwVHPqv/S0cEAAcCAwFHqAASIKBJf+L\
ix6gAEiCgSX/i4sMB/cpD/dIEPdKEZIcB7gSAAIBATI/QXJpYWwgaXMgYSB0cmFkZW1hcmsgb2Yg\
VGhlIE1vbm90eXBlIENvcnBvcmF0aW9uLi9GU1R5cGUgOCBkZWYAAAEAAQAADQEAEgEAFgMAGwAA\
IgEAMAAAMwAARAAATgAAAAARAgABABwAHgBGAFMAfQEHAYwCVAKaA3oDlAPTBIsFPwXMBk8G3Pnw\
95QWHAUA+pQc+wAH/nSrFfpUHATA/lQGDiAOIPdKFvdh92H7YQdAfk5wXR5wXGFnUXJZ2BixnKej\
naydq5W5jcgIDpHM+EwV90n4vftJBw75jxb7SBwEewZgYlJhRWJEYkxsU3YI90IH8LrjxdbO1s7B\
zarKCPcIBg76m/dBFftB/l0HiraStZqzpM2yzMLLwcvZ1fLf9zP3F/cA8sPYCMPXp9PPGtJyyFi8\
HrxYSKM5GzRGcVdXH1dXcUOKL/tNnhiY9x669N7UCNPe9wOv9x8b9yH3A2Q93R/dPbQq+wcaUH9S\
c1Iec1JjUFRMU0wuNfsV+wH7ADBGTmxrbGpya3dqCA7g+BQV91GbmS+sRr5dGVy+yHTTG+LUrMzH\
H8fMqeL3ABrybtxSxh7GUT+pLhtRV35xXB9ccGdpcGH7PaEY9yL5hQX5bftA/N0GPPweBcjj56rs\
G/cU9wBfMuMf4zK3+wb7Hxr7GWT7Bj4qHvsLLfsUUPs3G/sZ+wGw1jcfNtZb7n/3DwgO+o/65xX7\
R3170nS+bqsZvlpPpUQbUlh7a2AfUmJfTmo8ajx6+wWK+ye2zcC8yqsIq8rMm9Ab9wzxXzPgH98y\
tfsG+yAaL3c2ZDweYzxUTkZhCGFGPHYzG/sq+w7C9wMsHyz3Alz3SveRGvevv/di9PcVHvcE5vcP\
w/cvG/cH6mtK1R/USrcymvsGCP1z/QwVTZhQplIepVKwYLpuCG26vXy/G9fMqsjCH8LIpt/0GvBw\
21XGHsVVR6g5GzpGblFSH1JQbz8sGg7sHAT6FfdB+kn7IAcuKC77GDD7OS/7OUT7PVn7Qmf7D3T7\
GoH7Jgj7TQaN9wei9yC29ze29zfK9zLc9yzc9yvh9xTm8wgO9/75rxVAplSyZ74IZ755x9Ia9rHk\
2NQe1Njxr/cTG/cU8mZB2R/ZQLIxIBpHeVBoWR5nWFVkQnDlbtBbukoIukqiPTAa+xFfITI2HjYy\
+whg+yUb+yX7CLbhMh8y4F/29xQa6qPbvMweu8vQt+SiCGf3xRVGoVK4Xx5fuMV10hvQxKG3uB+3\
tqHByhrNdMNeuB64XVKhRxtGUnVfXh9eX3RWThpR/TkVWJdZpFseo1uvZrtxCHC7v37CG+HSp8LD\
H8PCp9LgGuJu0lLEHsRRQ6c0GzZFb1NUH1NTb0U3Gg4g90357RX3Yfdh+2EH+2H97RX3Yfdh+2EH\
DvlGiBb4xxwFugX3ZQb47Bz6RgX7cQb7P/hQBfz5Bvs1/FAF92347hX4hQb7LfgqXPcPafF02hl4\
LXEuaS4IDvlG9yoWHAW6+LoH9wTlfG7PH85twF2yTgixTZ5KSBpMelBpVB5pVFheRmnkcc9fu0wI\
ukyjQTYaRn1MblAeblBnXWBrYGtWc0t7CHpKPIMuG/wB+eYV99EG4cmRlrAfvJqxo6StCKStl7a+\
Grx/tnSwHnSwaaRgmQiYYECSIhv7uQb+9AT4AQbKt42QpB+4k7CYqZ6pnqSmnq8Inq6VtLoawn26\
b7Qeb7Nkp1qcCJtZQ5MuG/vnBg76Ke75XhX3h8z3U/cX9x4e9x33F/c80PdjG/cb9w5rSvcBH/cB\
St4xxPsHCMT7CKf7F/snGvspbfsZT/sJHk/7CTYy+wJPCE77AvsLbfsTG/se+w+szvsBH/sBzjnm\
U/cHCFP3B2/3DvcVGvdciBX7Rbv7H+omHiXq9wtY9yMb9yb3DL7y6h/p8rr3JfdRGvcLd/Rj5B5i\
5FDQPrwIvD00oyob+x37ClwtKB8oLFn7MftxGg75t/c1FhwFuvkeB/cX7n5xzx/PcMFdtEgItEif\
QjoaI2kzSEQeSEQjXfsheL5ysnOmc8RXwEq+PfeT/CMY+4gG+1b3xVLjXc5muhlmumurbp5unm2Y\
bZIIkHVnjVkb+3X9Hwb5xwT4NQbk0JSevR+9nbGopbQIpbOYt7oa0HLEWbgeuFg8ofsBG/xkBg73\
8PnQ+BkV90V0ePsOWSw8RhlGOylo+wgb+yX7CbvqMx8y6l/3HPdFGvcHnu+x4R6x4cXM2bYIttjg\
oOYb9wfqblHUH9RQujigIPtDcBh60m7BYa8Ir2BYnU8bMEJrSlIfUkpvJPshGvsjpiTCSh5KwtJr\
4xvSxqG2uh+6tqnOmOUIDvqa9xsW+rr3NfspB6y/uLXCqwiqwsqb0hvay3tqvh+9aq5eoFAI9xDf\
9wHJ9xsb9NxuUcQfxFCnMfsNGv1t+0f5MQfThb+Aqx5/qnalbJ4InmxnlWIbQE1yWlofWllyO/sB\
Gvz9+0j5RgfbfMdusx6zblufSBtYXX5wYB9gcGtkeFgIeFiBQSoa/LsHDhwEcxT5OBUAAAEAAAAK\
AB4ALAABREZMVAAIAAQAAAAA//8AAQAAAAFrZXJuAAgAAAABAAAAAQAEAAIAAAABAAgAAQAiAAQA\
AAADABAAFgAcAAEAC/+PAAEABP9oAAEAAf+PAAEAAwABAAQACw==&quot;)}

</style>
</svg>
