<?xml version="1.0" encoding="UTF-8" standalone="no"?>
<!-- Created with Inkscape (http://www.inkscape.org/) -->

<svg
   xmlns:dc="http://purl.org/dc/elements/1.1/"
   xmlns:cc="http://creativecommons.org/ns#"
   xmlns:rdf="http://www.w3.org/1999/02/22-rdf-syntax-ns#"
   xmlns:svg="http://www.w3.org/2000/svg"
   xmlns="http://www.w3.org/2000/svg"
   xmlns:sodipodi="http://sodipodi.sourceforge.net/DTD/sodipodi-0.dtd"
   xmlns:inkscape="http://www.inkscape.org/namespaces/inkscape"
   width="681.43646"
   height="767.13098"
   id="svg4048"
   version="1.1"
   inkscape:version="0.92.1 r15371"
   sodipodi:docname="Bo75-T4-22.svg">
  <title
     id="title2983">Bo75-T4-22</title>
  <defs
     id="defs4050" />
  <sodipodi:namedview
     id="base"
     pagecolor="#ffffff"
     bordercolor="#666666"
     borderopacity="1.0"
     inkscape:pageopacity="0.0"
     inkscape:pageshadow="2"
     inkscape:zoom="0.58054182"
     inkscape:cx="292.20752"
     inkscape:cy="484.58399"
     inkscape:document-units="px"
     inkscape:current-layer="layer1"
     showgrid="true"
     units="mm"
     inkscape:window-width="1280"
     inkscape:window-height="976"
     inkscape:window-x="0"
     inkscape:window-y="26"
     inkscape:window-maximized="1"
     fit-margin-top="0"
     fit-margin-left="0"
     fit-margin-right="0"
     fit-margin-bottom="0">
    <inkscape:grid
       type="xygrid"
       id="grid4079"
       units="cm"
       empspacing="5"
       visible="false"
       enabled="false"
       snapvisiblegridlinesonly="true"
       originx="-59.034355"
       originy="-963.06623"
       spacingx="40.314961"
       spacingy="40.314961" />
  </sodipodi:namedview>
  <metadata
     id="metadata4053">
    <rdf:RDF>
      <cc:Work
         rdf:about="">
        <dc:format>image/svg+xml</dc:format>
        <dc:type
           rdf:resource="http://purl.org/dc/dcmitype/StillImage" />
        <dc:title>Bo75-T4-22</dc:title>
        <cc:license
           rdf:resource="http://creativecommons.org/licenses/by-nc-sa/4.0/" />
        <dc:creator>
          <cc:Agent>
            <dc:title>Néhémie Strupler</dc:title>
          </cc:Agent>
        </dc:creator>
        <dc:description>Pottery Drawing from the BoKeWTer database</dc:description>
        <dc:contributor>
          <cc:Agent>
            <dc:title>Illustrator: Sarah-Julie Wittmann 
Basic digitisation: Mehmet Turgut
Final work and metadata: Néhémie Strupler</dc:title>
          </cc:Agent>
        </dc:contributor>
        <dc:subject>
          <rdf:Bag>
            <rdf:li>Archaeology</rdf:li>
            <rdf:li>Pottery</rdf:li>
            <rdf:li>Drawing</rdf:li>
            <rdf:li>BoKeWTer</rdf:li>
            <rdf:li>Westterrasse</rdf:li>
            <rdf:li>Boğazköy</rdf:li>
            <rdf:li>Bogazkoy</rdf:li>
            <rdf:li>Hattusa</rdf:li>
            <rdf:li>Hittites</rdf:li>
            <rdf:li>Late Bronze Age</rdf:li>
            <rdf:li>Turkey</rdf:li>
          </rdf:Bag>
        </dc:subject>
        <dc:date>2017-03-07</dc:date>
        <dc:rights>
          <cc:Agent>
            <dc:title>Néhémie Strupler</dc:title>
          </cc:Agent>
        </dc:rights>
        <dc:relation />
      </cc:Work>
      <cc:License
         rdf:about="http://creativecommons.org/licenses/by-nc-sa/4.0/">
        <cc:permits
           rdf:resource="http://creativecommons.org/ns#Reproduction" />
        <cc:permits
           rdf:resource="http://creativecommons.org/ns#Distribution" />
        <cc:requires
           rdf:resource="http://creativecommons.org/ns#Notice" />
        <cc:requires
           rdf:resource="http://creativecommons.org/ns#Attribution" />
        <cc:prohibits
           rdf:resource="http://creativecommons.org/ns#CommercialUse" />
        <cc:permits
           rdf:resource="http://creativecommons.org/ns#DerivativeWorks" />
        <cc:requires
           rdf:resource="http://creativecommons.org/ns#ShareAlike" />
      </cc:License>
    </rdf:RDF>
  </metadata>
  <g
     inkscape:groupmode="layer"
     id="layer17"
     inkscape:label="scale"
     transform="translate(-59.034355,607.67755)">
    <g
       style="display:inline"
       id="g3705"
       transform="matrix(1.244841,0,0,1.3514373,-1427.521,-1436.7686)">
      <g
         id="g5680">
        <g
           style="display:inline;stroke-width:0.96372944;stroke-miterlimit:4;stroke-dasharray:none"
           id="g3676"
           transform="translate(0,2.1333334)">
          <rect
             x="1312.9849"
             y="1163.6376"
             width="302.44238"
             height="14.843801"
             id="rect3757-68"
             style="display:inline;fill:none;stroke:#000000;stroke-width:1.02797806;stroke-miterlimit:4;stroke-dasharray:none" />
          <rect
             x="1312.845"
             y="1171.0591"
             width="30.233034"
             height="7.4221625"
             id="rect3759-1"
             style="display:inline;fill:none;stroke:#000000;stroke-width:1.02797806;stroke-miterlimit:4;stroke-dasharray:none" />
          <rect
             x="1343.1003"
             y="1171.0597"
             width="30.233034"
             height="7.4221625"
             id="rect3761-59"
             style="display:inline;stroke:#000000;stroke-width:1.02797806;stroke-miterlimit:4;stroke-dasharray:none" />
          <rect
             x="1373.3547"
             y="1171.056"
             width="30.2341"
             height="7.4221625"
             id="rect3763-46"
             style="display:inline;fill:none;stroke:#000000;stroke-width:1.02797806;stroke-miterlimit:4;stroke-dasharray:none" />
          <rect
             x="1403.6101"
             y="1171.0597"
             width="30.2341"
             height="7.4221625"
             id="rect3765-3"
             style="display:inline;stroke:#000000;stroke-width:1.02797806;stroke-miterlimit:4;stroke-dasharray:none" />
          <rect
             x="1433.8656"
             y="1171.0597"
             width="30.233034"
             height="7.4221625"
             id="rect3767-4"
             style="display:inline;fill:none;stroke:#000000;stroke-width:1.02797806;stroke-miterlimit:4;stroke-dasharray:none" />
          <rect
             x="1464.12"
             y="1171.056"
             width="151.16623"
             height="7.421639"
             id="rect3769-0"
             style="display:inline;stroke:#000000;stroke-width:1.02797806;stroke-miterlimit:4;stroke-dasharray:none" />
          <rect
             x="1312.845"
             y="1163.5538"
             width="30.233034"
             height="7.4221625"
             id="rect3771-4"
             style="display:inline;stroke:#000000;stroke-width:1.02797806;stroke-miterlimit:4;stroke-dasharray:none" />
          <rect
             x="1343.1003"
             y="1163.5543"
             width="30.233034"
             height="7.4221625"
             id="rect3773-0"
             style="display:inline;fill:none;stroke:#000000;stroke-width:1.02797806;stroke-miterlimit:4;stroke-dasharray:none" />
          <rect
             x="1373.3547"
             y="1163.5507"
             width="30.235167"
             height="7.4221625"
             id="rect3775-6"
             style="display:inline;stroke:#000000;stroke-width:1.02797806;stroke-miterlimit:4;stroke-dasharray:none" />
          <rect
             x="1403.6101"
             y="1163.5543"
             width="30.2341"
             height="7.4221625"
             id="rect3777-7"
             style="display:inline;fill:none;stroke:#000000;stroke-width:1.02797806;stroke-miterlimit:4;stroke-dasharray:none" />
          <rect
             x="1433.8656"
             y="1163.5543"
             width="30.233034"
             height="7.4221625"
             id="rect3779-1"
             style="display:inline;stroke:#000000;stroke-width:1.02797806;stroke-miterlimit:4;stroke-dasharray:none" />
          <rect
             x="1464.12"
             y="1163.5507"
             width="151.1673"
             height="7.421639"
             id="rect3781-5"
             style="display:inline;fill:none;stroke:#000000;stroke-width:1.02797806;stroke-miterlimit:4;stroke-dasharray:none" />
        </g>
        <g
           transform="translate(-5.1280561,-109.29891)"
           id="g3755-2"
           style="display:inline">
          <g
             id="g3304-2">
            <g
               id="g3671">
              <text
                 y="1270.4474"
                 x="1316.8"
                 font-size="12"
                 id="text3783-2"
                 style="font-style:normal;font-variant:normal;font-weight:normal;font-stretch:normal;font-size:13.86666679px;font-family:'Gentium Book Basic';-inkscape-font-specification:'Gentium Book Basic';stroke-width:1.06666672">0</text>
              <text
                 y="1270.4067"
                 x="1465.0667"
                 font-size="12"
                 id="text3785-4"
                 style="font-style:normal;font-variant:normal;font-weight:normal;font-stretch:normal;font-size:13.86666679px;font-family:'Gentium Book Basic';-inkscape-font-specification:'Gentium Book Basic';stroke-width:1.06666672">5</text>
              <text
                 y="1270.4812"
                 x="1586.6666"
                 font-size="12"
                 id="text3787-8"
                 style="font-style:normal;font-variant:normal;font-weight:normal;font-stretch:normal;font-size:13.86666679px;font-family:'Gentium Book Basic';-inkscape-font-specification:'Gentium Book Basic';stroke-width:1.06666672">10 cm</text>
            </g>
          </g>
          <g
             inkscape:groupmode="layer"
             id="layer7"
             inkscape:label="scale"
             style="display:inline" />
          <text
             xml:space="preserve"
             style="font-style:normal;font-weight:normal;font-size:12.80000019px;line-height:125%;font-family:Sans;letter-spacing:0px;word-spacing:0px;fill:#000000;fill-opacity:1;stroke:none;stroke-width:1.06666672"
             x="2219.1514"
             y="1735.5438"
             id="text3215-1"><tspan
               sodipodi:role="line"
               id="tspan3217-7"
               x="2219.1514"
               y="1746.8688"
               style="stroke-width:1.06666672" /></text>
        </g>
      </g>
    </g>
  </g>
  <g
     inkscape:label="Layer 1"
     inkscape:groupmode="layer"
     id="layer1"
     transform="translate(-59.034355,607.67755)">
    <path
       id="path5"
       d="m 484.13006,61.10029 c -53.6436,-0.1836 -94.52835,-0.05805 -94.1814,-0.08505"
       stroke-miterlimit="3.8637"
       inkscape:connector-curvature="0"
       style="clip-rule:evenodd;fill:none;fill-rule:evenodd;stroke:#000000;stroke-width:1.35000002;stroke-miterlimit:3.86369991" />
    <line
       id="line7"
       y2="61.669975"
       x2="389.73804"
       y1="-589.79004"
       x1="389.94867"
       stroke-miterlimit="3.8637"
       style="clip-rule:evenodd;fill:none;fill-rule:evenodd;stroke:#000000;stroke-width:1.35000002;stroke-miterlimit:3.86369991" />
    <line
       id="line9"
       y2="-594.17755"
       x2="278.06741"
       y1="-607.67755"
       x1="278.06741"
       stroke-miterlimit="3.8637"
       style="clip-rule:evenodd;fill:none;fill-rule:evenodd;stroke:#000000;stroke-width:1.35000002;stroke-miterlimit:3.86369991" />
    <path
       id="path11"
       d="m 277.89866,-587.76506 -0.675,11.1375 -1.85625,11.98125 -1.18125,8.4375 -0.50625,13.33125 -1.35,8.94375 -2.53125,11.475 -2.53125,7.0875 -3.7125,9.95625 -3.375,8.60625 -7.0875,11.98125 -7.425,11.98125 -7.59375,9.95625 -5.90625,6.58125 -4.89375,6.58125 -4.725,4.55625 -8.775,8.1 -12.65625,7.7625 -14.175,6.91875 -7.25625,2.86875 -8.26875,3.20625 -12.65625,1.35 -8.1,-1.0125 -4.89375,0.675 -7.59375,-0.84375 c 0,0 -5.6565,0.3429 -8.90865,0.54 -0.0459,0.003 -5.21235,-0.2565 -5.21235,-0.2565 l -2.8971,3.64365 c -1.47015,4.91265 0.945,6.33285 1.836,10.08855 1.1907,5.02065 -0.5454,11.0565 0.74385,16.1595 2.6973,10.67715 11.12265,18.4221 16.29585,27.88695 1.82655,3.3399 3.24135,9.33525 3.09285,12.98835 -0.30375,7.4763 -16.42545,47.94795 -20.99115,55.21365 -0.1971,0.1782 -0.3294,0.2997 -0.3294,0.2997 -0.9855,0.4617 -1.9413,0.29295 -2.86875,-0.50625 l -4.21875,-3.54375 -4.89375,-4.3875 -1.18125,6.075 -0.3375,4.55625 1.51875,8.94375 1.6875,11.475 1.0125,9.45 0.1701,8.9424 -0.16875,9.95625 -0.16875,9.28125 -0.675,4.725 -0.675,1.35 0.675,3.375 3.0375,4.89375 8.1,12.15 5.4,9.45 3.20625,7.7625 2.86875,6.58125 2.025,4.21875 1.35,4.3875 4.55625,9.1125 3.7125,7.93125 4.55625,10.96875 3.0375,6.75 6.075,9.61875 7.425,12.825 3.20625,6.24375 5.0625,8.4375 4.3875,8.1 4.21875,6.75 5.90625,7.93125 8.4375,10.8 4.725,7.25625 11.30625,12.31875 9.7875,11.8125 c 0,0 1.67535,2.01555 3.70575,4.45905 9.04365,10.8837 47.1474,44.63235 47.8494,55.44045 0.4671,7.1793 -0.5562,27.02025 1.87515,32.184 5.59845,5.8698 28.2987,3.1995 36.7011,3.1563 2.7945,-0.19035 8.4186,-0.57105 8.4186,-0.57105 l 5.56875,0.84375 6.91875,-1.35 15.8625,0.675 6.58125,0.3375 9.1125,0.3375 11.475,-0.84375 11.32785,-0.08505"
       stroke-miterlimit="3.8637"
       inkscape:connector-curvature="0"
       style="clip-rule:evenodd;fill:none;fill-rule:evenodd;stroke:#000000;stroke-width:1.35000002;stroke-miterlimit:3.86369991" />
    <line
       id="line13"
       y2="-412.43381"
       x2="111.34241"
       y1="-415.64005"
       x1="122.98616"
       stroke-miterlimit="3.8637"
       style="clip-rule:evenodd;fill:none;fill-rule:evenodd;stroke:#000000;stroke-width:1.35000002;stroke-miterlimit:3.86369991" />
    <line
       id="line15"
       y2="-407.20255"
       x2="98.51741"
       y1="-410.40881"
       x1="106.11116"
       stroke-miterlimit="3.8637"
       style="clip-rule:evenodd;fill:none;fill-rule:evenodd;stroke:#000000;stroke-width:1.35000002;stroke-miterlimit:3.86369991" />
    <line
       id="line17"
       y2="-401.2963"
       x2="85.186157"
       y1="-404.6713"
       x1="93.45491"
       stroke-miterlimit="3.8637"
       style="clip-rule:evenodd;fill:none;fill-rule:evenodd;stroke:#000000;stroke-width:1.35000002;stroke-miterlimit:3.86369991" />
    <line
       id="line19"
       y2="-391.34006"
       x2="74.89241"
       y1="-396.90881"
       x1="79.95491"
       stroke-miterlimit="3.8637"
       style="clip-rule:evenodd;fill:none;fill-rule:evenodd;stroke:#000000;stroke-width:1.35000002;stroke-miterlimit:3.86369991" />
    <line
       id="line21"
       y2="-379.86505"
       x2="67.636154"
       y1="-386.78381"
       x1="70.842407"
       stroke-miterlimit="3.8637"
       style="clip-rule:evenodd;fill:none;fill-rule:evenodd;stroke:#000000;stroke-width:1.35000002;stroke-miterlimit:3.86369991" />
    <line
       id="line23"
       y2="-365.5213"
       x2="61.898655"
       y1="-373.79007"
       x1="64.598656"
       stroke-miterlimit="3.8637"
       style="clip-rule:evenodd;fill:none;fill-rule:evenodd;stroke:#000000;stroke-width:1.35000002;stroke-miterlimit:3.86369991" />
    <line
       id="line25"
       y2="-353.37131"
       x2="59.873657"
       y1="-360.62756"
       x1="60.379906"
       stroke-miterlimit="3.8637"
       style="clip-rule:evenodd;fill:none;fill-rule:evenodd;stroke:#000000;stroke-width:1.35000002;stroke-miterlimit:3.86369991" />
    <line
       id="line27"
       y2="-339.87131"
       x2="60.717407"
       y1="-348.6463"
       x1="59.704906"
       stroke-miterlimit="3.8637"
       style="clip-rule:evenodd;fill:none;fill-rule:evenodd;stroke:#000000;stroke-width:1.35000002;stroke-miterlimit:3.86369991" />
    <line
       id="line29"
       y2="-325.3588"
       x2="62.236156"
       y1="-333.96506"
       x1="61.054905"
       stroke-miterlimit="3.8637"
       style="clip-rule:evenodd;fill:none;fill-rule:evenodd;stroke:#000000;stroke-width:1.35000002;stroke-miterlimit:3.86369991" />
    <line
       id="line31"
       y2="-311.35257"
       x2="64.76741"
       y1="-321.47757"
       x1="62.573658"
       stroke-miterlimit="3.8637"
       style="clip-rule:evenodd;fill:none;fill-rule:evenodd;stroke:#000000;stroke-width:1.35000002;stroke-miterlimit:3.86369991" />
    <path
       id="path33"
       d="m 65.273657,-305.95256 c -0.20655,2.2356 0.41175,4.59945 1.85625,7.0875"
       stroke-miterlimit="3.8637"
       inkscape:connector-curvature="0"
       style="clip-rule:evenodd;fill:none;fill-rule:evenodd;stroke:#000000;stroke-width:1.35000002;stroke-miterlimit:3.86369991" />
    <line
       id="line35"
       y2="-281.65256"
       x2="73.20491"
       y1="-293.63382"
       x1="69.661156"
       stroke-miterlimit="3.8637"
       style="clip-rule:evenodd;fill:none;fill-rule:evenodd;stroke:#000000;stroke-width:1.35000002;stroke-miterlimit:3.86369991" />
    <line
       id="line37"
       y2="-273.0463"
       x2="77.254906"
       y1="-277.7713"
       x1="74.89241"
       stroke-miterlimit="3.8637"
       style="clip-rule:evenodd;fill:none;fill-rule:evenodd;stroke:#000000;stroke-width:1.35000002;stroke-miterlimit:3.86369991" />
    <line
       id="line39"
       y2="-263.42755"
       x2="82.992409"
       y1="-270.34631"
       x1="78.436157"
       stroke-miterlimit="3.8637"
       style="clip-rule:evenodd;fill:none;fill-rule:evenodd;stroke:#000000;stroke-width:1.35000002;stroke-miterlimit:3.86369991" />
    <line
       id="line41"
       y2="-249.59006"
       x2="91.092407"
       y1="-257.8588"
       x1="85.86116"
       stroke-miterlimit="3.8637"
       style="clip-rule:evenodd;fill:none;fill-rule:evenodd;stroke:#000000;stroke-width:1.35000002;stroke-miterlimit:3.86369991" />
    <line
       id="line43"
       y2="-235.24631"
       x2="100.5424"
       y1="-244.6963"
       x1="94.636154"
       stroke-miterlimit="3.8637"
       style="clip-rule:evenodd;fill:none;fill-rule:evenodd;stroke:#000000;stroke-width:1.35000002;stroke-miterlimit:3.86369991" />
    <line
       id="line45"
       y2="-225.29005"
       x2="108.13615"
       y1="-233.39006"
       x1="102.06116"
       stroke-miterlimit="3.8637"
       style="clip-rule:evenodd;fill:none;fill-rule:evenodd;stroke:#000000;stroke-width:1.35000002;stroke-miterlimit:3.86369991" />
    <path
       id="path47"
       d="m 122.47991,-376.15256 c -3.0159,-1.01385 -5.9967,-1.1259 -8.94375,-0.3375"
       stroke-miterlimit="3.8637"
       inkscape:connector-curvature="0"
       style="clip-rule:evenodd;fill:none;fill-rule:evenodd;stroke:#000000;stroke-width:1.35000002;stroke-miterlimit:3.86369991" />
    <line
       id="line49"
       y2="-372.44006"
       x2="104.92991"
       y1="-376.32132"
       x1="110.49866"
       stroke-miterlimit="3.8637"
       style="clip-rule:evenodd;fill:none;fill-rule:evenodd;stroke:#000000;stroke-width:1.35000002;stroke-miterlimit:3.86369991" />
    <line
       id="line51"
       y2="-366.02756"
       x2="98.179909"
       y1="-370.07755"
       x1="102.56741"
       stroke-miterlimit="3.8637"
       style="clip-rule:evenodd;fill:none;fill-rule:evenodd;stroke:#000000;stroke-width:1.35000002;stroke-miterlimit:3.86369991" />
    <path
       id="path53"
       d="m 95.817407,-363.15881 c -1.2555,1.33245 -2.6055,3.9771 -4.05,7.93125"
       stroke-miterlimit="3.8637"
       inkscape:connector-curvature="0"
       style="clip-rule:evenodd;fill:none;fill-rule:evenodd;stroke:#000000;stroke-width:1.35000002;stroke-miterlimit:3.86369991" />
    <line
       id="line55"
       y2="-343.24631"
       x2="89.911156"
       y1="-351.34631"
       x1="90.586159"
       stroke-miterlimit="3.8637"
       style="clip-rule:evenodd;fill:none;fill-rule:evenodd;stroke:#000000;stroke-width:1.35000002;stroke-miterlimit:3.86369991" />
    <line
       id="line57"
       y2="-333.12131"
       x2="90.92366"
       y1="-340.04007"
       x1="89.23616"
       stroke-miterlimit="3.8637"
       style="clip-rule:evenodd;fill:none;fill-rule:evenodd;stroke:#000000;stroke-width:1.35000002;stroke-miterlimit:3.86369991" />
    <line
       id="line59"
       y2="-319.62131"
       x2="95.648659"
       y1="-326.7088"
       x1="92.948654"
       stroke-miterlimit="3.8637"
       style="clip-rule:evenodd;fill:none;fill-rule:evenodd;stroke:#000000;stroke-width:1.35000002;stroke-miterlimit:3.86369991" />
    <path
       id="path61"
       d="m 98.517407,-315.57131 c 1.952103,2.05065 4.932903,6.21405 8.943753,12.4875"
       stroke-miterlimit="3.8637"
       inkscape:connector-curvature="0"
       style="clip-rule:evenodd;fill:none;fill-rule:evenodd;stroke:#000000;stroke-width:1.35000002;stroke-miterlimit:3.86369991" />
    <line
       id="line63"
       y2="-590.97131"
       x2="477.69867"
       y1="-603.29004"
       x1="476.5174"
       stroke-miterlimit="3.8637"
       style="clip-rule:evenodd;fill:none;fill-rule:evenodd;stroke:#000000;stroke-width:1.35000002;stroke-miterlimit:3.86369991" />
    <line
       id="line65"
       y2="-592.82758"
       x2="498.62366"
       y1="-605.82129"
       x1="498.62366"
       stroke-miterlimit="3.8637"
       style="clip-rule:evenodd;fill:none;fill-rule:evenodd;stroke:#000000;stroke-width:1.35000002;stroke-miterlimit:3.86369991" />
    <path
       id="path67"
       d="m 482.42366,-586.92131 7.425,-1.6875 h 6.24375 l 2.86875,0.16875 0.50625,5.23125 v 7.425 l 2.19375,10.63125 1.35,15.35625 0.84375,11.30625 2.19375,9.1125 2.19375,9.45 3.0375,9.28125 3.375,11.30625 6.24375,12.825 3.375,6.91875 5.7375,6.91875 5.7375,8.60625 7.0875,9.28125 5.23125,7.0875 8.1,9.61875 8.94375,11.64375 10.8,12.4875 11.8125,17.55 c 0,0 4.9329,8.30385 6.31395,10.19925 27.76815,38.12535 50.166,83.90655 53.5923,131.64525 0,3.43305 0,10.19925 0,10.19925 l -1.18125,18.5625 -0.50625,9.1125 -0.84375,8.4375 -1.18125,7.425 -0.50625,7.7625 -1.51875,7.7625 -1.18125,6.91875 -3.375,9.61875 -5.23125,9.95625 -3.0375,9.95625 -4.3875,9.45 -4.55625,8.775 -3.0375,7.93125 -4.05,8.775 -4.21875,6.4125 -4.725,6.4125 -5.7375,7.425 -4.05,7.25625 -4.05,7.93125 -5.23125,7.59375 -3.20625,6.4125 -3.20625,2.86875 -5.7375,6.58125 -7.59375,7.59375 -9.45,9.95625 -7.425,9.1125 -6.91875,9.61875 -8.1,7.93125 -7.425,7.93125 -8.1,8.1 -4.05,3.88125 -5.4,5.23125 -3.20625,5.56875 -2.19375,6.91875 -0.675,6.4125 v 6.4125 l 0.3375,6.75 0.84375,7.0875 0.50625,4.55625 c -0.2052,1.09755 -0.7668,1.8846 -1.6875,2.3625 -1.5444,0.71145 -3.402,1.107 -5.56875,1.18125 l -3.0375,-0.16875 -9.53505,-5.6538 -3.79755,-2.78505 -5.4,-3.20625 -7.59375,-3.375 c -2.96325,-1.33515 -6.11415,-1.95345 -9.45,-1.85625 l -13.33125,0.16875 -15.525,1.85625 -12.15,2.19375 -7.93125,0.3375 -6.24375,1.6875 h -7.425 l -5.0625,-0.84375 c 0,0 -0.17955,-14.6151 -0.324,-26.4303 -0.054,-4.3767 -0.13095,-11.84895 0.83025,-15.25095 38.70315,-3.74355 91.83645,-3.2616 120.92625,-32.54445 2.727,-2.74455 8.67375,-8.96805 8.67375,-8.96805 l 6.58125,-6.4125 10.125,-9.28125 5.56875,-6.075 6.75,-6.24375 5.4,-10.4625 7.7625,-9.95625 6.91875,-10.96875 8.1,-11.475 6.4125,-9.7875 4.89375,-8.26875 6.58125,-12.31875 5.56875,-11.1375 7.59375,-17.38125 6.075,-10.63125 c 0,0 0.93825,-2.66625 1.61865,-4.85595 15.1011,-48.681 9.13005,-94.3218 -10.3464,-140.35815 -0.5346,-1.2609 -0.891,-2.106 -0.891,-2.106 l -5.90625,-13.33125 -7.25625,-11.30625 -9.95625,-16.5375 -7.93125,-11.30625 -5.0625,-6.4125 -6.24375,-8.26875 -10.96875,-15.8625 -7.425,-11.1375 -10.125,-13.8375 -8.1,-12.4875 -9.7875,-13.33125 -9.61875,-11.64375 -4.55625,-6.075 -2.3625,-4.725 -5.7375,-11.475 -5.2299,-16.70355 -2.86875,-15.8625 -0.16875,-9.95625 -2.53125,-16.03125 -2.53125,-11.475 -0.16875,-10.8 -1.2663,-8.1 -1.77255,-9.45 c 0.63315,-0.5103 1.2528,-0.67905 1.85625,-0.50625 z"
       stroke-miterlimit="3.8637"
       inkscape:connector-curvature="0"
       style="clip-rule:evenodd;fill-rule:evenodd;stroke:#000000;stroke-width:1.35000002;stroke-miterlimit:3.86369991" />
    <path
       id="path69"
       d="m 532.87991,-468.45881 6.75,6.24375 8.4375,9.45 8.94375,9.7875 9.1125,8.26875 8.60625,6.91875 14.175,6.24375 6.91875,1.51875 9.28125,2.025 c 0,0 0.513,0.008 1.32165,0.0189 51.9588,0.729 103.29795,2.5515 108.92475,67.68225 0.0702,0.59265 0.1161,0.9801 0.1161,0.9801 l 0.16875,3.88125 -0.84375,6.4125 0.3375,11.98125 -2.19375,13.1625 -3.375,14.175 -5.0625,16.03125 -0.675,3.20625 -3.0375,5.90625 -3.88125,5.90625 -3.7125,7.25625 -5.23125,8.60625 -4.05,9.28125 -4.3875,7.425 -4.89375,7.59375 -9.45,12.65625 -4.21875,4.55625 -4.05,5.90625 -5.90625,8.60625 -3.54375,6.4125 -3.54375,7.425 -3.07935,4.1769"
       stroke-miterlimit="3.8637"
       inkscape:connector-curvature="0"
       style="clip-rule:evenodd;fill:none;fill-rule:evenodd;stroke:#000000;stroke-width:1.35000002;stroke-miterlimit:3.86369991" />
    <path
       id="path71"
       d="m 657.41741,-374.29631 5.56875,1.2663 c 0.16875,0.16875 5.23125,1.77255 5.23125,1.77255 l 7.93125,6.75 c 0,0 0.1971,0.4671 0.6318,1.09215 14.26545,20.53755 2.92815,55.52145 -14.526,71.2449 -1.9332,1.25685 -3.7449,1.7712 -5.4378,1.54575 -1.8144,-0.28215 -3.58965,-0.9747 -5.3271,-2.0763 -5.37705,-10.9728 -10.8432,-26.15895 -14.5368,-38.0619 -0.9234,-2.97405 -1.81035,-5.56335 -1.81035,-5.56335 l -1.6875,-6.75 2.86875,-10.8 1.6875,-4.89375 2.025,-5.4 3.375,-4.3875 5.0625,-3.7125 4.3875,-1.35 z"
       stroke-miterlimit="3.8637"
       inkscape:connector-curvature="0"
       style="clip-rule:evenodd;fill:none;fill-rule:evenodd;stroke:#000000;stroke-width:1.35000002;stroke-miterlimit:3.86369991" />
    <line
       id="line73"
       y2="-338.01505"
       x2="663.32367"
       y1="-337.84631"
       x1="646.61743"
       stroke-miterlimit="3.8637"
       style="clip-rule:evenodd;fill:none;fill-rule:evenodd;stroke:#000000;stroke-width:1.35000002;stroke-miterlimit:3.86369991" />
    <path
       id="path75"
       d="m 701.94163,-490.07431 c 10.9593,7.31835 10.9863,21.03975 7.71255,32.2596 -2.0736,7.10505 -24.16095,16.6752 -30.3615,-0.55755 -3.7719,-10.48275 -1.8495,-25.97265 9.2529,-32.9886 3.7773,-0.53865 8.0838,-0.54 11.8584,0.0189 0,0 0.6912,0.56835 1.53765,1.26765 z"
       stroke-miterlimit="3.8637"
       inkscape:connector-curvature="0"
       style="clip-rule:evenodd;fill:#000000;fill-opacity:1;fill-rule:evenodd;stroke:#000000;stroke-width:1.35000002;stroke-miterlimit:3.86369991" />
    <line
       id="line87"
       y2="-338.54291"
       x2="740.46399"
       y1="-338.37418"
       x1="723.75775"
       stroke-miterlimit="3.8637"
       style="clip-rule:evenodd;fill:none;fill-rule:evenodd;stroke:#000000;stroke-width:1.35000002;stroke-miterlimit:3.86369991" />
    <line
       id="line89"
       y2="-467.65216"
       x2="661.18781"
       y1="-467.48343"
       x1="644.48151"
       stroke-miterlimit="3.8637"
       style="clip-rule:evenodd;fill:none;fill-rule:evenodd;stroke:#000000;stroke-width:1.35000002;stroke-miterlimit:3.86369991" />
    <line
       id="line91"
       y2="-470.01468"
       x2="736.45026"
       y1="-469.84592"
       x1="719.74402"
       stroke-miterlimit="3.8637"
       style="clip-rule:evenodd;fill:none;fill-rule:evenodd;stroke:#000000;stroke-width:1.35000002;stroke-miterlimit:3.86369991" />
  </g>
  <style
     id="style5430"
     type="text/css">

@font-face{font-family:'ArialMT';src:url(&quot;data:;base64,\
T1RUTwADACAAAQAQQ0ZGIOJhRYsAAACgAAAEdkdQT1Ov/L6JAAAFGAAAAFpjbWFwATIBOQAAADwA\
AABkAAAAAQAAAAMAAAAMAAQAWAAAABIAEAADAAIAIAAtADEAMwA1ADcAQgBQ//8AAAAgAC0AMQAz\
ADUANwBCAE/////h/9X/0v/R/9D/z//F/7kAAQAAAAAAAAAAAAAAAAAAAAAAAAEABAIAAQEBCEFy\
aWFsTVQAAQEBO/gbAfgYBPgcDBUc+q/9LRwQABwIDAUeoABIgoEl/4uLHqAASIKBJf+LiwwH9ykP\
9zwQ9z4RkxwEbhIAAgEBMj9BcmlhbCBpcyBhIHRyYWRlbWFyayBvZiBUaGUgTW9ub3R5cGUgQ29y\
cG9yYXRpb24uL0ZTVHlwZSA4IGRlZgAAAAABAA4AEgAUABYAGAAjADAAMQAAAAoCAAEAGwAeACwA\
VgEVAZoB4AKXA0sDrMr3lBYcBQD6lBz7AAf+dKsV+lQcBMD+VAYO/hwO/avM+EwV90n4vftJBw75\
jxb7SBwEewZgYlJhRWJEYkxsU3YI90IH8LrjxdbO1s7BzarKCPcIBg7h+BcV90ijoCWuQr1eGV68\
yHTSG+DSqMbGH8XGqNPiGt5wz1XBHsBVRqY4G2lhhH5YH5/3MgWKl5WKkhvY0J+zyB/Is6rJ3hrN\
dcJeth62XlKhRBtFUXVfXB9cX21JfjP7SKsYofcNvejZzgjN2eys9wgb29V6ac4fzmi/XK9QCK5Q\
nUxIGkx6UWlXHmlXWWJIbOJ3zmK7TAi7TKM8LBr7FFz7AC4yHjIu+wpe+yMb+xUhsdg2HzbYWu5/\
9w4IDuD4FBX3UZuZL6xGvl0ZXL7IdNMb4tSszMcfx8yp4vcAGvJu3FLGHsZRP6kuG1FXfnFcH1xw\
Z2lwYfs9oRj3IvmFBflt+0D83QY8/B4FyOPnquwb9xT3AF8y4x/jMrf7BvsfGvsZZPsGPioe+wst\
+xRQ+zcb+xn7AbDWNx821lvuf/cPCA7sHAT6FfdB+kn7IAcuKC77GDD7OS/7OUT7PVn7Qmf7D3T7\
GoH7Jgj7TQaN9wei9yC29ze29zfK9zLc9yzc9yvh9xTm8wgOIPcqFhwFuvi6B/cE5Xxuzx/ObcBd\
sk4IsU2eSkgaTHpQaVQeaVRYXkZp5HHPX7tMCLpMo0E2GkZ9TG5QHm5QZ11ga2BrVnNLewh6SjyD\
Lhv8AfnmFffRBuHJkZawH7yasaOkrQikrZe2vhq8f7Z0sB50sGmkYJkImGBAkiIb+7kG/vQE+AEG\
yreNkKQfuJOwmKmeqZ6kpp6vCJ6ulbS6GsJ9um+0Hm+zZKdanAibWUOTLhv75wYO9wzu+V4V94fM\
91P3F/ceHvcd9xf3PND3Yxv3G/cOa0r3AR/3AUreMcT7BwjE+win+xf7Jxr7KW37GU/7CR5P+wk2\
MvsCTwhO+wL7C237Exv7HvsPrM77AR/7Ac455lP3BwhT9wdv9w73FRr3XIgV+0W7+x/qJh4l6vcL\
WPcjG/cm9wy+8uof6fK69yX3URr3C3f0Y+QeYuRQ0D68CLw9NKMqG/sd+wpcLSgfKCxZ+zH7cRoO\
IPcyFhwFuvi9B+zWhoK+H9N/x3S8arxpslypTgioTppJQhr7EWMiPDUeNDz7JGD7Yxv8DPzoBvmV\
BPgPBvcR5KK6wB/AuqXM4BrIfMBstx5stmKoWJkIlGpPjzMb/AsGDhwEcxQcBcEVAAAAAQAAAAoA\
HgAsAAFERkxUAAgABAAAAAD//wABAAAAAWtlcm4ACAAAAAEAAAABAAQAAgAAAAEACAABABoABAAA\
AAIADgAUAAEAA/9oAAEAAf/bAAEAAgADAAkAAA==&quot;)}

</style>
  <style
     id="style6533"
     type="text/css">

@font-face{font-family:'ArialMT';src:url(&quot;data:;base64,\
T1RUTwADACAAAQAQQ0ZGIOHrJ9IAAACwAAAHv0dQT1OvQL7DAAAIcAAAAGRjbWFwAdcB2gAAADwA\
AAB0AAAAAQAAAAMAAAAMAAQAaAAAABYAEAADAAYAIAAtADIAOAA6AEIATwBSAGMAbf//AAAAIAAs\
ADEANQA6AEEATwBSAGMAbf///+H/1v/T/9H/0P/K/77/vP+s/6MAAQAAAAAAAAAAAAAAAAAAAAAA\
AAAAAAABAAQCAAEBAQhBcmlhbE1UAAEBATv4GwH4GAT4HAwVHPqv/S0cEAAcCAwFHqAASIKBJf+L\
ix6gAEiCgSX/i4sMB/cpD/dIEPdKEZIcB7gSAAIBATI/QXJpYWwgaXMgYSB0cmFkZW1hcmsgb2Yg\
VGhlIE1vbm90eXBlIENvcnBvcmF0aW9uLi9GU1R5cGUgOCBkZWYAAAEAAQAADQEAEgEAFgMAGwAA\
IgEAMAAAMwAARAAATgAAAAARAgABABwAHgBGAFMAfQEHAYwCVAKaA3oDlAPTBIsFPwXMBk8G3Pnw\
95QWHAUA+pQc+wAH/nSrFfpUHATA/lQGDiAOIPdKFvdh92H7YQdAfk5wXR5wXGFnUXJZ2BixnKej\
naydq5W5jcgIDpHM+EwV90n4vftJBw75jxb7SBwEewZgYlJhRWJEYkxsU3YI90IH8LrjxdbO1s7B\
zarKCPcIBg76m/dBFftB/l0HiraStZqzpM2yzMLLwcvZ1fLf9zP3F/cA8sPYCMPXp9PPGtJyyFi8\
HrxYSKM5GzRGcVdXH1dXcUOKL/tNnhiY9x669N7UCNPe9wOv9x8b9yH3A2Q93R/dPbQq+wcaUH9S\
c1Iec1JjUFRMU0wuNfsV+wH7ADBGTmxrbGpya3dqCA7g+BQV91GbmS+sRr5dGVy+yHTTG+LUrMzH\
H8fMqeL3ABrybtxSxh7GUT+pLhtRV35xXB9ccGdpcGH7PaEY9yL5hQX5bftA/N0GPPweBcjj56rs\
G/cU9wBfMuMf4zK3+wb7Hxr7GWT7Bj4qHvsLLfsUUPs3G/sZ+wGw1jcfNtZb7n/3DwgO+o/65xX7\
R3170nS+bqsZvlpPpUQbUlh7a2AfUmJfTmo8ajx6+wWK+ye2zcC8yqsIq8rMm9Ab9wzxXzPgH98y\
tfsG+yAaL3c2ZDweYzxUTkZhCGFGPHYzG/sq+w7C9wMsHyz3Alz3SveRGvevv/di9PcVHvcE5vcP\
w/cvG/cH6mtK1R/USrcymvsGCP1z/QwVTZhQplIepVKwYLpuCG26vXy/G9fMqsjCH8LIpt/0GvBw\
21XGHsVVR6g5GzpGblFSH1JQbz8sGg7sHAT6FfdB+kn7IAcuKC77GDD7OS/7OUT7PVn7Qmf7D3T7\
GoH7Jgj7TQaN9wei9yC29ze29zfK9zLc9yzc9yvh9xTm8wgO9/75rxVAplSyZ74IZ755x9Ia9rHk\
2NQe1Njxr/cTG/cU8mZB2R/ZQLIxIBpHeVBoWR5nWFVkQnDlbtBbukoIukqiPTAa+xFfITI2HjYy\
+whg+yUb+yX7CLbhMh8y4F/29xQa6qPbvMweu8vQt+SiCGf3xRVGoVK4Xx5fuMV10hvQxKG3uB+3\
tqHByhrNdMNeuB64XVKhRxtGUnVfXh9eX3RWThpR/TkVWJdZpFseo1uvZrtxCHC7v37CG+HSp8LD\
H8PCp9LgGuJu0lLEHsRRQ6c0GzZFb1NUH1NTb0U3Gg4g90357RX3Yfdh+2EH+2H97RX3Yfdh+2EH\
DvlGiBb4xxwFugX3ZQb47Bz6RgX7cQb7P/hQBfz5Bvs1/FAF92347hX4hQb7LfgqXPcPafF02hl4\
LXEuaS4IDvlG9yoWHAW6+LoH9wTlfG7PH85twF2yTgixTZ5KSBpMelBpVB5pVFheRmnkcc9fu0wI\
ukyjQTYaRn1MblAeblBnXWBrYGtWc0t7CHpKPIMuG/wB+eYV99EG4cmRlrAfvJqxo6StCKStl7a+\
Grx/tnSwHnSwaaRgmQiYYECSIhv7uQb+9AT4AQbKt42QpB+4k7CYqZ6pnqSmnq8Inq6VtLoawn26\
b7Qeb7Nkp1qcCJtZQ5MuG/vnBg76Ke75XhX3h8z3U/cX9x4e9x33F/c80PdjG/cb9w5rSvcBH/cB\
St4xxPsHCMT7CKf7F/snGvspbfsZT/sJHk/7CTYy+wJPCE77AvsLbfsTG/se+w+szvsBH/sBzjnm\
U/cHCFP3B2/3DvcVGvdciBX7Rbv7H+omHiXq9wtY9yMb9yb3DL7y6h/p8rr3JfdRGvcLd/Rj5B5i\
5FDQPrwIvD00oyob+x37ClwtKB8oLFn7MftxGg75t/c1FhwFuvkeB/cX7n5xzx/PcMFdtEgItEif\
QjoaI2kzSEQeSEQjXfsheL5ysnOmc8RXwEq+PfeT/CMY+4gG+1b3xVLjXc5muhlmumurbp5unm2Y\
bZIIkHVnjVkb+3X9Hwb5xwT4NQbk0JSevR+9nbGopbQIpbOYt7oa0HLEWbgeuFg8ofsBG/xkBg73\
8PnQ+BkV90V0ePsOWSw8RhlGOylo+wgb+yX7CbvqMx8y6l/3HPdFGvcHnu+x4R6x4cXM2bYIttjg\
oOYb9wfqblHUH9RQujigIPtDcBh60m7BYa8Ir2BYnU8bMEJrSlIfUkpvJPshGvsjpiTCSh5KwtJr\
4xvSxqG2uh+6tqnOmOUIDvqa9xsW+rr3NfspB6y/uLXCqwiqwsqb0hvay3tqvh+9aq5eoFAI9xDf\
9wHJ9xsb9NxuUcQfxFCnMfsNGv1t+0f5MQfThb+Aqx5/qnalbJ4InmxnlWIbQE1yWlofWllyO/sB\
Gvz9+0j5RgfbfMdusx6zblufSBtYXX5wYB9gcGtkeFgIeFiBQSoa/LsHDhwEcxT5OBUAAAEAAAAK\
AB4ALAABREZMVAAIAAQAAAAA//8AAQAAAAFrZXJuAAgAAAABAAAAAQAEAAIAAAABAAgAAQAiAAQA\
AAADABAAFgAcAAEAC/+PAAEABP9oAAEAAf+PAAEAAwABAAQACw==&quot;)}

</style>
</svg>
