<?xml version="1.0" encoding="UTF-8" standalone="no"?>
<!-- Created with Inkscape (http://www.inkscape.org/) -->

<svg
   xmlns:dc="http://purl.org/dc/elements/1.1/"
   xmlns:cc="http://creativecommons.org/ns#"
   xmlns:rdf="http://www.w3.org/1999/02/22-rdf-syntax-ns#"
   xmlns:svg="http://www.w3.org/2000/svg"
   xmlns="http://www.w3.org/2000/svg"
   xmlns:sodipodi="http://sodipodi.sourceforge.net/DTD/sodipodi-0.dtd"
   xmlns:inkscape="http://www.inkscape.org/namespaces/inkscape"
   width="580.86768"
   height="279.48706"
   id="svg4048"
   version="1.1"
   inkscape:version="0.48.3.1 r9886"
   sodipodi:docname="Bo77-III3-4-83.svg">
  <title
     id="title2983">Bo77-III3-4-83</title>
  <defs
     id="defs4050" />
  <sodipodi:namedview
     id="base"
     pagecolor="#ffffff"
     bordercolor="#666666"
     borderopacity="1.0"
     inkscape:pageopacity="0.0"
     inkscape:pageshadow="2"
     inkscape:zoom="0.98994949"
     inkscape:cx="-171.6324"
     inkscape:cy="168.90825"
     inkscape:document-units="px"
     inkscape:current-layer="g3705"
     showgrid="true"
     units="mm"
     inkscape:window-width="1920"
     inkscape:window-height="991"
     inkscape:window-x="0"
     inkscape:window-y="28"
     inkscape:window-maximized="1"
     fit-margin-top="0"
     fit-margin-left="0"
     fit-margin-right="0"
     fit-margin-bottom="0">
    <inkscape:grid
       type="xygrid"
       id="grid4079"
       units="cm"
       empspacing="5"
       visible="false"
       enabled="false"
       snapvisiblegridlinesonly="true"
       originx="-1.9633115cm"
       originy="-11.559462cm" />
  </sodipodi:namedview>
  <metadata
     id="metadata4053">
    <rdf:RDF>
      <cc:Work
         rdf:about="">
        <dc:format>image/svg+xml</dc:format>
        <dc:type
           rdf:resource="http://purl.org/dc/dcmitype/StillImage" />
        <dc:title>Bo77-III3-4-83</dc:title>
        <cc:license
           rdf:resource="http://creativecommons.org/licenses/by/3.0/" />
        <dc:creator>
          <cc:Agent>
            <dc:title>Néhémie Strupler</dc:title>
          </cc:Agent>
        </dc:creator>
        <dc:description>Pottery Drawing from the database BoKeWTEer</dc:description>
        <dc:contributor>
          <cc:Agent>
            <dc:title>Illustrator:
Sarah-Julie Wittmann
Basic digitisation: Mehmet Turgut
Final work and metadata: Néhémie Strupler</dc:title>
          </cc:Agent>
        </dc:contributor>
        <dc:subject>
          <rdf:Bag>
            <rdf:li>Pottery</rdf:li>
            <rdf:li>Drawing</rdf:li>
            <rdf:li>BoKeWTer</rdf:li>
            <rdf:li>Westterasse</rdf:li>
            <rdf:li>Boğazköy</rdf:li>
            <rdf:li>Bogazkoy</rdf:li>
            <rdf:li>Hattusa</rdf:li>
            <rdf:li>Late Bronze Age</rdf:li>
            <rdf:li>Turquie</rdf:li>
          </rdf:Bag>
        </dc:subject>
        <dc:date>2015-05-25</dc:date>
        <dc:rights>
          <cc:Agent>
            <dc:title>Néhémie Strupler</dc:title>
          </cc:Agent>
        </dc:rights>
        <dc:relation />
      </cc:Work>
      <cc:License
         rdf:about="http://creativecommons.org/licenses/by/3.0/">
        <cc:permits
           rdf:resource="http://creativecommons.org/ns#Reproduction" />
        <cc:permits
           rdf:resource="http://creativecommons.org/ns#Distribution" />
        <cc:requires
           rdf:resource="http://creativecommons.org/ns#Notice" />
        <cc:requires
           rdf:resource="http://creativecommons.org/ns#Attribution" />
        <cc:permits
           rdf:resource="http://creativecommons.org/ns#DerivativeWorks" />
      </cc:License>
    </rdf:RDF>
  </metadata>
  <g
     inkscape:label="Layer 1"
     inkscape:groupmode="layer"
     id="layer1"
     transform="translate(-69.566154,-363.28792)">
    <g
       id="g4480"
       transform="matrix(1.25,0,0,1.25,-135.71638,151.26542)">
      <g
         id="Background" />
      <g
         id="Guides" />
      <g
         id="Foreground">
        <path
           id="path4453"
           d="m 593.101,246.897 c 14.027,-13.909 19.828,-28.46 25.193,-47.261 2.129,-7.462 1.471,-21.956 4.908,-27.519 1.31,-1.472 2.403,-1.101 3.28,1.114 2.098,4.518 1.91,14.776 1.198,19.768 -0.268,1.878 -0.715,3.754 -1.355,5.643 -5.921,17.443 -12.639,33.906 -24.74,48.175 -2.644,3.117 -9.57,10.239 -9.57,10.239 0,0 -2.587,2.313 -5.453,4.875 -26.932,24.083 -59.022,38.677 -91.735,53.015 -2.877,1.262 -4.812,2.109 -4.812,2.109 0,0 -9.109,3.549 -14.169,5.828 -13.613,6.135 -61.747,17.195 -77.451,16.916 l -1.989,0.131 c 0.118,-3.385 -0.141,-10.625 0.484,-13.375 4.051,-0.673 8.979,0.218 13.035,-0.188 10.638,-1.551 45.176,-9.141 50.21,-10.715 2.536,-0.793 5.005,-1.473 5.005,-1.473 l 19.75,-7.5 c 0,0 1.387,-0.506 3.535,-1.292 33.191,-12.124 65.985,-26.902 93.949,-48.727 2.354,-1.837 4.141,-3.231 4.141,-3.231 0,0 3.156,-3.13 6.586,-6.532 z"
           style="fill-rule:evenodd;stroke:#000000;stroke-width:1.5;stroke-linecap:round;stroke-linejoin:round;stroke-miterlimit:3.86369991;stroke-dasharray:none"
           inkscape:connector-curvature="0" />
        <path
           id="path4455"
           d="m 168.369,170.796 c -0.688,0.068 -1.207,0.731 -1.705,1.99 -2.098,4.518 -1.91,14.776 -1.197,19.768 0.268,1.878 0.713,3.754 1.354,5.643 5.921,17.443 12.639,33.906 24.74,48.175 2.644,3.117 9.571,10.239 9.571,10.239 l 5.451,4.875 c 26.934,24.083 59.023,38.677 91.736,53.015 l 4.813,2.109 c 0,0 9.108,3.549 14.168,5.828 13.613,6.135 61.822,17.803 77.527,17.523 l 1.813,-0.031"
           style="fill:none;stroke:#000000;stroke-width:1.5;stroke-linecap:round;stroke-linejoin:round;stroke-miterlimit:3.86369991;stroke-dasharray:none"
           inkscape:connector-curvature="0" />
        <line
           id="line4467"
           y2="170.80499"
           x2="168.265"
           y1="170.80499"
           x1="606.67755"
           style="fill:none;stroke:#000000;stroke-width:1.5;stroke-linecap:round;stroke-linejoin:round;stroke-miterlimit:3.86369991;stroke-dasharray:none" />
        <line
           id="line4469"
           y2="340.367"
           x2="396.453"
           y1="170.368"
           x1="396.453"
           style="fill:none;stroke:#000000;stroke-width:1.5;stroke-linecap:round;stroke-linejoin:round;stroke-miterlimit:3.86369991;stroke-dasharray:none" />
      </g>
    </g>
  </g>
  <g
     inkscape:groupmode="layer"
     id="layer10"
     inkscape:label="scale"
     transform="translate(-69.566154,-363.28791)">
    <g
       style="display:inline"
       id="g3705"
       transform="matrix(1.244841,0,0,1.3514373,-1348.7417,-853.14552)">
      <g
         transform="translate(0,2.0000001)"
         id="g3676"
         style="display:inline;stroke-width:0.96372943;stroke-miterlimit:4;stroke-dasharray:none">
        <rect
           style="fill:none;stroke:#000000;stroke-width:0.96372943;display:inline;stroke-miterlimit:4;stroke-dasharray:none"
           id="rect3757-68"
           height="13.916063"
           width="283.53973"
           y="1090.9103"
           x="1230.9233" />
        <rect
           style="fill:none;stroke:#000000;stroke-width:0.96372943;display:inline;stroke-miterlimit:4;stroke-dasharray:none"
           id="rect3759-1"
           height="6.9582772"
           width="28.34347"
           y="1097.8679"
           x="1230.7921" />
        <rect
           style="stroke:#000000;stroke-width:0.96372943;display:inline;stroke-miterlimit:4;stroke-dasharray:none"
           id="rect3761-59"
           height="6.9582772"
           width="28.34347"
           y="1097.8684"
           x="1259.1566" />
        <rect
           style="fill:none;stroke:#000000;stroke-width:0.96372943;display:inline;stroke-miterlimit:4;stroke-dasharray:none"
           id="rect3763-46"
           height="6.9582772"
           width="28.344469"
           y="1097.865"
           x="1287.52" />
        <rect
           style="stroke:#000000;stroke-width:0.96372943;display:inline;stroke-miterlimit:4;stroke-dasharray:none"
           id="rect3765-3"
           height="6.9582772"
           width="28.344469"
           y="1097.8684"
           x="1315.8845" />
        <rect
           style="fill:none;stroke:#000000;stroke-width:0.96372943;display:inline;stroke-miterlimit:4;stroke-dasharray:none"
           id="rect3767-4"
           height="6.9582772"
           width="28.34347"
           y="1097.8684"
           x="1344.249" />
        <rect
           style="stroke:#000000;stroke-width:0.96372943;display:inline;stroke-miterlimit:4;stroke-dasharray:none"
           id="rect3769-0"
           height="6.9577866"
           width="141.71834"
           y="1097.865"
           x="1372.6125" />
        <rect
           style="stroke:#000000;stroke-width:0.96372943;display:inline;stroke-miterlimit:4;stroke-dasharray:none"
           id="rect3771-4"
           height="6.9582772"
           width="28.34347"
           y="1090.8317"
           x="1230.7921" />
        <rect
           style="fill:none;stroke:#000000;stroke-width:0.96372943;display:inline;stroke-miterlimit:4;stroke-dasharray:none"
           id="rect3773-0"
           height="6.9582772"
           width="28.34347"
           y="1090.8322"
           x="1259.1566" />
        <rect
           style="stroke:#000000;stroke-width:0.96372943;display:inline;stroke-miterlimit:4;stroke-dasharray:none"
           id="rect3775-6"
           height="6.9582772"
           width="28.345469"
           y="1090.8287"
           x="1287.52" />
        <rect
           style="fill:none;stroke:#000000;stroke-width:0.96372943;display:inline;stroke-miterlimit:4;stroke-dasharray:none"
           id="rect3777-7"
           height="6.9582772"
           width="28.344469"
           y="1090.8322"
           x="1315.8845" />
        <rect
           style="stroke:#000000;stroke-width:0.96372943;display:inline;stroke-miterlimit:4;stroke-dasharray:none"
           id="rect3779-1"
           height="6.9582772"
           width="28.34347"
           y="1090.8322"
           x="1344.249" />
        <rect
           style="fill:none;stroke:#000000;stroke-width:0.96372943;display:inline;stroke-miterlimit:4;stroke-dasharray:none"
           id="rect3781-5"
           height="6.9577866"
           width="141.71935"
           y="1090.8287"
           x="1372.6125" />
      </g>
      <g
         style="display:inline"
         id="g3755-2"
         transform="translate(-4.8075526,-102.46773)">
        <g
           id="g3304-2">
          <g
             id="g3671">
            <text
               style="font-size:13px;font-style:normal;font-variant:normal;font-weight:normal;font-stretch:normal;font-family:Gentium Book Basic;-inkscape-font-specification:Gentium Book Basic"
               id="text3783-2"
               font-size="12"
               x="1234.5"
               y="1191.0444">0</text>
            <text
               style="font-size:13px;font-style:normal;font-variant:normal;font-weight:normal;font-stretch:normal;font-family:Gentium Book Basic;-inkscape-font-specification:Gentium Book Basic"
               id="text3785-4"
               font-size="12"
               x="1373.5"
               y="1191.0063">5</text>
            <text
               style="font-size:13px;font-style:normal;font-variant:normal;font-weight:normal;font-stretch:normal;font-family:Gentium Book Basic;-inkscape-font-specification:Gentium Book Basic"
               id="text3787-8"
               font-size="12"
               x="1487.5"
               y="1191.0762">10 cm</text>
          </g>
        </g>
        <g
           style="display:inline"
           inkscape:label="scale"
           id="layer7"
           inkscape:groupmode="layer" />
        <text
           transform="translate(3.0762894,36.91539)"
           sodipodi:linespacing="125%"
           id="text3215-1"
           y="1590.157"
           x="2077.3782"
           style="font-size:12px;font-style:normal;font-weight:normal;line-height:125%;letter-spacing:0px;word-spacing:0px;fill:#000000;fill-opacity:1;stroke:none;font-family:Sans"
           xml:space="preserve"><tspan
             y="1590.157"
             x="2077.3782"
             id="tspan3217-7"
             sodipodi:role="line" /></text>
      </g>
    </g>
  </g>
  <style
     id="style4448"
     type="text/css">

@font-face{font-family:'ArialMT';src:url(&quot;data:;base64,\
T1RUTwADACAAAQAQQ0ZGIFaFSxMAAADAAAAHPkdQT1OvZr8YAAAIAAAAAFBjbWFwAh8CLwAAADwA\
AACEAAAAAQAAAAMAAAAMAAQAeAAAABoAEAADAAoAIAAtADEANAA4ADoAQgBJAE8AUgBjAG3//wAA\
ACAALQAxADMANgA6AEIASQBPAFIAYwBt////4f/V/9L/0f/Q/8//yP/C/73/u/+r/6IAAQAAAAAA\
AAAAAAAAAAAAAAAAAAAAAAAAAAAAAQAEAgABAQEIQXJpYWxNVAABAQE7+BsB+BgE+BwMFRz6r/0t\
HBAAHAgMBR6gAEiCgSX/i4seoABIgoEl/4uLDAf3KQ/3SBD3ShGSHAc3EgACAQEyP0FyaWFsIGlz\
IGEgdHJhZGVtYXJrIG9mIFRoZSBNb25vdHlwZSBDb3Jwb3JhdGlvbi4vRlNUeXBlIDggZGVmAAAA\
AAEADgASABQAFQAXABgAGQAbACMAKgAwADMARABOAAAAEAIAAQAcAB4AKwBVARQBPgIGAkwDLANG\
A/4EDATABU0F0AZd+fD3lBYcBQD6lBz7AAf+dKsV+lQcBMD+VAYOIA6RzPhMFfdJ+L37SQcO+Y8W\
+0gcBHsGYGJSYUViRGJMbFN2CPdCB/C648XWztbOwc2qygj3CAYO4fgXFfdIo6AlrkK9XhlevMh0\
0hvg0qjGxh/FxqjT4hrecM9VwR7AVUamOBtpYYR+WB+f9zIFipeVipIb2NCfs8gfyLOqyd4azXXC\
XrYetl5SoUQbRVF1X1wfXF9tSX4z+0irGKH3Db3o2c4IzdnsrPcIG9vVemnOH85ov1yvUAiuUJ1M\
SBpMelFpVx5pV1liSGzid85iu0wIu0yjPCwa+xRc+wAuMh4yLvsKXvsjG/sVIbHYNh822Fruf/cO\
CA75Khb38/0Q9zkH+TH6SgX3J/5K91r7Ofta+/MG+0j4mBX5KQf8X/0pBQ76j/rnFftHfXvSdL5u\
qxm+Wk+lRBtSWHtrYB9SYl9OajxqPHr7BYr7J7bNwLzKqwirysyb0Bv3DPFfM+Af3zK1+wb7IBov\
dzZkPB5jPFRORmEIYUY8djMb+yr7DsL3AywfLPcCXPdK95Ea96+/92L09xUe9wTm9w/D9y8b9wfq\
a0rVH9RKtzKa+wYI/XP9DBVNmFCmUh6lUrBgum4Ibbq9fL8b18yqyMIfwsim3/Qa8HDbVcYexVVH\
qDkbOkZuUVIfUlBvPywaDuwcBPoV90H6SfsgBy4oLvsYMPs5L/s5RPs9WftCZ/sPdPsagfsmCPtN\
Bo33B6L3ILb3N7b3N8r3Mtz3LNz3K+H3FObzCA73/vmvFUCmVLJnvghnvnnH0hr2seTY1B7U2PGv\
9xMb9xTyZkHZH9lAsjEgGkd5UGhZHmdYVWRCcOVu0Fu6Sgi6SqI9MBr7EV8hMjYeNjL7CGD7JRv7\
JfsItuEyHzLgX/b3FBrqo9u8zB67y9C35KIIZ/fFFUahUrhfHl+4xXXSG9DEobe4H7e2ocHKGs10\
w164HrhdUqFHG0ZSdV9eH15fdFZOGlH9ORVYl1mkWx6jW69mu3EIcLu/fsIb4dKnwsMfw8Kn0uAa\
4m7SUsQexFFDpzQbNkVvU1QfU1NvRTcaDiD3TfntFfdh92H7YQf7Yf3tFfdh92H7YQcO+Ub3KhYc\
Bbr4ugf3BOV8bs8fzm3AXbJOCLFNnkpIGkx6UGlUHmlUWF5GaeRxz1+7TAi6TKNBNhpGfUxuUB5u\
UGddYGtga1ZzS3sIeko8gy4b/AH55hX30QbhyZGWsB+8mrGjpK0IpK2Xtr4avH+2dLAedLBppGCZ\
CJhgQJIiG/u5Bv70BPgBBsq3jZCkH7iTsJipnqmepKaerwierpW0uhrCfbpvtB5vs2SnWpwIm1lD\
ky4b++cGDiD3UxYcBbr3Vhz6RgcO+inu+V4V94fM91P3F/ceHvcd9xf3PND3Yxv3G/cOa0r3AR/3\
AUreMcT7BwjE+win+xf7Jxr7KW37GU/7CR5P+wk2MvsCTwhO+wL7C237Exv7HvsPrM77AR/7Ac45\
5lP3BwhT9wdv9w73FRr3XIgV+0W7+x/qJh4l6vcLWPcjG/cm9wy+8uof6fK69yX3URr3C3f0Y+Qe\
YuRQ0D68CLw9NKMqG/sd+wpcLSgfKCxZ+zH7cRoO+bf3NRYcBbr5Hgf3F+5+cc8fz3DBXbRICLRI\
n0I6GiNpM0hEHkhEI137IXi+crJzpnPEV8BKvj33k/wjGPuIBvtW98VS413OZroZZrprq26ebp5t\
mG2SCJB1Z41ZG/t1/R8G+ccE+DUG5NCUnr0fvZ2xqKW0CKWzmLe6GtByxFm4HrhYPKH7ARv8ZAYO\
9/D50PgZFfdFdHj7DlksPEYZRjspaPsIG/sl+wm76jMfMupf9xz3RRr3B57vseEeseHFzNm2CLbY\
4KDmG/cH6m5R1B/UULo4oCD7Q3AYetJuwWGvCK9gWJ1PGzBCa0pSH1JKbyT7IRr7I6YkwkoeSsLS\
a+Mb0sahtrofurapzpjlCA76mvcbFvq69zX7KQesv7i1wqsIqsLKm9Ib2st7ar4fvWquXqBQCPcQ\
3/cByfcbG/TcblHEH8RQpzH7DRr9bftH+TEH04W/gKsef6p2pWyeCJ5sZ5ViG0BNclpaH1pZcjv7\
ARr8/ftI+UYH23zHbrMes25bn0gbWF1+cGAfYHBrZHhYCHhYgUEqGvy7Bw4cBHMU+TgVAAAAAQAA\
AAoAHgAsAAFERkxUAAgABAAAAAD//wABAAAAAWtlcm4ACAAAAAEAAAABAAQAAgAAAAEACAABABIA\
BAAAAAEADAABAAP/aAABAAEAAw==&quot;)}

</style>
</svg>
