<?xml version="1.0" encoding="UTF-8" standalone="no"?>
<!-- Created with Inkscape (http://www.inkscape.org/) -->

<svg
   xmlns:dc="http://purl.org/dc/elements/1.1/"
   xmlns:cc="http://creativecommons.org/ns#"
   xmlns:rdf="http://www.w3.org/1999/02/22-rdf-syntax-ns#"
   xmlns:svg="http://www.w3.org/2000/svg"
   xmlns="http://www.w3.org/2000/svg"
   xmlns:xlink="http://www.w3.org/1999/xlink"
   xmlns:sodipodi="http://sodipodi.sourceforge.net/DTD/sodipodi-0.dtd"
   xmlns:inkscape="http://www.inkscape.org/namespaces/inkscape"
   width="515.06396"
   height="573.49896"
   id="svg4048"
   version="1.1"
   inkscape:version="0.92.4 (5da689c313, 2019-01-14)"
   sodipodi:docname="Bo76-307.svg"
   inkscape:export-filename="/media/hdd/Nehemie/Bogazkoy/BoKe/BoKeWTer/Images/SVG/Divers/Bo76-402.png"
   inkscape:export-xdpi="300"
   inkscape:export-ydpi="300"
   viewBox="0 0 482.87246 537.65527">
  <title
     id="title2983">Bo76-307</title>
  <defs
     id="defs4050" />
  <sodipodi:namedview
     id="base"
     pagecolor="#ffffff"
     bordercolor="#666666"
     borderopacity="1.0"
     inkscape:pageopacity="0.0"
     inkscape:pageshadow="2"
     inkscape:zoom="0.14513545"
     inkscape:cx="-184.77026"
     inkscape:cy="-352.73481"
     inkscape:document-units="px"
     inkscape:current-layer="layer2"
     showgrid="true"
     units="mm"
     inkscape:window-width="956"
     inkscape:window-height="987"
     inkscape:window-x="0"
     inkscape:window-y="72"
     inkscape:window-maximized="0"
     fit-margin-top="0"
     fit-margin-left="0"
     fit-margin-right="0"
     fit-margin-bottom="0"
     showguides="true"
     inkscape:guide-bbox="true">
    <inkscape:grid
       type="xygrid"
       id="grid4079"
       units="cm"
       empspacing="5"
       visible="false"
       enabled="false"
       snapvisiblegridlinesonly="true"
       originx="2023.5743"
       originy="-942.99767"
       spacingx="35.43307"
       spacingy="35.433071" />
  </sodipodi:namedview>
  <metadata
     id="metadata4053">
    <rdf:RDF>
      <cc:Work
         rdf:about="">
        <dc:format>image/svg+xml</dc:format>
        <dc:type
           rdf:resource="http://purl.org/dc/dcmitype/StillImage" />
        <dc:title>Bo76-307</dc:title>
        <cc:license
           rdf:resource="http://creativecommons.org/licenses/by/4.0/" />
        <dc:creator>
          <cc:Agent>
            <dc:title>Néhémie Strupler</dc:title>
          </cc:Agent>
        </dc:creator>
        <dc:description>Pottery Drawing from the BoKeWTer database </dc:description>
        <dc:contributor>
          <cc:Agent>
            <dc:title>Illustrator: unknown (1976)
Digitalisation: Néhémie Strupler</dc:title>
          </cc:Agent>
        </dc:contributor>
        <dc:subject>
          <rdf:Bag>
            <rdf:li>Pottery</rdf:li>
            <rdf:li>Drawing</rdf:li>
            <rdf:li>BoKeWTer</rdf:li>
            <rdf:li>Westterrasse</rdf:li>
            <rdf:li>Boğazköy</rdf:li>
            <rdf:li>Bogazkoy</rdf:li>
            <rdf:li>Hattusa</rdf:li>
            <rdf:li>Late Bronze Age</rdf:li>
            <rdf:li>Turquie</rdf:li>
          </rdf:Bag>
        </dc:subject>
        <dc:date>2015-06-12</dc:date>
        <dc:rights>
          <cc:Agent>
            <dc:title>Néhémie Strupler</dc:title>
          </cc:Agent>
        </dc:rights>
        <dc:relation />
      </cc:Work>
      <cc:License
         rdf:about="http://creativecommons.org/licenses/by/4.0/">
        <cc:permits
           rdf:resource="http://creativecommons.org/ns#Reproduction" />
        <cc:permits
           rdf:resource="http://creativecommons.org/ns#Distribution" />
        <cc:requires
           rdf:resource="http://creativecommons.org/ns#Notice" />
        <cc:requires
           rdf:resource="http://creativecommons.org/ns#Attribution" />
        <cc:permits
           rdf:resource="http://creativecommons.org/ns#DerivativeWorks" />
      </cc:License>
    </rdf:RDF>
  </metadata>
  <g
     inkscape:groupmode="layer"
     id="layer1"
     inkscape:label="Layer"
     style="display:none"
     sodipodi:insensitive="true"
     transform="translate(1088.5666,779.21627)">
    <image
       y="-2002.4015"
       x="-1948.3429"
       id="image3961"
       xlink:href="file:///media/hdd/Nehemie/Bogazkoy/BoKe/BoKeWTer/Images/SVG/Divers/Geb34--Bo76-307z.png"
       height="1911.0638"
       width="1487.6897"
       transform="rotate(-2.138055)" />
  </g>
  <g
     inkscape:groupmode="layer"
     id="layer3"
     inkscape:label="rotation_axis"
     style="display:inline"
     transform="translate(2023.5743,428.29077)">
    <path
       style="fill:none;stroke:#000000;stroke-width:0.60152745;stroke-linecap:butt;stroke-linejoin:miter;stroke-miterlimit:4;stroke-dasharray:none;stroke-opacity:1"
       d="M -1787.6457,-421.51356 V 75.385778"
       id="path3964"
       inkscape:connector-curvature="0"
       sodipodi:nodetypes="cc" />
  </g>
  <g
     inkscape:groupmode="layer"
     id="layer4"
     inkscape:label="external"
     style="display:inline"
     transform="translate(2023.5743,428.29077)">
    <path
       style="fill:#000000;fill-opacity:1;stroke:#000000;stroke-width:0.60219717;stroke-linecap:butt;stroke-linejoin:miter;stroke-miterlimit:4;stroke-dasharray:none;stroke-opacity:1"
       d="m -1787.4335,73.869311 c 0.978,0 41.2707,2.151549 43.031,2.151549 1.7604,0 16.8212,0.782385 18.5816,-0.782381 1.7604,-1.564765 21.1594,-15.255535 43.1502,-43.608454 21.9908,-28.3529188 55.5994,-81.601085 60.3018,-88.793047 4.7024,-7.191958 26.2278,-54.979018 29.7486,-89.012638 3.5207,-34.03362 -4.6943,-104.44803 -25.8187,-155.69404 -21.1243,-51.24605 -43.7623,-89.16626 -45.6986,-94.69851 -1.9363,-5.53228 -5.394,-8.98995 -2.6278,-15.35207 2.7661,-6.36213 7.8835,-13.00085 0,-15.62871 -7.8835,-2.62782 -17.565,7.19197 -15.767,12.30933 1.798,5.11736 -0.2575,5.8902 9.1311,25.25416 9.3886,19.36396 35.9896,75.20649 36.5764,79.90077 0.5867,4.69431 25.0362,71.58797 26.2098,96.62422 1.1735,25.03621 7.8238,59.46104 -2.7384,95.8418 -10.5621,36.380765 -38.1411,91.734299 -58.6787,113.4454043 -20.5375,21.7111017 -40.2926,52.4196007 -75.4998,60.6346137 -35.2072,8.215013 -39.9696,6.259057 -39.9696,6.259057 z"
       id="path3986"
       inkscape:connector-curvature="0"
       sodipodi:nodetypes="csssssssssssssssscc" />
    <path
       style="fill:none;stroke:#000000;stroke-width:0.60219717;stroke-linecap:butt;stroke-linejoin:miter;stroke-miterlimit:4;stroke-dasharray:none;stroke-opacity:1"
       d="m -1787.4728,75.058402 -61.7195,-0.13831 c 0,0 -21.2992,-11.202861 -46.0562,-33.885196 -24.7569,-22.682335 -55.3228,-60.163512 -69.9833,-99.995908 -14.6605,-39.832393 -22.6823,-90.176108 -16.5968,-117.837518 6.0855,-27.66137 28.4912,-159.32957 64.451,-202.75794 0,0 4.1492,-9.12825 6.3621,-10.51132 2.213,-1.38306 4.9791,-3.04274 1.1065,-11.8944 -3.8726,-8.85166 -2.2129,-13.55409 6.6387,-14.66053 8.8517,-1.10647 212.7161,-9.12825 212.7161,-9.12825"
       id="path4019"
       inkscape:connector-curvature="0"
       sodipodi:nodetypes="ccssscsssc" />
  </g>
  <g
     inkscape:groupmode="layer"
     id="layer6"
     inkscape:label="section"
     transform="translate(2023.5743,428.29077)"
     style="display:inline" />
  <g
     inkscape:groupmode="layer"
     id="layer5"
     inkscape:label="handle"
     transform="translate(2023.5743,428.29077)">
    <path
       style="fill:none;stroke:#000000;stroke-width:0.60219717;stroke-linecap:butt;stroke-linejoin:miter;stroke-miterlimit:4;stroke-dasharray:none;stroke-opacity:1"
       d="m -1591.6424,-175.3194 c 0,0 0.3925,-51.26959 25.841,-91.65524 25.4485,-40.38562 8.2984,-51.45015 1.1065,-51.45015 -7.192,0 -11.0646,4.14918 -24.0654,29.59768 -13.0009,25.44847 -22.1291,11.06453 -23.2356,4.42581"
       id="path3988"
       inkscape:connector-curvature="0" />
    <path
       style="fill:none;stroke:#000000;stroke-width:0.60219717;stroke-linecap:butt;stroke-linejoin:miter;stroke-miterlimit:4;stroke-dasharray:none;stroke-opacity:1"
       d="m -1983.9746,-153.10001 c 0,0 -0.3925,-51.26959 -25.841,-91.65524 -25.4485,-40.38564 -8.2984,-51.45017 -1.1064,-51.45017 7.1919,0 11.0645,4.14919 24.0654,29.59768 13.0008,25.44849 22.1291,11.06457 23.2355,4.42585"
       id="path3988-7"
       inkscape:connector-curvature="0" />
    <path
       style="fill:none;stroke:#000000;stroke-width:0.60219717;stroke-linecap:butt;stroke-linejoin:miter;stroke-miterlimit:4;stroke-dasharray:none;stroke-opacity:1"
       d="m -1587.1006,-317.87157 6.3286,3.65387 m 33.2359,19.1887 6.6837,3.85885"
       id="path4023"
       inkscape:connector-curvature="0"
       sodipodi:nodetypes="cccc" />
    <path
       style="fill:#000000;fill-opacity:1;stroke:#000000;stroke-width:0.60219717;stroke-linecap:round;stroke-linejoin:round;stroke-miterlimit:4;stroke-dasharray:none;stroke-opacity:1"
       d="m -1563.8502,-331.38109 c 0,0 -15.2137,-4.14922 -15.2137,-11.06456 0,-6.91534 0.5532,-19.91619 15.7669,-22.12912 15.2138,-2.21291 17.9799,31.25737 -0.5532,33.19368 z"
       id="path4021-1"
       inkscape:connector-curvature="0" />
    <path
       style="fill:none;stroke:#000000;stroke-width:0.60219717;stroke-linecap:butt;stroke-linejoin:miter;stroke-miterlimit:4;stroke-dasharray:none;stroke-opacity:1"
       d="m -1587.1007,-363.64093 6.3287,3.65387 m 33.2359,19.1887 6.6837,3.85885"
       id="path4023-6"
       inkscape:connector-curvature="0"
       sodipodi:nodetypes="cccc" />
  </g>
  <g
     inkscape:groupmode="layer"
     id="layer8"
     inkscape:label="decoration"
     transform="translate(913.6731,-410.78599)" />
  <g
     inkscape:groupmode="layer"
     id="layer2"
     inkscape:label="scale"
     transform="translate(2023.5743,428.29077)">
    <rect
       style="display:inline;fill:none;stroke:#000000;stroke-width:0.60219717;stroke-miterlimit:4;stroke-dasharray:none"
       id="rect3757-68"
       height="6.0401773"
       width="113.3614"
       y="103.02306"
       x="-1844.2816" />
    <rect
       style="display:inline;fill:none;stroke:#000000;stroke-width:0.60219717;stroke-miterlimit:4;stroke-dasharray:none"
       id="rect3759-1"
       height="3.0201952"
       width="11.331941"
       y="106.04298"
       x="-1844.3341" />
    <rect
       style="display:inline;stroke:#000000;stroke-width:0.60219717;stroke-miterlimit:4;stroke-dasharray:none"
       id="rect3761-59"
       height="3.0201952"
       width="11.331941"
       y="106.0432"
       x="-1832.9938" />
    <rect
       style="display:inline;fill:none;stroke:#000000;stroke-width:0.60219717;stroke-miterlimit:4;stroke-dasharray:none"
       id="rect3763-46"
       height="3.0201952"
       width="11.332341"
       y="106.04172"
       x="-1821.6538" />
    <rect
       style="display:inline;stroke:#000000;stroke-width:0.60219717;stroke-miterlimit:4;stroke-dasharray:none"
       id="rect3765-3"
       height="3.0201952"
       width="11.332341"
       y="106.0432"
       x="-1810.3135" />
    <rect
       style="display:inline;fill:none;stroke:#000000;stroke-width:0.60219717;stroke-miterlimit:4;stroke-dasharray:none"
       id="rect3767-4"
       height="3.0201952"
       width="11.331941"
       y="106.0432"
       x="-1798.9731" />
    <rect
       style="display:inline;stroke:#000000;stroke-width:0.60219717;stroke-miterlimit:4;stroke-dasharray:none"
       id="rect3769-0"
       height="3.0199823"
       width="56.660099"
       y="106.04172"
       x="-1787.6332" />
    <rect
       style="display:inline;stroke:#000000;stroke-width:0.60219717;stroke-miterlimit:4;stroke-dasharray:none"
       id="rect3771-4"
       height="3.0201952"
       width="11.331941"
       y="102.98895"
       x="-1844.3341" />
    <rect
       style="display:inline;fill:none;stroke:#000000;stroke-width:0.60219717;stroke-miterlimit:4;stroke-dasharray:none"
       id="rect3773-0"
       height="3.0201952"
       width="11.331941"
       y="102.98916"
       x="-1832.9938" />
    <rect
       style="display:inline;stroke:#000000;stroke-width:0.60219717;stroke-miterlimit:4;stroke-dasharray:none"
       id="rect3775-6"
       height="3.0201952"
       width="11.332741"
       y="102.98767"
       x="-1821.6538" />
    <rect
       style="display:inline;fill:none;stroke:#000000;stroke-width:0.60219717;stroke-miterlimit:4;stroke-dasharray:none"
       id="rect3777-7"
       height="3.0201952"
       width="11.332341"
       y="102.98916"
       x="-1810.3135" />
    <rect
       style="display:inline;stroke:#000000;stroke-width:0.60219717;stroke-miterlimit:4;stroke-dasharray:none"
       id="rect3779-1"
       height="3.0201952"
       width="11.331941"
       y="102.98916"
       x="-1798.9731" />
    <rect
       style="display:inline;fill:none;stroke:#000000;stroke-width:0.60219717;stroke-miterlimit:4;stroke-dasharray:none"
       id="rect3781-5"
       height="3.0199823"
       width="56.660503"
       y="102.98767"
       x="-1787.6332" />
    <g
       id="g3671"
       style="stroke-width:1.44559419;stroke-miterlimit:4;stroke-dasharray:none"
       transform="matrix(0.39980784,0,0,0.43404356,-2338.3365,-415.82307)">
      <text
         y="1191.0444"
         x="1234.5"
         font-size="12"
         id="text3783-2"
         style="font-style:normal;font-variant:normal;font-weight:normal;font-stretch:normal;font-size:13px;line-height:0%;font-family:'Gentium Book Basic';-inkscape-font-specification:'Gentium Book Basic';stroke-width:1.44559419;stroke-miterlimit:4;stroke-dasharray:none">0</text>
      <text
         y="1191.0063"
         x="1373.5"
         font-size="12"
         id="text3785-4"
         style="font-style:normal;font-variant:normal;font-weight:normal;font-stretch:normal;font-size:13px;line-height:0%;font-family:'Gentium Book Basic';-inkscape-font-specification:'Gentium Book Basic';stroke-width:1.44559419;stroke-miterlimit:4;stroke-dasharray:none">5</text>
      <text
         y="1191.0762"
         x="1487.5"
         font-size="12"
         id="text3787-8"
         style="font-style:normal;font-variant:normal;font-weight:normal;font-stretch:normal;font-size:13px;line-height:0%;font-family:'Gentium Book Basic';-inkscape-font-specification:'Gentium Book Basic';stroke-width:1.44559419;stroke-miterlimit:4;stroke-dasharray:none">10 cm</text>
    </g>
  </g>
</svg>
