<?xml version="1.0" encoding="UTF-8" standalone="no"?>
<!-- Created with Inkscape (http://www.inkscape.org/) -->

<svg
   xmlns:dc="http://purl.org/dc/elements/1.1/"
   xmlns:cc="http://creativecommons.org/ns#"
   xmlns:rdf="http://www.w3.org/1999/02/22-rdf-syntax-ns#"
   xmlns:svg="http://www.w3.org/2000/svg"
   xmlns="http://www.w3.org/2000/svg"
   xmlns:sodipodi="http://sodipodi.sourceforge.net/DTD/sodipodi-0.dtd"
   xmlns:inkscape="http://www.inkscape.org/namespaces/inkscape"
   width="1249.6239"
   height="216.77652"
   id="svg4048"
   version="1.1"
   inkscape:version="0.91 r13725"
   sodipodi:docname="Bo77-IV2-9-159.svg"
   viewBox="0 0 1249.6239 216.77652">
  <title
     id="title2983">Bo77-IV2-9-159</title>
  <defs
     id="defs4050" />
  <sodipodi:namedview
     id="base"
     pagecolor="#ffffff"
     bordercolor="#666666"
     borderopacity="1.0"
     inkscape:pageopacity="0.0"
     inkscape:pageshadow="2"
     inkscape:zoom="0.41050506"
     inkscape:cx="497.91755"
     inkscape:cy="-190.75871"
     inkscape:document-units="px"
     inkscape:current-layer="layer17"
     showgrid="true"
     units="mm"
     inkscape:window-width="1280"
     inkscape:window-height="974"
     inkscape:window-x="0"
     inkscape:window-y="26"
     inkscape:window-maximized="1"
     fit-margin-top="0"
     fit-margin-left="0"
     fit-margin-right="0"
     fit-margin-bottom="0">
    <inkscape:grid
       type="xygrid"
       id="grid4079"
       units="cm"
       empspacing="5"
       visible="false"
       enabled="false"
       snapvisiblegridlinesonly="true"
       originx="237.48419"
       originy="-771.96231" />
  </sodipodi:namedview>
  <metadata
     id="metadata4053">
    <rdf:RDF>
      <cc:Work
         rdf:about="">
        <dc:format>image/svg+xml</dc:format>
        <dc:type
           rdf:resource="http://purl.org/dc/dcmitype/StillImage" />
        <dc:title>Bo77-IV2-9-159</dc:title>
        <cc:license
           rdf:resource="http://creativecommons.org/licenses/by/3.0/" />
        <dc:creator>
          <cc:Agent>
            <dc:title>Néhémie Strupler</dc:title>
          </cc:Agent>
        </dc:creator>
        <dc:description>Pottery Drawing from the BoKeWTer database </dc:description>
        <dc:contributor>
          <cc:Agent>
            <dc:title>Illustrator: İrem Göçmez 
Basic digitisation: Mehmet Turgut
Final work and metadata: Néhémie Strupler</dc:title>
          </cc:Agent>
        </dc:contributor>
        <dc:subject>
          <rdf:Bag>
            <rdf:li>Archaeology</rdf:li>
            <rdf:li>Pottery</rdf:li>
            <rdf:li>Drawing</rdf:li>
            <rdf:li>BoKeWTer</rdf:li>
            <rdf:li>Westterrasse</rdf:li>
            <rdf:li>Boğazköy</rdf:li>
            <rdf:li>Bogazkoy</rdf:li>
            <rdf:li>Hattusa</rdf:li>
            <rdf:li>Hittites</rdf:li>
            <rdf:li>Late Bronze Age</rdf:li>
            <rdf:li>Turkey</rdf:li>
          </rdf:Bag>
        </dc:subject>
        <dc:date>2016-11-08</dc:date>
        <dc:rights>
          <cc:Agent>
            <dc:title>Néhémie Strupler</dc:title>
          </cc:Agent>
        </dc:rights>
        <dc:relation />
      </cc:Work>
      <cc:License
         rdf:about="http://creativecommons.org/licenses/by/3.0/">
        <cc:permits
           rdf:resource="http://creativecommons.org/ns#Reproduction" />
        <cc:permits
           rdf:resource="http://creativecommons.org/ns#Distribution" />
        <cc:requires
           rdf:resource="http://creativecommons.org/ns#Notice" />
        <cc:requires
           rdf:resource="http://creativecommons.org/ns#Attribution" />
        <cc:permits
           rdf:resource="http://creativecommons.org/ns#DerivativeWorks" />
      </cc:License>
    </rdf:RDF>
  </metadata>
  <g
     inkscape:groupmode="layer"
     id="layer17"
     inkscape:label="scale"
     transform="translate(237.48419,-63.623365)">
    <g
       style="display:inline"
       id="g3705"
       transform="matrix(1.244841,0,0,1.3514373,-1311.5595,-1216.0582)">
      <g
         id="g5680">
        <g
           style="display:inline;stroke-width:0.96372944;stroke-miterlimit:4;stroke-dasharray:none"
           id="g3676"
           transform="translate(0,2.0000001)">
          <rect
             x="1230.9233"
             y="1090.9103"
             width="283.53973"
             height="13.916063"
             id="rect3757-68"
             style="display:inline;fill:none;stroke:#000000;stroke-width:0.96372944;stroke-miterlimit:4;stroke-dasharray:none" />
          <rect
             x="1230.7921"
             y="1097.8679"
             width="28.34347"
             height="6.9582772"
             id="rect3759-1"
             style="display:inline;fill:none;stroke:#000000;stroke-width:0.96372944;stroke-miterlimit:4;stroke-dasharray:none" />
          <rect
             x="1259.1566"
             y="1097.8684"
             width="28.34347"
             height="6.9582772"
             id="rect3761-59"
             style="display:inline;stroke:#000000;stroke-width:0.96372944;stroke-miterlimit:4;stroke-dasharray:none" />
          <rect
             x="1287.52"
             y="1097.865"
             width="28.344469"
             height="6.9582772"
             id="rect3763-46"
             style="display:inline;fill:none;stroke:#000000;stroke-width:0.96372944;stroke-miterlimit:4;stroke-dasharray:none" />
          <rect
             x="1315.8845"
             y="1097.8684"
             width="28.344469"
             height="6.9582772"
             id="rect3765-3"
             style="display:inline;stroke:#000000;stroke-width:0.96372944;stroke-miterlimit:4;stroke-dasharray:none" />
          <rect
             x="1344.249"
             y="1097.8684"
             width="28.34347"
             height="6.9582772"
             id="rect3767-4"
             style="display:inline;fill:none;stroke:#000000;stroke-width:0.96372944;stroke-miterlimit:4;stroke-dasharray:none" />
          <rect
             x="1372.6125"
             y="1097.865"
             width="141.71834"
             height="6.9577866"
             id="rect3769-0"
             style="display:inline;stroke:#000000;stroke-width:0.96372944;stroke-miterlimit:4;stroke-dasharray:none" />
          <rect
             x="1230.7921"
             y="1090.8317"
             width="28.34347"
             height="6.9582772"
             id="rect3771-4"
             style="display:inline;stroke:#000000;stroke-width:0.96372944;stroke-miterlimit:4;stroke-dasharray:none" />
          <rect
             x="1259.1566"
             y="1090.8322"
             width="28.34347"
             height="6.9582772"
             id="rect3773-0"
             style="display:inline;fill:none;stroke:#000000;stroke-width:0.96372944;stroke-miterlimit:4;stroke-dasharray:none" />
          <rect
             x="1287.52"
             y="1090.8287"
             width="28.345469"
             height="6.9582772"
             id="rect3775-6"
             style="display:inline;stroke:#000000;stroke-width:0.96372944;stroke-miterlimit:4;stroke-dasharray:none" />
          <rect
             x="1315.8845"
             y="1090.8322"
             width="28.344469"
             height="6.9582772"
             id="rect3777-7"
             style="display:inline;fill:none;stroke:#000000;stroke-width:0.96372944;stroke-miterlimit:4;stroke-dasharray:none" />
          <rect
             x="1344.249"
             y="1090.8322"
             width="28.34347"
             height="6.9582772"
             id="rect3779-1"
             style="display:inline;stroke:#000000;stroke-width:0.96372944;stroke-miterlimit:4;stroke-dasharray:none" />
          <rect
             x="1372.6125"
             y="1090.8287"
             width="141.71935"
             height="6.9577866"
             id="rect3781-5"
             style="display:inline;fill:none;stroke:#000000;stroke-width:0.96372944;stroke-miterlimit:4;stroke-dasharray:none" />
        </g>
        <g
           transform="translate(-4.8075526,-102.46773)"
           id="g3755-2"
           style="display:inline">
          <g
             id="g3304-2">
            <g
               id="g3671">
              <text
                 y="1191.0444"
                 x="1234.5"
                 font-size="12"
                 id="text3783-2"
                 style="font-style:normal;font-variant:normal;font-weight:normal;font-stretch:normal;font-size:13px;font-family:'Gentium Book Basic';-inkscape-font-specification:'Gentium Book Basic'">0</text>
              <text
                 y="1191.0063"
                 x="1373.5"
                 font-size="12"
                 id="text3785-4"
                 style="font-style:normal;font-variant:normal;font-weight:normal;font-stretch:normal;font-size:13px;font-family:'Gentium Book Basic';-inkscape-font-specification:'Gentium Book Basic'">5</text>
              <text
                 y="1191.0762"
                 x="1487.5"
                 font-size="12"
                 id="text3787-8"
                 style="font-style:normal;font-variant:normal;font-weight:normal;font-stretch:normal;font-size:13px;font-family:'Gentium Book Basic';-inkscape-font-specification:'Gentium Book Basic'">10 cm</text>
            </g>
          </g>
          <g
             inkscape:groupmode="layer"
             id="layer7"
             inkscape:label="scale"
             style="display:inline" />
          <text
             xml:space="preserve"
             style="font-style:normal;font-weight:normal;font-size:12px;line-height:125%;font-family:Sans;letter-spacing:0px;word-spacing:0px;fill:#000000;fill-opacity:1;stroke:none"
             x="2077.3782"
             y="1590.157"
             id="text3215-1"
             sodipodi:linespacing="125%"
             transform="translate(3.0762894,36.91539)"><tspan
               sodipodi:role="line"
               id="tspan3217-7"
               x="2077.3782"
               y="1590.157" /></text>
        </g>
      </g>
    </g>
  </g>
  <g
     inkscape:label="Layer 1"
     inkscape:groupmode="layer"
     id="layer1"
     transform="translate(237.48419,-63.623368)">
    <path
       id="path9"
       d="m 875.53102,155.27001 c 19.73707,-9.56818 48.99914,-10.79754 65.20942,-23.91791 17.72539,-14.351 17.8689,-40.73652 36.80333,-55.18404 9.16559,-6.99389 17.89684,-14.76248 30.73273,-6.63067 1.3221,0.94996 2.3495,2.24917 3.0836,3.89382 1.0172,4.69392 -3.8278,16.63954 -10.4382,29.73705 -8.57247,16.98498 -20.86353,45.11421 -38.75021,52.959 -21.48332,9.42086 -43.12793,17.03324 -65.02019,25.37206 -10.02411,3.81889 -30.93339,11.66876 -30.93339,11.66876 l -51.59502,21.59 -10.63625,-29.68625 6.50875,-3.96875 19.84375,-8.41375 37.62375,-14.605 c 0,0 3.51028,-0.84709 7.56793,-2.81432 z"
       style="clip-rule:evenodd;fill-rule:evenodd;stroke:#000000;stroke-width:1.26999998;stroke-miterlimit:3.86369991"
       inkscape:connector-curvature="0" />
    <path
       id="path11"
       d="m -225.08781,64.25292 c -2.71653,0.35814 -5.47751,1.39319 -8.53567,3.32994 -1.31953,0.94996 -2.34696,2.24917 -3.08102,3.89382 -1.01727,4.69392 3.82524,16.63954 10.43559,29.73705 8.5725,16.98498 20.8661,45.11421 38.75278,52.959 21.48078,9.42086 43.12793,17.03324 65.01765,25.37206 10.02665,3.81889 30.93593,11.66876 30.93593,11.66876 l 51.53152,21.56333"
       style="clip-rule:evenodd;fill:none;fill-rule:evenodd;stroke:#000000;stroke-width:1.26999998;stroke-miterlimit:3.86369991"
       inkscape:connector-curvature="0" />
    <line
       id="line23"
       y2="64.263077"
       x2="-225.18941"
       y1="64.263077"
       x1="987.97809"
       style="clip-rule:evenodd;fill:none;fill-rule:evenodd;stroke:#000000;stroke-width:1.26999998;stroke-miterlimit:3.86369991" />
    <line
       id="line25"
       y2="216.12714"
       x2="398.1037"
       y1="63.727142"
       x1="398.1037"
       style="clip-rule:evenodd;fill:none;fill-rule:evenodd;stroke:#000000;stroke-width:1.26999998;stroke-miterlimit:3.86369991" />
    <line
       id="line27"
       y2="218.09183"
       x2="-27.426287"
       y1="213.84496"
       x1="-37.705662"
       style="clip-rule:evenodd;fill:none;fill-rule:evenodd;stroke:#000000;stroke-width:1.26999998;stroke-miterlimit:3.86369991" />
    <line
       id="line29"
       y2="190.67889"
       x2="789.39703"
       y1="186.43202"
       x1="799.67639"
       style="clip-rule:evenodd;fill:none;fill-rule:evenodd;stroke:#000000;stroke-width:1.26999998;stroke-miterlimit:3.86369991" />
    <line
       id="line31"
       y2="221.47511"
       x2="799.88214"
       y1="217.22824"
       x1="810.16168"
       style="clip-rule:evenodd;fill:none;fill-rule:evenodd;stroke:#000000;stroke-width:1.26999998;stroke-miterlimit:3.86369991" />
  </g>
  <style
     id="style5430"
     type="text/css">

@font-face{font-family:'ArialMT';src:url(&quot;data:;base64,\
T1RUTwADACAAAQAQQ0ZGIOJhRYsAAACgAAAEdkdQT1Ov/L6JAAAFGAAAAFpjbWFwATIBOQAAADwA\
AABkAAAAAQAAAAMAAAAMAAQAWAAAABIAEAADAAIAIAAtADEAMwA1ADcAQgBQ//8AAAAgAC0AMQAz\
ADUANwBCAE/////h/9X/0v/R/9D/z//F/7kAAQAAAAAAAAAAAAAAAAAAAAAAAAEABAIAAQEBCEFy\
aWFsTVQAAQEBO/gbAfgYBPgcDBUc+q/9LRwQABwIDAUeoABIgoEl/4uLHqAASIKBJf+LiwwH9ykP\
9zwQ9z4RkxwEbhIAAgEBMj9BcmlhbCBpcyBhIHRyYWRlbWFyayBvZiBUaGUgTW9ub3R5cGUgQ29y\
cG9yYXRpb24uL0ZTVHlwZSA4IGRlZgAAAAABAA4AEgAUABYAGAAjADAAMQAAAAoCAAEAGwAeACwA\
VgEVAZoB4AKXA0sDrMr3lBYcBQD6lBz7AAf+dKsV+lQcBMD+VAYO/hwO/avM+EwV90n4vftJBw75\
jxb7SBwEewZgYlJhRWJEYkxsU3YI90IH8LrjxdbO1s7BzarKCPcIBg7h+BcV90ijoCWuQr1eGV68\
yHTSG+DSqMbGH8XGqNPiGt5wz1XBHsBVRqY4G2lhhH5YH5/3MgWKl5WKkhvY0J+zyB/Is6rJ3hrN\
dcJeth62XlKhRBtFUXVfXB9cX21JfjP7SKsYofcNvejZzgjN2eys9wgb29V6ac4fzmi/XK9QCK5Q\
nUxIGkx6UWlXHmlXWWJIbOJ3zmK7TAi7TKM8LBr7FFz7AC4yHjIu+wpe+yMb+xUhsdg2HzbYWu5/\
9w4IDuD4FBX3UZuZL6xGvl0ZXL7IdNMb4tSszMcfx8yp4vcAGvJu3FLGHsZRP6kuG1FXfnFcH1xw\
Z2lwYfs9oRj3IvmFBflt+0D83QY8/B4FyOPnquwb9xT3AF8y4x/jMrf7BvsfGvsZZPsGPioe+wst\
+xRQ+zcb+xn7AbDWNx821lvuf/cPCA7sHAT6FfdB+kn7IAcuKC77GDD7OS/7OUT7PVn7Qmf7D3T7\
GoH7Jgj7TQaN9wei9yC29ze29zfK9zLc9yzc9yvh9xTm8wgOIPcqFhwFuvi6B/cE5Xxuzx/ObcBd\
sk4IsU2eSkgaTHpQaVQeaVRYXkZp5HHPX7tMCLpMo0E2GkZ9TG5QHm5QZ11ga2BrVnNLewh6SjyD\
Lhv8AfnmFffRBuHJkZawH7yasaOkrQikrZe2vhq8f7Z0sB50sGmkYJkImGBAkiIb+7kG/vQE+AEG\
yreNkKQfuJOwmKmeqZ6kpp6vCJ6ulbS6GsJ9um+0Hm+zZKdanAibWUOTLhv75wYO9wzu+V4V94fM\
91P3F/ceHvcd9xf3PND3Yxv3G/cOa0r3AR/3AUreMcT7BwjE+win+xf7Jxr7KW37GU/7CR5P+wk2\
MvsCTwhO+wL7C237Exv7HvsPrM77AR/7Ac455lP3BwhT9wdv9w73FRr3XIgV+0W7+x/qJh4l6vcL\
WPcjG/cm9wy+8uof6fK69yX3URr3C3f0Y+QeYuRQ0D68CLw9NKMqG/sd+wpcLSgfKCxZ+zH7cRoO\
IPcyFhwFuvi9B+zWhoK+H9N/x3S8arxpslypTgioTppJQhr7EWMiPDUeNDz7JGD7Yxv8DPzoBvmV\
BPgPBvcR5KK6wB/AuqXM4BrIfMBstx5stmKoWJkIlGpPjzMb/AsGDhwEcxQcBcEVAAAAAQAAAAoA\
HgAsAAFERkxUAAgABAAAAAD//wABAAAAAWtlcm4ACAAAAAEAAAABAAQAAgAAAAEACAABABoABAAA\
AAIADgAUAAEAA/9oAAEAAf/bAAEAAgADAAkAAA==&quot;)}

</style>
  <style
     id="style6533"
     type="text/css">

@font-face{font-family:'ArialMT';src:url(&quot;data:;base64,\
T1RUTwADACAAAQAQQ0ZGIOHrJ9IAAACwAAAHv0dQT1OvQL7DAAAIcAAAAGRjbWFwAdcB2gAAADwA\
AAB0AAAAAQAAAAMAAAAMAAQAaAAAABYAEAADAAYAIAAtADIAOAA6AEIATwBSAGMAbf//AAAAIAAs\
ADEANQA6AEEATwBSAGMAbf///+H/1v/T/9H/0P/K/77/vP+s/6MAAQAAAAAAAAAAAAAAAAAAAAAA\
AAAAAAABAAQCAAEBAQhBcmlhbE1UAAEBATv4GwH4GAT4HAwVHPqv/S0cEAAcCAwFHqAASIKBJf+L\
ix6gAEiCgSX/i4sMB/cpD/dIEPdKEZIcB7gSAAIBATI/QXJpYWwgaXMgYSB0cmFkZW1hcmsgb2Yg\
VGhlIE1vbm90eXBlIENvcnBvcmF0aW9uLi9GU1R5cGUgOCBkZWYAAAEAAQAADQEAEgEAFgMAGwAA\
IgEAMAAAMwAARAAATgAAAAARAgABABwAHgBGAFMAfQEHAYwCVAKaA3oDlAPTBIsFPwXMBk8G3Pnw\
95QWHAUA+pQc+wAH/nSrFfpUHATA/lQGDiAOIPdKFvdh92H7YQdAfk5wXR5wXGFnUXJZ2BixnKej\
naydq5W5jcgIDpHM+EwV90n4vftJBw75jxb7SBwEewZgYlJhRWJEYkxsU3YI90IH8LrjxdbO1s7B\
zarKCPcIBg76m/dBFftB/l0HiraStZqzpM2yzMLLwcvZ1fLf9zP3F/cA8sPYCMPXp9PPGtJyyFi8\
HrxYSKM5GzRGcVdXH1dXcUOKL/tNnhiY9x669N7UCNPe9wOv9x8b9yH3A2Q93R/dPbQq+wcaUH9S\
c1Iec1JjUFRMU0wuNfsV+wH7ADBGTmxrbGpya3dqCA7g+BQV91GbmS+sRr5dGVy+yHTTG+LUrMzH\
H8fMqeL3ABrybtxSxh7GUT+pLhtRV35xXB9ccGdpcGH7PaEY9yL5hQX5bftA/N0GPPweBcjj56rs\
G/cU9wBfMuMf4zK3+wb7Hxr7GWT7Bj4qHvsLLfsUUPs3G/sZ+wGw1jcfNtZb7n/3DwgO+o/65xX7\
R3170nS+bqsZvlpPpUQbUlh7a2AfUmJfTmo8ajx6+wWK+ye2zcC8yqsIq8rMm9Ab9wzxXzPgH98y\
tfsG+yAaL3c2ZDweYzxUTkZhCGFGPHYzG/sq+w7C9wMsHyz3Alz3SveRGvevv/di9PcVHvcE5vcP\
w/cvG/cH6mtK1R/USrcymvsGCP1z/QwVTZhQplIepVKwYLpuCG26vXy/G9fMqsjCH8LIpt/0GvBw\
21XGHsVVR6g5GzpGblFSH1JQbz8sGg7sHAT6FfdB+kn7IAcuKC77GDD7OS/7OUT7PVn7Qmf7D3T7\
GoH7Jgj7TQaN9wei9yC29ze29zfK9zLc9yzc9yvh9xTm8wgO9/75rxVAplSyZ74IZ755x9Ia9rHk\
2NQe1Njxr/cTG/cU8mZB2R/ZQLIxIBpHeVBoWR5nWFVkQnDlbtBbukoIukqiPTAa+xFfITI2HjYy\
+whg+yUb+yX7CLbhMh8y4F/29xQa6qPbvMweu8vQt+SiCGf3xRVGoVK4Xx5fuMV10hvQxKG3uB+3\
tqHByhrNdMNeuB64XVKhRxtGUnVfXh9eX3RWThpR/TkVWJdZpFseo1uvZrtxCHC7v37CG+HSp8LD\
H8PCp9LgGuJu0lLEHsRRQ6c0GzZFb1NUH1NTb0U3Gg4g90357RX3Yfdh+2EH+2H97RX3Yfdh+2EH\
DvlGiBb4xxwFugX3ZQb47Bz6RgX7cQb7P/hQBfz5Bvs1/FAF92347hX4hQb7LfgqXPcPafF02hl4\
LXEuaS4IDvlG9yoWHAW6+LoH9wTlfG7PH85twF2yTgixTZ5KSBpMelBpVB5pVFheRmnkcc9fu0wI\
ukyjQTYaRn1MblAeblBnXWBrYGtWc0t7CHpKPIMuG/wB+eYV99EG4cmRlrAfvJqxo6StCKStl7a+\
Grx/tnSwHnSwaaRgmQiYYECSIhv7uQb+9AT4AQbKt42QpB+4k7CYqZ6pnqSmnq8Inq6VtLoawn26\
b7Qeb7Nkp1qcCJtZQ5MuG/vnBg76Ke75XhX3h8z3U/cX9x4e9x33F/c80PdjG/cb9w5rSvcBH/cB\
St4xxPsHCMT7CKf7F/snGvspbfsZT/sJHk/7CTYy+wJPCE77AvsLbfsTG/se+w+szvsBH/sBzjnm\
U/cHCFP3B2/3DvcVGvdciBX7Rbv7H+omHiXq9wtY9yMb9yb3DL7y6h/p8rr3JfdRGvcLd/Rj5B5i\
5FDQPrwIvD00oyob+x37ClwtKB8oLFn7MftxGg75t/c1FhwFuvkeB/cX7n5xzx/PcMFdtEgItEif\
QjoaI2kzSEQeSEQjXfsheL5ysnOmc8RXwEq+PfeT/CMY+4gG+1b3xVLjXc5muhlmumurbp5unm2Y\
bZIIkHVnjVkb+3X9Hwb5xwT4NQbk0JSevR+9nbGopbQIpbOYt7oa0HLEWbgeuFg8ofsBG/xkBg73\
8PnQ+BkV90V0ePsOWSw8RhlGOylo+wgb+yX7CbvqMx8y6l/3HPdFGvcHnu+x4R6x4cXM2bYIttjg\
oOYb9wfqblHUH9RQujigIPtDcBh60m7BYa8Ir2BYnU8bMEJrSlIfUkpvJPshGvsjpiTCSh5KwtJr\
4xvSxqG2uh+6tqnOmOUIDvqa9xsW+rr3NfspB6y/uLXCqwiqwsqb0hvay3tqvh+9aq5eoFAI9xDf\
9wHJ9xsb9NxuUcQfxFCnMfsNGv1t+0f5MQfThb+Aqx5/qnalbJ4InmxnlWIbQE1yWlofWllyO/sB\
Gvz9+0j5RgfbfMdusx6zblufSBtYXX5wYB9gcGtkeFgIeFiBQSoa/LsHDhwEcxT5OBUAAAEAAAAK\
AB4ALAABREZMVAAIAAQAAAAA//8AAQAAAAFrZXJuAAgAAAABAAAAAQAEAAIAAAABAAgAAQAiAAQA\
AAADABAAFgAcAAEAC/+PAAEABP9oAAEAAf+PAAEAAwABAAQACw==&quot;)}

</style>
</svg>
