<?xml version="1.0" encoding="UTF-8"?>
<!DOCTYPE svg PUBLIC "-//W3C//DTD SVG 1.1//EN" "http://www.w3.org/Graphics/SVG/1.1/DTD/svg11.dtd">
<svg version="1.2" width="170mm" height="60mm" viewBox="0 0 17000 6000" preserveAspectRatio="xMidYMid" fill-rule="evenodd" stroke-width="28.222" stroke-linejoin="round" xmlns="http://www.w3.org/2000/svg" xmlns:ooo="http://xml.openoffice.org/svg/export" xmlns:xlink="http://www.w3.org/1999/xlink" xmlns:presentation="http://sun.com/xmlns/staroffice/presentation" xmlns:smil="http://www.w3.org/2001/SMIL20/" xmlns:anim="urn:oasis:names:tc:opendocument:xmlns:animation:1.0" xml:space="preserve">
 <defs class="ClipPathGroup">
  <clipPath id="presentation_clip_path" clipPathUnits="userSpaceOnUse">
   <rect x="0" y="0" width="17000" height="6000"/>
  </clipPath>
  <clipPath id="presentation_clip_path_shrink" clipPathUnits="userSpaceOnUse">
   <rect x="17" y="6" width="16966" height="5988"/>
  </clipPath>
 </defs>
 <defs>
  <font id="EmbeddedFont_1" horiz-adv-x="2048">
   <font-face font-family="Liberation Sans embedded" units-per-em="2048" font-weight="normal" font-style="normal" ascent="1852" descent="423"/>
   <missing-glyph horiz-adv-x="2048" d="M 0,0 L 2047,0 2047,2047 0,2047 0,0 Z"/>
   <glyph unicode="é" horiz-adv-x="980" d="M 276,503 C 276,379 302,283 353,216 404,149 479,115 578,115 656,115 719,131 766,162 813,193 844,233 861,281 L 1019,236 C 954,65 807,-20 578,-20 418,-20 296,28 213,123 129,218 87,360 87,548 87,727 129,864 213,959 296,1054 416,1102 571,1102 889,1102 1048,910 1048,527 L 1048,503 276,503 Z M 862,641 C 852,755 823,838 775,891 727,943 658,969 568,969 481,969 412,940 361,882 310,823 282,743 278,641 L 862,641 Z M 440,1201 L 440,1221 657,1508 864,1508 864,1479 534,1201 440,1201 Z"/>
   <glyph unicode="x" horiz-adv-x="1006" d="M 801,0 L 510,444 217,0 23,0 408,556 41,1082 240,1082 510,661 778,1082 979,1082 612,558 1002,0 801,0 Z"/>
   <glyph unicode="v" horiz-adv-x="1033" d="M 613,0 L 400,0 7,1082 199,1082 437,378 C 446,351 469,272 506,141 L 541,258 580,376 826,1082 1017,1082 613,0 Z"/>
   <glyph unicode="u" horiz-adv-x="874" d="M 314,1082 L 314,396 C 314,325 321,269 335,230 349,191 371,162 402,145 433,128 478,119 537,119 624,119 692,149 742,208 792,267 817,350 817,455 L 817,1082 997,1082 997,231 C 997,105 999,28 1003,0 L 833,0 C 832,3 832,12 831,27 830,42 830,59 829,78 828,97 826,132 825,185 L 822,185 C 781,110 733,58 679,27 624,-4 557,-20 476,-20 357,-20 271,10 216,69 161,128 133,225 133,361 L 133,1082 314,1082 Z"/>
   <glyph unicode="t" horiz-adv-x="531" d="M 554,8 C 495,-8 434,-16 372,-16 228,-16 156,66 156,229 L 156,951 31,951 31,1082 163,1082 216,1324 336,1324 336,1082 536,1082 536,951 336,951 336,268 C 336,216 345,180 362,159 379,138 408,127 450,127 474,127 509,132 554,141 L 554,8 Z"/>
   <glyph unicode="s" horiz-adv-x="901" d="M 950,299 C 950,197 912,118 835,63 758,8 650,-20 511,-20 376,-20 273,2 200,47 127,91 79,160 57,254 L 216,285 C 231,227 263,185 311,158 359,131 426,117 511,117 602,117 669,131 712,159 754,187 775,229 775,285 775,328 760,362 731,389 702,416 654,438 589,455 L 460,489 C 357,516 283,542 240,568 196,593 162,624 137,661 112,698 100,743 100,796 100,895 135,970 206,1022 276,1073 378,1099 513,1099 632,1099 727,1078 798,1036 868,994 912,927 931,834 L 769,814 C 759,862 732,899 689,925 645,950 586,963 513,963 432,963 372,951 333,926 294,901 275,864 275,814 275,783 283,758 299,738 315,718 339,701 370,687 401,673 467,654 568,629 663,605 732,583 774,563 816,542 849,520 874,495 898,470 917,442 930,410 943,377 950,340 950,299 Z"/>
   <glyph unicode="r" horiz-adv-x="530" d="M 142,0 L 142,830 C 142,906 140,990 136,1082 L 306,1082 C 311,959 314,886 314,861 L 318,861 C 347,954 380,1017 417,1051 454,1085 507,1102 575,1102 599,1102 623,1099 648,1092 L 648,927 C 624,934 592,937 552,937 477,937 420,905 381,841 342,776 322,684 322,564 L 322,0 142,0 Z"/>
   <glyph unicode="p" horiz-adv-x="953" d="M 1053,546 C 1053,169 920,-20 655,-20 488,-20 376,43 319,168 L 314,168 C 317,163 318,106 318,-2 L 318,-425 138,-425 138,861 C 138,972 136,1046 132,1082 L 306,1082 C 307,1079 308,1070 309,1054 310,1037 312,1012 314,978 315,944 316,921 316,908 L 320,908 C 352,975 394,1024 447,1055 500,1086 569,1101 655,1101 788,1101 888,1056 954,967 1020,878 1053,737 1053,546 Z M 864,542 C 864,693 844,800 803,865 762,930 698,962 609,962 538,962 482,947 442,917 401,887 371,840 350,777 329,713 318,630 318,528 318,386 341,281 386,214 431,147 505,113 607,113 696,113 762,146 803,212 844,277 864,387 864,542 Z"/>
   <glyph unicode="o" horiz-adv-x="980" d="M 1053,542 C 1053,353 1011,212 928,119 845,26 724,-20 565,-20 407,-20 288,28 207,125 126,221 86,360 86,542 86,915 248,1102 571,1102 736,1102 858,1057 936,966 1014,875 1053,733 1053,542 Z M 864,542 C 864,691 842,800 798,868 753,935 679,969 574,969 469,969 393,935 346,866 299,797 275,689 275,542 275,399 298,292 345,221 391,149 464,113 563,113 671,113 748,148 795,217 841,286 864,395 864,542 Z"/>
   <glyph unicode="n" horiz-adv-x="874" d="M 825,0 L 825,686 C 825,757 818,813 804,852 790,891 768,920 737,937 706,954 661,963 602,963 515,963 447,933 397,874 347,815 322,732 322,627 L 322,0 142,0 142,851 C 142,977 140,1054 136,1082 L 306,1082 C 307,1079 307,1070 308,1055 309,1040 310,1024 311,1005 312,986 313,950 314,897 L 317,897 C 358,972 406,1025 461,1056 515,1087 582,1102 663,1102 782,1102 869,1073 924,1014 979,955 1006,857 1006,721 L 1006,0 825,0 Z"/>
   <glyph unicode="m" horiz-adv-x="1457" d="M 768,0 L 768,686 C 768,791 754,863 725,903 696,943 645,963 570,963 493,963 433,934 388,875 343,816 321,734 321,627 L 321,0 142,0 142,851 C 142,977 140,1054 136,1082 L 306,1082 C 307,1079 307,1070 308,1055 309,1040 310,1024 311,1005 312,986 313,950 314,897 L 317,897 C 356,974 400,1027 450,1057 500,1087 561,1102 633,1102 715,1102 780,1086 828,1053 875,1020 908,968 927,897 L 930,897 C 967,970 1013,1022 1066,1054 1119,1086 1183,1102 1258,1102 1367,1102 1447,1072 1497,1013 1546,954 1571,856 1571,721 L 1571,0 1393,0 1393,686 C 1393,791 1379,863 1350,903 1321,943 1270,963 1195,963 1116,963 1055,934 1012,876 968,817 946,734 946,627 L 946,0 768,0 Z"/>
   <glyph unicode="l" horiz-adv-x="187" d="M 138,0 L 138,1484 318,1484 318,0 138,0 Z"/>
   <glyph unicode="i" horiz-adv-x="187" d="M 137,1312 L 137,1484 317,1484 317,1312 137,1312 Z M 137,0 L 137,1082 317,1082 317,0 137,0 Z"/>
   <glyph unicode="g" horiz-adv-x="927" d="M 548,-425 C 430,-425 336,-402 266,-356 196,-309 151,-243 131,-158 L 312,-132 C 324,-182 351,-220 392,-248 433,-274 486,-288 553,-288 732,-288 822,-183 822,27 L 822,201 820,201 C 786,132 739,80 680,45 621,10 551,-8 472,-8 339,-8 242,36 180,124 117,212 86,350 86,539 86,730 120,872 187,963 254,1054 355,1099 492,1099 569,1099 635,1082 692,1047 748,1012 791,962 822,897 L 824,897 C 824,917 825,952 828,1001 831,1050 833,1077 836,1082 L 1007,1082 C 1003,1046 1001,971 1001,858 L 1001,31 C 1001,-273 850,-425 548,-425 Z M 822,541 C 822,629 810,705 786,769 762,832 728,881 685,915 641,948 591,965 536,965 444,965 377,932 335,865 293,798 272,690 272,541 272,393 292,287 331,222 370,157 438,125 533,125 590,125 640,142 684,175 728,208 762,256 786,319 810,381 822,455 822,541 Z"/>
   <glyph unicode="e" horiz-adv-x="980" d="M 276,503 C 276,379 302,283 353,216 404,149 479,115 578,115 656,115 719,131 766,162 813,193 844,233 861,281 L 1019,236 C 954,65 807,-20 578,-20 418,-20 296,28 213,123 129,218 87,360 87,548 87,727 129,864 213,959 296,1054 416,1102 571,1102 889,1102 1048,910 1048,527 L 1048,503 276,503 Z M 862,641 C 852,755 823,838 775,891 727,943 658,969 568,969 481,969 412,940 361,882 310,823 282,743 278,641 L 862,641 Z"/>
   <glyph unicode="d" horiz-adv-x="927" d="M 821,174 C 788,105 744,55 689,25 634,-5 565,-20 484,-20 347,-20 247,26 183,118 118,210 86,349 86,536 86,913 219,1102 484,1102 566,1102 634,1087 689,1057 744,1027 788,979 821,914 L 823,914 821,1035 821,1484 1001,1484 1001,223 C 1001,110 1003,36 1007,0 L 835,0 C 833,11 831,35 829,74 826,113 825,146 825,174 L 821,174 Z M 275,542 C 275,391 295,282 335,217 375,152 440,119 530,119 632,119 706,154 752,225 798,296 821,405 821,554 821,697 798,802 752,869 706,936 633,969 532,969 441,969 376,936 336,869 295,802 275,693 275,542 Z"/>
   <glyph unicode="c" horiz-adv-x="901" d="M 275,546 C 275,402 298,295 343,226 388,157 457,122 548,122 612,122 666,139 709,174 752,209 778,262 788,334 L 970,322 C 956,218 912,135 837,73 762,11 668,-20 553,-20 402,-20 286,28 207,124 127,219 87,359 87,542 87,724 127,863 207,959 287,1054 402,1102 551,1102 662,1102 754,1073 827,1016 900,959 945,880 964,779 L 779,765 C 770,825 746,873 708,908 670,943 616,961 546,961 451,961 382,929 339,866 296,803 275,696 275,546 Z"/>
   <glyph unicode="a" horiz-adv-x="1060" d="M 414,-20 C 305,-20 224,9 169,66 114,123 87,202 87,302 87,414 124,500 198,560 271,620 390,652 554,656 L 797,660 797,719 C 797,807 778,870 741,908 704,946 645,965 565,965 484,965 426,951 389,924 352,897 330,853 323,793 L 135,810 C 166,1005 310,1102 569,1102 705,1102 807,1071 876,1009 945,946 979,856 979,738 L 979,272 C 979,219 986,179 1000,152 1014,125 1041,111 1080,111 1097,111 1117,113 1139,118 L 1139,6 C 1094,-5 1047,-10 1000,-10 933,-10 885,8 855,43 824,78 807,132 803,207 L 797,207 C 751,124 698,66 637,32 576,-3 501,-20 414,-20 Z M 455,115 C 521,115 580,130 631,160 682,190 723,231 753,284 782,336 797,390 797,445 L 797,534 600,530 C 515,529 451,520 408,504 364,488 330,463 307,430 284,397 272,353 272,299 272,240 288,195 320,163 351,131 396,115 455,115 Z"/>
   <glyph unicode="O" horiz-adv-x="1430" d="M 1495,711 C 1495,564 1467,435 1411,324 1354,213 1273,128 1168,69 1063,10 938,-20 795,-20 650,-20 526,9 421,68 316,127 235,212 180,323 125,434 97,563 97,711 97,936 159,1113 282,1240 405,1367 577,1430 797,1430 940,1430 1065,1402 1170,1345 1275,1288 1356,1205 1412,1096 1467,987 1495,859 1495,711 Z M 1300,711 C 1300,886 1256,1024 1169,1124 1081,1224 957,1274 797,1274 636,1274 511,1225 423,1126 335,1027 291,889 291,711 291,534 336,394 425,291 514,187 637,135 795,135 958,135 1083,185 1170,286 1257,386 1300,528 1300,711 Z"/>
   <glyph unicode="I" horiz-adv-x="213" d="M 189,0 L 189,1409 380,1409 380,0 189,0 Z"/>
   <glyph unicode="D" horiz-adv-x="1218" d="M 1381,719 C 1381,574 1353,447 1296,338 1239,229 1159,145 1055,87 951,29 831,0 695,0 L 168,0 168,1409 634,1409 C 873,1409 1057,1349 1187,1230 1316,1110 1381,940 1381,719 Z M 1189,719 C 1189,894 1141,1027 1046,1119 950,1210 811,1256 630,1256 L 359,1256 359,153 673,153 C 776,153 867,176 946,221 1024,266 1084,332 1126,417 1168,502 1189,603 1189,719 Z"/>
   <glyph unicode="B" horiz-adv-x="1112" d="M 1258,397 C 1258,272 1212,174 1121,105 1030,35 903,0 740,0 L 168,0 168,1409 680,1409 C 1011,1409 1176,1295 1176,1067 1176,984 1153,914 1106,857 1059,800 993,762 908,743 1020,730 1106,692 1167,631 1228,569 1258,491 1258,397 Z M 984,1044 C 984,1120 958,1174 906,1207 854,1240 779,1256 680,1256 L 359,1256 359,810 680,810 C 782,810 858,829 909,868 959,906 984,965 984,1044 Z M 1065,412 C 1065,578 948,661 715,661 L 359,661 359,153 730,153 C 847,153 932,175 985,218 1038,261 1065,326 1065,412 Z"/>
   <glyph unicode=":" horiz-adv-x="213" d="M 187,875 L 187,1082 382,1082 382,875 187,875 Z M 187,0 L 187,207 382,207 382,0 187,0 Z"/>
   <glyph unicode="." horiz-adv-x="213" d="M 187,0 L 187,219 382,219 382,0 187,0 Z"/>
   <glyph unicode="-" horiz-adv-x="531" d="M 91,464 L 91,624 591,624 591,464 91,464 Z"/>
   <glyph unicode="+" horiz-adv-x="1033" d="M 671,608 L 671,180 524,180 524,608 100,608 100,754 524,754 524,1182 671,1182 671,754 1095,754 1095,608 671,608 Z"/>
   <glyph unicode=" " horiz-adv-x="556"/>
  </font>
 </defs>
 <defs class="TextShapeIndex">
  <g ooo:slide="id1" ooo:id-list="id3 id4 id5 id6 id7 id8 id9 id10 id11 id12"/>
 </defs>
 <defs class="EmbeddedBulletChars">
  <g id="bullet-char-template-57356" transform="scale(0.00048828125,-0.00048828125)">
   <path d="M 580,1141 L 1163,571 580,0 -4,571 580,1141 Z"/>
  </g>
  <g id="bullet-char-template-57354" transform="scale(0.00048828125,-0.00048828125)">
   <path d="M 8,1128 L 1137,1128 1137,0 8,0 8,1128 Z"/>
  </g>
  <g id="bullet-char-template-10146" transform="scale(0.00048828125,-0.00048828125)">
   <path d="M 174,0 L 602,739 174,1481 1456,739 174,0 Z M 1358,739 L 309,1346 659,739 1358,739 Z"/>
  </g>
  <g id="bullet-char-template-10132" transform="scale(0.00048828125,-0.00048828125)">
   <path d="M 2015,739 L 1276,0 717,0 1260,543 174,543 174,936 1260,936 717,1481 1274,1481 2015,739 Z"/>
  </g>
  <g id="bullet-char-template-10007" transform="scale(0.00048828125,-0.00048828125)">
   <path d="M 0,-2 C -7,14 -16,27 -25,37 L 356,567 C 262,823 215,952 215,954 215,979 228,992 255,992 264,992 276,990 289,987 310,991 331,999 354,1012 L 381,999 492,748 772,1049 836,1024 860,1049 C 881,1039 901,1025 922,1006 886,937 835,863 770,784 769,783 710,716 594,584 L 774,223 C 774,196 753,168 711,139 L 727,119 C 717,90 699,76 672,76 641,76 570,178 457,381 L 164,-76 C 142,-110 111,-127 72,-127 30,-127 9,-110 8,-76 1,-67 -2,-52 -2,-32 -2,-23 -1,-13 0,-2 Z"/>
  </g>
  <g id="bullet-char-template-10004" transform="scale(0.00048828125,-0.00048828125)">
   <path d="M 285,-33 C 182,-33 111,30 74,156 52,228 41,333 41,471 41,549 55,616 82,672 116,743 169,778 240,778 293,778 328,747 346,684 L 369,508 C 377,444 397,411 428,410 L 1163,1116 C 1174,1127 1196,1133 1229,1133 1271,1133 1292,1118 1292,1087 L 1292,965 C 1292,929 1282,901 1262,881 L 442,47 C 390,-6 338,-33 285,-33 Z"/>
  </g>
  <g id="bullet-char-template-9679" transform="scale(0.00048828125,-0.00048828125)">
   <path d="M 813,0 C 632,0 489,54 383,161 276,268 223,411 223,592 223,773 276,916 383,1023 489,1130 632,1184 813,1184 992,1184 1136,1130 1245,1023 1353,916 1407,772 1407,592 1407,412 1353,268 1245,161 1136,54 992,0 813,0 Z"/>
  </g>
  <g id="bullet-char-template-8226" transform="scale(0.00048828125,-0.00048828125)">
   <path d="M 346,457 C 273,457 209,483 155,535 101,586 74,649 74,723 74,796 101,859 155,911 209,963 273,989 346,989 419,989 480,963 531,910 582,859 608,796 608,723 608,648 583,586 532,535 482,483 420,457 346,457 Z"/>
  </g>
  <g id="bullet-char-template-8211" transform="scale(0.00048828125,-0.00048828125)">
   <path d="M -4,459 L 1135,459 1135,606 -4,606 -4,459 Z"/>
  </g>
  <g id="bullet-char-template-61548" transform="scale(0.00048828125,-0.00048828125)">
   <path d="M 173,740 C 173,903 231,1043 346,1159 462,1274 601,1332 765,1332 928,1332 1067,1274 1183,1159 1299,1043 1357,903 1357,740 1357,577 1299,437 1183,322 1067,206 928,148 765,148 601,148 462,206 346,322 231,437 173,577 173,740 Z"/>
  </g>
 </defs>
 <g>
  <g id="id2" class="Master_Slide">
   <g id="bg-id2" class="Background"/>
   <g id="bo-id2" class="BackgroundObjects"/>
  </g>
 </g>
 <g class="SlideGroup">
  <g>
   <g id="container-id1">
    <g id="id1" class="Slide" clip-path="url(#presentation_clip_path)">
     <g class="Page">
      <g class="com.sun.star.drawing.CustomShape">
       <g id="id3">
        <rect class="BoundingBox" stroke="none" fill="none" x="7504" y="1644" width="3737" height="2720"/>
        <path fill="rgb(255,255,255)" stroke="none" d="M 7519,2331 L 10298,2331 10298,1659 11225,3003 10298,4348 10298,3675 7519,3675 7519,2331 Z"/>
        <path fill="none" stroke="rgb(128,128,128)" stroke-width="30" stroke-linejoin="round" d="M 7519,2331 L 10298,2331 10298,1659 11225,3003 10298,4348 10298,3675 7519,3675 7519,2331 Z"/>
        <text class="TextShape"><tspan class="TextParagraph" font-family="Liberation Sans, sans-serif" font-size="423px" font-weight="400"><tspan class="TextPosition" x="8044" y="3151"><tspan fill="rgb(0,0,0)" stroke="none">compilateur</tspan></tspan></tspan></text>
       </g>
      </g>
      <g class="Group">
       <g class="com.sun.star.drawing.CustomShape">
        <g id="id4">
         <rect class="BoundingBox" stroke="none" fill="none" x="14623" y="191" width="2265" height="2791"/>
         <g style="opacity: 0.250980392156863">
          <image x="14823" y="391" width="2065" height="2591" preserveAspectRatio="none" xlink:href="data:image/png;base64,iVBORw0KGgoAAAANSUhEUgAAAE8AAABjCAYAAADaWl3LAAABR0lEQVR4nO3QIWqCAQCG4V/4byBGm5hXBQ+wtijY1nabhV3DJgzWbNbBmutjt1AW1oU3iPA86Ysf73g4HJ52u93LMAyTgavMZrOf7Xb7Ou73++fj8fh460P3Zjqd/o63PnGPlsvl5/l8nogXiBeIF4gXiBeIF4gXiBeIF4gXiBeIF4gXiBeIF4gXiBeIF4gXiBeIF4gXiBeIF4gXiBeIF4gXiBeIF4gXiBeIF4gXiBeIF4gXiBeIF4gXiBeIF4gXiBeIF4gXiBeIF4gXiBeIF4gXiBeIF4gXiBeIF4gXiBeIF4gXiBeIF4gXiBeIF4gXiBeIF4gXiBeIF4gXiBeIF4gXiBeIF4gXiBeIF4gXiBeIF4gXiBeIF4gXiBeIF4gXiBeIF4gXjPP5/PtvLBaLr1ufuRen0+lhvV6/j5vN5u0/INdbrVYfF4PoHoo5AXFFAAAAAElFTkSuQmCC"/>
         </g>
         <path fill="rgb(255,255,255)" stroke="none" d="M 15655,2766 L 14638,2766 14638,206 16672,206 16672,2766 15655,2766 Z"/>
         <path fill="none" stroke="rgb(128,128,128)" stroke-width="30" stroke-linejoin="round" d="M 15655,2766 L 14638,2766 14638,206 16672,206 16672,2766 15655,2766 Z"/>
         <text class="TextShape"><tspan class="TextParagraph" font-family="Liberation Sans, sans-serif" font-size="423px" font-weight="400"><tspan class="TextPosition" x="14840" y="1634"><tspan fill="rgb(0,0,0)" stroke="none">Ouvrage</tspan></tspan></tspan></text>
        </g>
       </g>
       <g class="com.sun.star.drawing.CustomShape">
        <g id="id5">
         <rect class="BoundingBox" stroke="none" fill="none" x="14623" y="3225" width="2265" height="2791"/>
         <g style="opacity: 0.250980392156863">
          <image x="14823" y="3425" width="2065" height="2591" preserveAspectRatio="none" xlink:href="data:image/png;base64,iVBORw0KGgoAAAANSUhEUgAAAE8AAABjCAYAAADaWl3LAAABR0lEQVR4nO3QIWqCAQCG4V/4byBGm5hXBQ+wtijY1nabhV3DJgzWbNbBmutjt1AW1oU3iPA86Ysf73g4HJ52u93LMAyTgavMZrOf7Xb7Ou73++fj8fh460P3Zjqd/o63PnGPlsvl5/l8nogXiBeIF4gXiBeIF4gXiBeIF4gXiBeIF4gXiBeIF4gXiBeIF4gXiBeIF4gXiBeIF4gXiBeIF4gXiBeIF4gXiBeIF4gXiBeIF4gXiBeIF4gXiBeIF4gXiBeIF4gXiBeIF4gXiBeIF4gXiBeIF4gXiBeIF4gXiBeIF4gXiBeIF4gXiBeIF4gXiBeIF4gXiBeIF4gXiBeIF4gXiBeIF4gXiBeIF4gXiBeIF4gXiBeIF4gXiBeIF4gXiBeIF4gXjPP5/PtvLBaLr1ufuRen0+lhvV6/j5vN5u0/INdbrVYfF4PoHoo5AXFFAAAAAElFTkSuQmCC"/>
         </g>
         <path fill="rgb(255,255,255)" stroke="none" d="M 14638,3240 L 16672,3240 16672,5800 14638,5800 14638,3240 14638,3240 Z"/>
         <path fill="none" stroke="rgb(128,128,128)" stroke-width="30" stroke-linejoin="round" d="M 14638,3240 L 16672,3240 16672,5800 14638,5800 14638,3240 14638,3240 Z"/>
         <text class="TextShape"><tspan class="TextParagraph" font-family="Liberation Sans, sans-serif" font-size="423px" font-weight="400"><tspan class="TextPosition" x="14840" y="4431"><tspan fill="rgb(0,0,0)" stroke="none">Ouvrage</tspan></tspan><tspan class="TextPosition" x="15012" y="4905"><tspan fill="rgb(0,0,0)" stroke="none">+ code</tspan></tspan></tspan></text>
        </g>
       </g>
      </g>
      <g class="com.sun.star.drawing.CustomShape">
       <g id="id6">
        <rect class="BoundingBox" stroke="none" fill="none" x="383" y="916" width="2394" height="1050"/>
        <path fill="rgb(255,255,255)" stroke="none" d="M 2761,1441 C 2761,1530 2706,1618 2603,1696 2499,1773 2350,1837 2171,1882 1991,1926 1787,1950 1580,1950 1373,1950 1169,1926 990,1882 810,1837 661,1773 557,1696 454,1618 399,1530 399,1441 399,1352 454,1264 557,1187 661,1109 810,1045 989,1000 1169,956 1373,932 1580,932 1787,932 1991,956 2170,1000 2350,1045 2499,1109 2603,1186 2706,1264 2761,1352 2761,1441 L 2761,1441 Z"/>
        <path fill="none" stroke="rgb(128,128,128)" stroke-width="30" stroke-linejoin="round" d="M 2761,1441 C 2761,1530 2706,1618 2603,1696 2499,1773 2350,1837 2171,1882 1991,1926 1787,1950 1580,1950 1373,1950 1169,1926 990,1882 810,1837 661,1773 557,1696 454,1618 399,1530 399,1441 399,1352 454,1264 557,1187 661,1109 810,1045 989,1000 1169,956 1373,932 1580,932 1787,932 1991,956 2170,1000 2350,1045 2499,1109 2603,1186 2706,1264 2761,1352 2761,1441 L 2761,1441 Z"/>
        <text class="TextShape"><tspan class="TextParagraph" font-family="Liberation Sans, sans-serif" font-size="423px" font-weight="400"><tspan class="TextPosition" x="1059" y="1589"><tspan fill="rgb(0,0,0)" stroke="none">Idées</tspan></tspan></tspan></text>
       </g>
      </g>
      <g class="com.sun.star.drawing.CustomShape">
       <g id="id7">
        <rect class="BoundingBox" stroke="none" fill="none" x="185" y="4206" width="2574" height="1049"/>
        <path fill="rgb(255,255,255)" stroke="none" d="M 396,4221 L 396,4221 C 362,4221 328,4230 298,4247 268,4264 243,4289 226,4319 209,4349 200,4383 200,4417 L 200,5041 200,5042 C 200,5076 209,5110 226,5140 243,5170 268,5195 298,5212 328,5229 362,5238 396,5238 L 2546,5238 2547,5238 C 2581,5238 2615,5229 2645,5212 2675,5195 2700,5170 2717,5140 2734,5110 2743,5076 2743,5042 L 2743,4417 2743,4417 2743,4417 C 2743,4383 2734,4349 2717,4319 2700,4289 2675,4264 2645,4247 2615,4230 2581,4221 2547,4221 L 396,4221 Z"/>
        <path fill="none" stroke="rgb(128,128,128)" stroke-width="30" stroke-linejoin="round" d="M 396,4221 L 396,4221 C 362,4221 328,4230 298,4247 268,4264 243,4289 226,4319 209,4349 200,4383 200,4417 L 200,5041 200,5042 C 200,5076 209,5110 226,5140 243,5170 268,5195 298,5212 328,5229 362,5238 396,5238 L 2546,5238 2547,5238 C 2581,5238 2615,5229 2645,5212 2675,5195 2700,5170 2717,5140 2734,5110 2743,5076 2743,5042 L 2743,4417 2743,4417 2743,4417 C 2743,4383 2734,4349 2717,4319 2700,4289 2675,4264 2645,4247 2615,4230 2581,4221 2547,4221 L 396,4221 Z"/>
        <text class="TextShape"><tspan class="TextParagraph" font-family="Liberation Sans, sans-serif" font-size="423px" font-weight="400"><tspan class="TextPosition" x="680" y="4877"><tspan fill="rgb(0,0,0)" stroke="none">data.csv</tspan></tspan></tspan></text>
       </g>
      </g>
      <g class="com.sun.star.drawing.LineShape">
       <g id="id8">
        <rect class="BoundingBox" stroke="none" fill="none" x="3000" y="1790" width="1759" height="597"/>
        <path fill="none" stroke="rgb(0,0,0)" stroke-width="30" stroke-linejoin="round" d="M 3015,1805 L 4221,2207"/>
        <path fill="rgb(0,0,0)" stroke="none" d="M 4758,2386 L 4258,2011 4133,2386 4758,2386 Z"/>
       </g>
      </g>
      <g class="com.sun.star.drawing.LineShape">
       <g id="id9">
        <rect class="BoundingBox" stroke="none" fill="none" x="3000" y="3524" width="1759" height="548"/>
        <path fill="none" stroke="rgb(0,0,0)" stroke-width="30" stroke-linejoin="round" d="M 3015,4056 L 4214,3706"/>
        <path fill="rgb(0,0,0)" stroke="none" d="M 4758,3548 L 4134,3524 4244,3903 4758,3548 Z"/>
       </g>
      </g>
      <g class="com.sun.star.drawing.LineShape">
       <g id="id10">
        <rect class="BoundingBox" stroke="none" fill="none" x="11266" y="1100" width="3035" height="1486"/>
        <path fill="none" stroke="rgb(0,0,0)" stroke-width="30" stroke-linejoin="round" d="M 11352,2570 L 13793,1353"/>
        <path fill="rgb(0,0,0)" stroke="none" d="M 14300,1100 L 13682,1188 13858,1541 14300,1100 Z"/>
        <text class="TextShape" transform="rotate(-26.5 11346 2414)"><tspan class="TextParagraph" font-family="Liberation Sans, sans-serif" font-size="318px" font-weight="400"><tspan class="TextPosition" x="11346" y="2414"><tspan fill="rgb(0,0,0)" stroke="none">Balise sans code</tspan></tspan></tspan></text>
       </g>
      </g>
      <g class="com.sun.star.drawing.LineShape">
       <g id="id11">
        <rect class="BoundingBox" stroke="none" fill="none" x="11282" y="3646" width="3119" height="1196"/>
        <path fill="none" stroke="rgb(0,0,0)" stroke-width="30" stroke-linejoin="round" d="M 11297,3984 L 13852,4656"/>
        <path fill="rgb(0,0,0)" stroke="none" d="M 14400,4800 L 13877,4458 13777,4840 14400,4800 Z"/>
        <text class="TextShape" transform="rotate(14.7 11396 3863)"><tspan class="TextParagraph" font-family="Liberation Sans, sans-serif" font-size="318px" font-weight="400"><tspan class="TextPosition" x="11396" y="3863"><tspan fill="rgb(0,0,0)" stroke="none">Balise avec code</tspan></tspan></tspan></text>
       </g>
      </g>
      <g class="com.sun.star.drawing.CustomShape">
       <g id="id12">
        <rect class="BoundingBox" stroke="none" fill="none" x="4815" y="1280" width="2504" height="3303"/>
        <path fill="rgb(255,255,255)" stroke="none" d="M 5242,1296 L 5242,1296 C 5170,1296 5099,1315 5036,1351 4973,1387 4921,1439 4885,1502 4849,1565 4830,1636 4830,1708 L 4830,4155 4830,4155 C 4830,4227 4849,4298 4885,4361 4921,4424 4973,4476 5036,4512 5099,4548 5170,4567 5242,4567 L 6890,4567 6890,4567 C 6962,4567 7033,4548 7096,4512 7159,4476 7211,4424 7247,4361 7283,4298 7302,4227 7302,4155 L 7302,1708 7302,1708 7302,1708 C 7302,1636 7283,1565 7247,1502 7211,1439 7159,1387 7096,1351 7033,1315 6962,1296 6890,1296 L 5242,1296 Z"/>
        <path fill="none" stroke="rgb(128,128,128)" stroke-width="30" stroke-linejoin="round" d="M 5242,1296 L 5242,1296 C 5170,1296 5099,1315 5036,1351 4973,1387 4921,1439 4885,1502 4849,1565 4830,1636 4830,1708 L 4830,4155 4830,4155 C 4830,4227 4849,4298 4885,4361 4921,4424 4973,4476 5036,4512 5099,4548 5170,4567 5242,4567 L 6890,4567 6890,4567 C 6962,4567 7033,4548 7096,4512 7159,4476 7211,4424 7247,4361 7283,4298 7302,4227 7302,4155 L 7302,1708 7302,1708 7302,1708 C 7302,1636 7283,1565 7247,1502 7211,1439 7159,1387 7096,1351 7033,1315 6962,1296 6890,1296 L 5242,1296 Z"/>
        <text class="TextShape"><tspan class="TextParagraph" font-family="Liberation Sans, sans-serif" font-size="423px" font-weight="400"><tspan class="TextPosition" x="5098" y="2448"><tspan fill="rgb(0,0,0)" stroke="none">Document</tspan></tspan><tspan class="TextPosition" x="5310" y="2922"><tspan fill="rgb(0,0,0)" stroke="none">source :</tspan></tspan></tspan><tspan class="TextParagraph" font-family="Liberation Sans, sans-serif" font-size="353px" font-weight="400"><tspan class="TextPosition" x="5479" y="3329"><tspan fill="rgb(0,0,0)" stroke="none">  </tspan><tspan fill="rgb(0,0,0)" stroke="none">- texte</tspan></tspan></tspan><tspan class="TextParagraph" font-family="Liberation Sans, sans-serif" font-size="353px" font-weight="400"><tspan class="TextPosition" x="5479" y="3723"><tspan fill="rgb(0,0,0)" stroke="none">  </tspan><tspan fill="rgb(0,0,0)" stroke="none">- code</tspan></tspan></tspan></text>
       </g>
      </g>
     </g>
    </g>
   </g>
  </g>
 </g>
</svg>