Lettre	Année correspondante
a	1931
b	1932
c	1933
d	1934
e	1935
f	1936
g	1937
h	1938
i	1939
k	1952
l	1953
m	1954
n	1955
o	1956
p	1957
q	1958
r	1959
s	1960
t	1961
u	1962
v	1963
w	1964
x	1965
y	1966
z	1967
