<?xml version="1.0" encoding="UTF-8" standalone="no"?>
<!-- Created with Inkscape (http://www.inkscape.org/) -->

<svg
   xmlns:dc="http://purl.org/dc/elements/1.1/"
   xmlns:cc="http://creativecommons.org/ns#"
   xmlns:rdf="http://www.w3.org/1999/02/22-rdf-syntax-ns#"
   xmlns:svg="http://www.w3.org/2000/svg"
   xmlns="http://www.w3.org/2000/svg"
   xmlns:sodipodi="http://sodipodi.sourceforge.net/DTD/sodipodi-0.dtd"
   xmlns:inkscape="http://www.inkscape.org/namespaces/inkscape"
   width="1987.5776"
   height="284.22818"
   id="svg4048"
   version="1.1"
   inkscape:version="0.92.1 r15371"
   sodipodi:docname="Bo77-I1-9-5.svg"
   inkscape:export-filename="/media/hdd/Nehemie/Bogazkoy/BoKe/BoKeWTer/Images/SVG/Geb95/Bo77-I1-9-4.png"
   inkscape:export-xdpi="300"
   inkscape:export-ydpi="300">
  <title
     id="title2983">Bo77-I1-9-5</title>
  <defs
     id="defs4050" />
  <sodipodi:namedview
     id="base"
     pagecolor="#ffffff"
     bordercolor="#666666"
     borderopacity="1.0"
     inkscape:pageopacity="0.0"
     inkscape:pageshadow="2"
     inkscape:zoom="0.41050506"
     inkscape:cx="209.20047"
     inkscape:cy="480.19923"
     inkscape:document-units="px"
     inkscape:current-layer="layer17"
     showgrid="true"
     units="mm"
     inkscape:window-width="1280"
     inkscape:window-height="974"
     inkscape:window-x="0"
     inkscape:window-y="26"
     inkscape:window-maximized="1"
     fit-margin-top="0"
     fit-margin-left="0"
     fit-margin-right="0"
     fit-margin-bottom="0">
    <inkscape:grid
       type="xygrid"
       id="grid4079"
       units="cm"
       empspacing="5"
       visible="false"
       enabled="false"
       snapvisiblegridlinesonly="true"
       originx="1150.2944"
       originy="-748.49424"
       spacingx="37.795276"
       spacingy="37.795276" />
  </sodipodi:namedview>
  <metadata
     id="metadata4053">
    <rdf:RDF>
      <cc:Work
         rdf:about="">
        <dc:format>image/svg+xml</dc:format>
        <dc:type
           rdf:resource="http://purl.org/dc/dcmitype/StillImage" />
        <dc:title>Bo77-I1-9-5</dc:title>
        <cc:license
           rdf:resource="http://creativecommons.org/licenses/by/4.0/" />
        <dc:creator>
          <cc:Agent>
            <dc:title>Néhémie Strupler</dc:title>
          </cc:Agent>
        </dc:creator>
        <dc:description>Pottery Drawing from the BoKeWTer database </dc:description>
        <dc:contributor>
          <cc:Agent>
            <dc:title>Illustrator: Sarah-Julie Wittmann 
Digitisation, metadata and co Néhémie Strupler</dc:title>
          </cc:Agent>
        </dc:contributor>
        <dc:subject>
          <rdf:Bag>
            <rdf:li>Pottery</rdf:li>
            <rdf:li>Drawing</rdf:li>
            <rdf:li>BoKeWTer</rdf:li>
            <rdf:li>Westterrasse</rdf:li>
            <rdf:li>Boğazköy</rdf:li>
            <rdf:li>Bogazkoy</rdf:li>
            <rdf:li>Hattusa</rdf:li>
            <rdf:li>Late Bronze Age</rdf:li>
            <rdf:li>Turkey</rdf:li>
          </rdf:Bag>
        </dc:subject>
        <dc:date>2015-07-08</dc:date>
        <dc:rights>
          <cc:Agent>
            <dc:title>Néhémie Strupler</dc:title>
          </cc:Agent>
        </dc:rights>
        <dc:relation />
      </cc:Work>
      <cc:License
         rdf:about="http://creativecommons.org/licenses/by/4.0/">
        <cc:permits
           rdf:resource="http://creativecommons.org/ns#Reproduction" />
        <cc:permits
           rdf:resource="http://creativecommons.org/ns#Distribution" />
        <cc:requires
           rdf:resource="http://creativecommons.org/ns#Notice" />
        <cc:requires
           rdf:resource="http://creativecommons.org/ns#Attribution" />
        <cc:permits
           rdf:resource="http://creativecommons.org/ns#DerivativeWorks" />
      </cc:License>
    </rdf:RDF>
  </metadata>
  <g
     inkscape:groupmode="layer"
     id="layer17"
     inkscape:label="scale"
     transform="translate(1150.2944,-89.797242)">
    <g
       id="g5251"
       transform="translate(-1621.85,-1275.3362)">
      <g
         transform="matrix(1.9999615,0,0,1.9999615,-1551.329,-939.5498)"
         id="g3304-2-2-7">
        <g
           id="g4611">
          <text
             style="font-style:normal;font-variant:normal;font-weight:normal;font-stretch:normal;font-size:13.86666679px;line-height:0%;font-family:'Gentium Book Basic';-inkscape-font-specification:'Gentium Book Basic';stroke-width:1.06666672"
             id="text3783-2-1-1"
             font-size="12"
             x="1317.6703"
             y="1270.4474">0</text>
          <text
             style="font-style:normal;font-variant:normal;font-weight:normal;font-stretch:normal;font-size:13.86666679px;line-height:0%;font-family:'Gentium Book Basic';-inkscape-font-specification:'Gentium Book Basic';stroke-width:1.06666672"
             id="text3785-4-7-0"
             font-size="12"
             x="1499.2429"
             y="1270.4067">10</text>
          <text
             style="font-style:normal;font-variant:normal;font-weight:normal;font-stretch:normal;font-size:13.86666679px;line-height:0%;font-family:'Gentium Book Basic';-inkscape-font-specification:'Gentium Book Basic';stroke-width:1.06666672"
             id="text3787-8-9-5"
             font-size="12"
             x="1660.9591"
             y="1270.4812">20 cm</text>
        </g>
      </g>
      <g
         style="display:inline;stroke-width:0.50210083;stroke-miterlimit:4;stroke-dasharray:none"
         id="g3676-6-2"
         transform="matrix(2.4952207,0,0,2.4838721,-2192.2735,-1278.7686)">
        <rect
           x="1313.2322"
           y="1163.6376"
           width="302.44238"
           height="14.843801"
           id="rect3757-68-9-5"
           style="display:inline;fill:none;stroke:#000000;stroke-width:0.5355742;stroke-miterlimit:4;stroke-dasharray:none" />
        <rect
           transform="scale(1,-1)"
           x="1464.4102"
           y="-1170.9723"
           width="151.16623"
           height="7.421639"
           id="rect3769-0-0-8"
           style="display:inline;stroke:#000000;stroke-width:0.5355742;stroke-miterlimit:4;stroke-dasharray:none" />
        <rect
           transform="scale(1,-1)"
           x="1464.4102"
           y="-1178.4777"
           width="151.1673"
           height="7.421639"
           id="rect3781-5-3-1"
           style="display:inline;fill:none;stroke:#000000;stroke-width:0.5355742;stroke-miterlimit:4;stroke-dasharray:none" />
      </g>
      <g
         style="display:inline;stroke-width:0.71006185;stroke-miterlimit:4;stroke-dasharray:none"
         id="g3676-2"
         transform="matrix(1.2476344,0,0,2.4839359,-553.26702,-1278.8861)">
        <rect
           x="1312.845"
           y="1171.0591"
           width="30.233034"
           height="7.4221625"
           id="rect3759-1-1"
           style="display:inline;fill:none;stroke:#000000;stroke-width:0.75739932;stroke-miterlimit:4;stroke-dasharray:none" />
        <rect
           x="1343.1003"
           y="1171.0597"
           width="30.233034"
           height="7.4221625"
           id="rect3761-59-2"
           style="display:inline;stroke:#000000;stroke-width:0.75739932;stroke-miterlimit:4;stroke-dasharray:none" />
        <rect
           x="1373.3547"
           y="1171.056"
           width="30.2341"
           height="7.4221625"
           id="rect3763-46-3"
           style="display:inline;fill:none;stroke:#000000;stroke-width:0.75739932;stroke-miterlimit:4;stroke-dasharray:none" />
        <rect
           x="1403.6101"
           y="1171.0597"
           width="30.2341"
           height="7.4221625"
           id="rect3765-3-3"
           style="display:inline;stroke:#000000;stroke-width:0.75739932;stroke-miterlimit:4;stroke-dasharray:none" />
        <rect
           x="1433.8656"
           y="1171.0597"
           width="30.233034"
           height="7.4221625"
           id="rect3767-4-1"
           style="display:inline;fill:none;stroke:#000000;stroke-width:0.75739932;stroke-miterlimit:4;stroke-dasharray:none" />
        <rect
           x="1312.845"
           y="1163.5538"
           width="30.233034"
           height="7.4221625"
           id="rect3771-4-71"
           style="display:inline;stroke:#000000;stroke-width:0.75739932;stroke-miterlimit:4;stroke-dasharray:none" />
        <rect
           x="1343.1003"
           y="1163.5543"
           width="30.233034"
           height="7.4221625"
           id="rect3773-0-6"
           style="display:inline;fill:none;stroke:#000000;stroke-width:0.75739932;stroke-miterlimit:4;stroke-dasharray:none" />
        <rect
           x="1373.3547"
           y="1163.5507"
           width="30.235167"
           height="7.4221625"
           id="rect3775-6-8"
           style="display:inline;stroke:#000000;stroke-width:0.75739932;stroke-miterlimit:4;stroke-dasharray:none" />
        <rect
           x="1403.6101"
           y="1163.5543"
           width="30.2341"
           height="7.4221625"
           id="rect3777-7-2"
           style="display:inline;fill:none;stroke:#000000;stroke-width:0.75739932;stroke-miterlimit:4;stroke-dasharray:none" />
        <rect
           x="1433.8656"
           y="1163.5543"
           width="30.233034"
           height="7.4221625"
           id="rect3779-1-3"
           style="display:inline;stroke:#000000;stroke-width:0.75739932;stroke-miterlimit:4;stroke-dasharray:none" />
      </g>
      <g
         style="display:inline;stroke-width:0.71006185;stroke-miterlimit:4;stroke-dasharray:none"
         id="g3676-2-3"
         transform="matrix(-1.2476344,0,0,-2.4839359,3099.8763,4538.8802)">
        <rect
           x="1312.845"
           y="1171.0591"
           width="30.233034"
           height="7.4221625"
           id="rect3759-1-1-1"
           style="display:inline;fill:none;stroke:#000000;stroke-width:0.75739932;stroke-miterlimit:4;stroke-dasharray:none" />
        <rect
           x="1343.1003"
           y="1171.0597"
           width="30.233034"
           height="7.4221625"
           id="rect3761-59-2-0"
           style="display:inline;stroke:#000000;stroke-width:0.75739932;stroke-miterlimit:4;stroke-dasharray:none" />
        <rect
           x="1373.3547"
           y="1171.056"
           width="30.2341"
           height="7.4221625"
           id="rect3763-46-3-1"
           style="display:inline;fill:none;stroke:#000000;stroke-width:0.75739932;stroke-miterlimit:4;stroke-dasharray:none" />
        <rect
           x="1403.6101"
           y="1171.0597"
           width="30.2341"
           height="7.4221625"
           id="rect3765-3-3-1"
           style="display:inline;stroke:#000000;stroke-width:0.75739932;stroke-miterlimit:4;stroke-dasharray:none" />
        <rect
           x="1433.8656"
           y="1171.0597"
           width="30.233034"
           height="7.4221625"
           id="rect3767-4-1-2"
           style="display:inline;fill:none;stroke:#000000;stroke-width:0.75739932;stroke-miterlimit:4;stroke-dasharray:none" />
        <rect
           x="1312.845"
           y="1163.5538"
           width="30.233034"
           height="7.4221625"
           id="rect3771-4-71-6"
           style="display:inline;stroke:#000000;stroke-width:0.75739932;stroke-miterlimit:4;stroke-dasharray:none" />
        <rect
           x="1343.1003"
           y="1163.5543"
           width="30.233034"
           height="7.4221625"
           id="rect3773-0-6-9"
           style="display:inline;fill:none;stroke:#000000;stroke-width:0.75739932;stroke-miterlimit:4;stroke-dasharray:none" />
        <rect
           x="1373.3547"
           y="1163.5507"
           width="30.235167"
           height="7.4221625"
           id="rect3775-6-8-6"
           style="display:inline;stroke:#000000;stroke-width:0.75739932;stroke-miterlimit:4;stroke-dasharray:none" />
        <rect
           x="1403.6101"
           y="1163.5543"
           width="30.2341"
           height="7.4221625"
           id="rect3777-7-2-2"
           style="display:inline;fill:none;stroke:#000000;stroke-width:0.75739932;stroke-miterlimit:4;stroke-dasharray:none" />
        <rect
           x="1433.8656"
           y="1163.5543"
           width="30.233034"
           height="7.4221625"
           id="rect3779-1-3-1"
           style="display:inline;stroke:#000000;stroke-width:0.75739932;stroke-miterlimit:4;stroke-dasharray:none" />
      </g>
    </g>
  </g>
  <g
     inkscape:groupmode="layer"
     id="layer2"
     inkscape:label="rim"
     transform="translate(1150.2944,-89.797242)">
    <path
       style="fill:none;stroke:#000000;stroke-width:2.66666675;stroke-linecap:round;stroke-linejoin:round;stroke-miterlimit:4;stroke-dasharray:none;stroke-opacity:1"
       d="M -1053.5833,91.130575 H 615.73658"
       id="path3074"
       inkscape:connector-curvature="0"
       sodipodi:nodetypes="cc" />
  </g>
  <g
     inkscape:groupmode="layer"
     id="layer3"
     inkscape:label="section"
     transform="translate(1150.2944,-89.797242)">
    <path
       style="fill:#000000;fill-opacity:1;stroke:#000000;stroke-width:1.06666672px;stroke-linecap:butt;stroke-linejoin:miter;stroke-opacity:1"
       d="m 651.85431,264.0729 c 0,0 -6.49606,0.6496 -4.54724,-9.0945 1.94882,-9.74408 7.14568,-30.53149 2.59843,-55.21653 -4.54725,-24.68504 -3.89764,-36.37795 -9.74409,-53.26771 -5.84647,-16.88977 41.57479,-48.070869 90.29527,-53.267719 48.72047,-5.196851 98.09055,14.291339 101.33858,30.531499 3.24804,16.24015 13.64173,30.53149 -11.0433,51.31889 -24.68505,20.78741 -55.86615,27.28347 -74.05513,48.07087 -18.18897,20.78739 -35.72834,40.9252 -37.67716,42.87401 -1.94882,1.94882 -3.89763,10.3937 -12.99213,8.44488 -9.09448,-1.94882 -44.17323,-10.39369 -44.17323,-10.39369 z"
       id="path4072"
       inkscape:connector-curvature="0" />
    <path
       style="fill:none;stroke:#000000;stroke-width:2.66666675;stroke-linecap:butt;stroke-linejoin:miter;stroke-miterlimit:4;stroke-dasharray:none;stroke-opacity:1"
       d="m 698.62597,285.5099 -3.24803,13.64173"
       id="path4074"
       inkscape:connector-curvature="0" />
    <path
       style="fill:none;stroke:#000000;stroke-width:2.66666675;stroke-linecap:butt;stroke-linejoin:miter;stroke-miterlimit:4;stroke-dasharray:none;stroke-opacity:1"
       d="m 647.30707,271.86817 -3.89763,11.04331"
       id="path4076"
       inkscape:connector-curvature="0" />
    <path
       style="fill:none;stroke:#000000;stroke-width:2.66666675;stroke-linecap:butt;stroke-linejoin:miter;stroke-miterlimit:4;stroke-dasharray:none;stroke-opacity:1"
       d="m -1012.1122,281.28747 3.2481,13.64172"
       id="path4074-1"
       inkscape:connector-curvature="0" />
  </g>
  <g
     inkscape:groupmode="layer"
     id="layer4"
     inkscape:label="external"
     transform="translate(1150.2944,-89.797242)">
    <path
       style="fill:none;stroke:#000000;stroke-width:2.66666675;stroke-linecap:round;stroke-linejoin:round;stroke-miterlimit:4;stroke-dasharray:none;stroke-opacity:1"
       d="M -161.10236,92.244091 V 229.96062"
       id="path3139"
       inkscape:connector-curvature="0" />
    <path
       style="fill:none;stroke:#000000;stroke-width:2.66666675;stroke-miterlimit:4;stroke-dasharray:none;stroke-opacity:1"
       d="m -1042.6678,91.335017 c -46.1278,-1.29457 -98.0906,14.291343 -101.3386,30.531493 -3.248,16.24016 -13.6417,30.5315 11.0433,51.31889 24.685,20.78741 55.8662,27.28346 74.0551,48.07087 18.189,20.78739 35.7284,40.92519 37.6772,42.874 1.9488,1.94882 3.422,4.76679 6.0728,11.62903"
       id="path4072-2"
       inkscape:connector-curvature="0"
       sodipodi:nodetypes="cssssc" />
  </g>
  <style
     id="style5430"
     type="text/css">

@font-face{font-family:'ArialMT';src:url(&quot;data:;base64,\
T1RUTwADACAAAQAQQ0ZGIOJhRYsAAACgAAAEdkdQT1Ov/L6JAAAFGAAAAFpjbWFwATIBOQAAADwA\
AABkAAAAAQAAAAMAAAAMAAQAWAAAABIAEAADAAIAIAAtADEAMwA1ADcAQgBQ//8AAAAgAC0AMQAz\
ADUANwBCAE/////h/9X/0v/R/9D/z//F/7kAAQAAAAAAAAAAAAAAAAAAAAAAAAEABAIAAQEBCEFy\
aWFsTVQAAQEBO/gbAfgYBPgcDBUc+q/9LRwQABwIDAUeoABIgoEl/4uLHqAASIKBJf+LiwwH9ykP\
9zwQ9z4RkxwEbhIAAgEBMj9BcmlhbCBpcyBhIHRyYWRlbWFyayBvZiBUaGUgTW9ub3R5cGUgQ29y\
cG9yYXRpb24uL0ZTVHlwZSA4IGRlZgAAAAABAA4AEgAUABYAGAAjADAAMQAAAAoCAAEAGwAeACwA\
VgEVAZoB4AKXA0sDrMr3lBYcBQD6lBz7AAf+dKsV+lQcBMD+VAYO/hwO/avM+EwV90n4vftJBw75\
jxb7SBwEewZgYlJhRWJEYkxsU3YI90IH8LrjxdbO1s7BzarKCPcIBg7h+BcV90ijoCWuQr1eGV68\
yHTSG+DSqMbGH8XGqNPiGt5wz1XBHsBVRqY4G2lhhH5YH5/3MgWKl5WKkhvY0J+zyB/Is6rJ3hrN\
dcJeth62XlKhRBtFUXVfXB9cX21JfjP7SKsYofcNvejZzgjN2eys9wgb29V6ac4fzmi/XK9QCK5Q\
nUxIGkx6UWlXHmlXWWJIbOJ3zmK7TAi7TKM8LBr7FFz7AC4yHjIu+wpe+yMb+xUhsdg2HzbYWu5/\
9w4IDuD4FBX3UZuZL6xGvl0ZXL7IdNMb4tSszMcfx8yp4vcAGvJu3FLGHsZRP6kuG1FXfnFcH1xw\
Z2lwYfs9oRj3IvmFBflt+0D83QY8/B4FyOPnquwb9xT3AF8y4x/jMrf7BvsfGvsZZPsGPioe+wst\
+xRQ+zcb+xn7AbDWNx821lvuf/cPCA7sHAT6FfdB+kn7IAcuKC77GDD7OS/7OUT7PVn7Qmf7D3T7\
GoH7Jgj7TQaN9wei9yC29ze29zfK9zLc9yzc9yvh9xTm8wgOIPcqFhwFuvi6B/cE5Xxuzx/ObcBd\
sk4IsU2eSkgaTHpQaVQeaVRYXkZp5HHPX7tMCLpMo0E2GkZ9TG5QHm5QZ11ga2BrVnNLewh6SjyD\
Lhv8AfnmFffRBuHJkZawH7yasaOkrQikrZe2vhq8f7Z0sB50sGmkYJkImGBAkiIb+7kG/vQE+AEG\
yreNkKQfuJOwmKmeqZ6kpp6vCJ6ulbS6GsJ9um+0Hm+zZKdanAibWUOTLhv75wYO9wzu+V4V94fM\
91P3F/ceHvcd9xf3PND3Yxv3G/cOa0r3AR/3AUreMcT7BwjE+win+xf7Jxr7KW37GU/7CR5P+wk2\
MvsCTwhO+wL7C237Exv7HvsPrM77AR/7Ac455lP3BwhT9wdv9w73FRr3XIgV+0W7+x/qJh4l6vcL\
WPcjG/cm9wy+8uof6fK69yX3URr3C3f0Y+QeYuRQ0D68CLw9NKMqG/sd+wpcLSgfKCxZ+zH7cRoO\
IPcyFhwFuvi9B+zWhoK+H9N/x3S8arxpslypTgioTppJQhr7EWMiPDUeNDz7JGD7Yxv8DPzoBvmV\
BPgPBvcR5KK6wB/AuqXM4BrIfMBstx5stmKoWJkIlGpPjzMb/AsGDhwEcxQcBcEVAAAAAQAAAAoA\
HgAsAAFERkxUAAgABAAAAAD//wABAAAAAWtlcm4ACAAAAAEAAAABAAQAAgAAAAEACAABABoABAAA\
AAIADgAUAAEAA/9oAAEAAf/bAAEAAgADAAkAAA==&quot;)}

</style>
  <style
     id="style6533"
     type="text/css">

@font-face{font-family:'ArialMT';src:url(&quot;data:;base64,\
T1RUTwADACAAAQAQQ0ZGIOHrJ9IAAACwAAAHv0dQT1OvQL7DAAAIcAAAAGRjbWFwAdcB2gAAADwA\
AAB0AAAAAQAAAAMAAAAMAAQAaAAAABYAEAADAAYAIAAtADIAOAA6AEIATwBSAGMAbf//AAAAIAAs\
ADEANQA6AEEATwBSAGMAbf///+H/1v/T/9H/0P/K/77/vP+s/6MAAQAAAAAAAAAAAAAAAAAAAAAA\
AAAAAAABAAQCAAEBAQhBcmlhbE1UAAEBATv4GwH4GAT4HAwVHPqv/S0cEAAcCAwFHqAASIKBJf+L\
ix6gAEiCgSX/i4sMB/cpD/dIEPdKEZIcB7gSAAIBATI/QXJpYWwgaXMgYSB0cmFkZW1hcmsgb2Yg\
VGhlIE1vbm90eXBlIENvcnBvcmF0aW9uLi9GU1R5cGUgOCBkZWYAAAEAAQAADQEAEgEAFgMAGwAA\
IgEAMAAAMwAARAAATgAAAAARAgABABwAHgBGAFMAfQEHAYwCVAKaA3oDlAPTBIsFPwXMBk8G3Pnw\
95QWHAUA+pQc+wAH/nSrFfpUHATA/lQGDiAOIPdKFvdh92H7YQdAfk5wXR5wXGFnUXJZ2BixnKej\
naydq5W5jcgIDpHM+EwV90n4vftJBw75jxb7SBwEewZgYlJhRWJEYkxsU3YI90IH8LrjxdbO1s7B\
zarKCPcIBg76m/dBFftB/l0HiraStZqzpM2yzMLLwcvZ1fLf9zP3F/cA8sPYCMPXp9PPGtJyyFi8\
HrxYSKM5GzRGcVdXH1dXcUOKL/tNnhiY9x669N7UCNPe9wOv9x8b9yH3A2Q93R/dPbQq+wcaUH9S\
c1Iec1JjUFRMU0wuNfsV+wH7ADBGTmxrbGpya3dqCA7g+BQV91GbmS+sRr5dGVy+yHTTG+LUrMzH\
H8fMqeL3ABrybtxSxh7GUT+pLhtRV35xXB9ccGdpcGH7PaEY9yL5hQX5bftA/N0GPPweBcjj56rs\
G/cU9wBfMuMf4zK3+wb7Hxr7GWT7Bj4qHvsLLfsUUPs3G/sZ+wGw1jcfNtZb7n/3DwgO+o/65xX7\
R3170nS+bqsZvlpPpUQbUlh7a2AfUmJfTmo8ajx6+wWK+ye2zcC8yqsIq8rMm9Ab9wzxXzPgH98y\
tfsG+yAaL3c2ZDweYzxUTkZhCGFGPHYzG/sq+w7C9wMsHyz3Alz3SveRGvevv/di9PcVHvcE5vcP\
w/cvG/cH6mtK1R/USrcymvsGCP1z/QwVTZhQplIepVKwYLpuCG26vXy/G9fMqsjCH8LIpt/0GvBw\
21XGHsVVR6g5GzpGblFSH1JQbz8sGg7sHAT6FfdB+kn7IAcuKC77GDD7OS/7OUT7PVn7Qmf7D3T7\
GoH7Jgj7TQaN9wei9yC29ze29zfK9zLc9yzc9yvh9xTm8wgO9/75rxVAplSyZ74IZ755x9Ia9rHk\
2NQe1Njxr/cTG/cU8mZB2R/ZQLIxIBpHeVBoWR5nWFVkQnDlbtBbukoIukqiPTAa+xFfITI2HjYy\
+whg+yUb+yX7CLbhMh8y4F/29xQa6qPbvMweu8vQt+SiCGf3xRVGoVK4Xx5fuMV10hvQxKG3uB+3\
tqHByhrNdMNeuB64XVKhRxtGUnVfXh9eX3RWThpR/TkVWJdZpFseo1uvZrtxCHC7v37CG+HSp8LD\
H8PCp9LgGuJu0lLEHsRRQ6c0GzZFb1NUH1NTb0U3Gg4g90357RX3Yfdh+2EH+2H97RX3Yfdh+2EH\
DvlGiBb4xxwFugX3ZQb47Bz6RgX7cQb7P/hQBfz5Bvs1/FAF92347hX4hQb7LfgqXPcPafF02hl4\
LXEuaS4IDvlG9yoWHAW6+LoH9wTlfG7PH85twF2yTgixTZ5KSBpMelBpVB5pVFheRmnkcc9fu0wI\
ukyjQTYaRn1MblAeblBnXWBrYGtWc0t7CHpKPIMuG/wB+eYV99EG4cmRlrAfvJqxo6StCKStl7a+\
Grx/tnSwHnSwaaRgmQiYYECSIhv7uQb+9AT4AQbKt42QpB+4k7CYqZ6pnqSmnq8Inq6VtLoawn26\
b7Qeb7Nkp1qcCJtZQ5MuG/vnBg76Ke75XhX3h8z3U/cX9x4e9x33F/c80PdjG/cb9w5rSvcBH/cB\
St4xxPsHCMT7CKf7F/snGvspbfsZT/sJHk/7CTYy+wJPCE77AvsLbfsTG/se+w+szvsBH/sBzjnm\
U/cHCFP3B2/3DvcVGvdciBX7Rbv7H+omHiXq9wtY9yMb9yb3DL7y6h/p8rr3JfdRGvcLd/Rj5B5i\
5FDQPrwIvD00oyob+x37ClwtKB8oLFn7MftxGg75t/c1FhwFuvkeB/cX7n5xzx/PcMFdtEgItEif\
QjoaI2kzSEQeSEQjXfsheL5ysnOmc8RXwEq+PfeT/CMY+4gG+1b3xVLjXc5muhlmumurbp5unm2Y\
bZIIkHVnjVkb+3X9Hwb5xwT4NQbk0JSevR+9nbGopbQIpbOYt7oa0HLEWbgeuFg8ofsBG/xkBg73\
8PnQ+BkV90V0ePsOWSw8RhlGOylo+wgb+yX7CbvqMx8y6l/3HPdFGvcHnu+x4R6x4cXM2bYIttjg\
oOYb9wfqblHUH9RQujigIPtDcBh60m7BYa8Ir2BYnU8bMEJrSlIfUkpvJPshGvsjpiTCSh5KwtJr\
4xvSxqG2uh+6tqnOmOUIDvqa9xsW+rr3NfspB6y/uLXCqwiqwsqb0hvay3tqvh+9aq5eoFAI9xDf\
9wHJ9xsb9NxuUcQfxFCnMfsNGv1t+0f5MQfThb+Aqx5/qnalbJ4InmxnlWIbQE1yWlofWllyO/sB\
Gvz9+0j5RgfbfMdusx6zblufSBtYXX5wYB9gcGtkeFgIeFiBQSoa/LsHDhwEcxT5OBUAAAEAAAAK\
AB4ALAABREZMVAAIAAQAAAAA//8AAQAAAAFrZXJuAAgAAAABAAAAAQAEAAIAAAABAAgAAQAiAAQA\
AAADABAAFgAcAAEAC/+PAAEABP9oAAEAAf+PAAEAAwABAAQACw==&quot;)}

</style>
</svg>
