<?xml version="1.0" encoding="UTF-8" standalone="no"?>
<!-- Created with Inkscape (http://www.inkscape.org/) -->

<svg
   xmlns:dc="http://purl.org/dc/elements/1.1/"
   xmlns:cc="http://creativecommons.org/ns#"
   xmlns:rdf="http://www.w3.org/1999/02/22-rdf-syntax-ns#"
   xmlns:svg="http://www.w3.org/2000/svg"
   xmlns="http://www.w3.org/2000/svg"
   xmlns:sodipodi="http://sodipodi.sourceforge.net/DTD/sodipodi-0.dtd"
   xmlns:inkscape="http://www.inkscape.org/namespaces/inkscape"
   width="747.68695"
   height="746.7915"
   id="svg4048"
   version="1.1"
   inkscape:version="0.91 r13725"
   sodipodi:docname="Bo73-69-3.svg"
   viewBox="0 0 747.68695 746.79152">
  <title
     id="title2983">Bo73-69-3</title>
  <defs
     id="defs4050" />
  <sodipodi:namedview
     id="base"
     pagecolor="#ffffff"
     bordercolor="#666666"
     borderopacity="1.0"
     inkscape:pageopacity="0.0"
     inkscape:pageshadow="2"
     inkscape:zoom="0.29027091"
     inkscape:cx="63.167695"
     inkscape:cy="577.15638"
     inkscape:document-units="px"
     inkscape:current-layer="layer1"
     showgrid="true"
     units="mm"
     inkscape:window-width="1280"
     inkscape:window-height="974"
     inkscape:window-x="0"
     inkscape:window-y="26"
     inkscape:window-maximized="1"
     fit-margin-top="0"
     fit-margin-left="0"
     fit-margin-right="0"
     fit-margin-bottom="0">
    <inkscape:grid
       type="xygrid"
       id="grid4079"
       units="cm"
       empspacing="5"
       visible="false"
       enabled="false"
       snapvisiblegridlinesonly="true"
       originx="-3.7401828"
       originy="-699.40102" />
  </sodipodi:namedview>
  <metadata
     id="metadata4053">
    <rdf:RDF>
      <cc:Work
         rdf:about="">
        <dc:format>image/svg+xml</dc:format>
        <dc:type
           rdf:resource="http://purl.org/dc/dcmitype/StillImage" />
        <dc:title>Bo73-69-3</dc:title>
        <cc:license
           rdf:resource="http://creativecommons.org/licenses/by/3.0/" />
        <dc:creator>
          <cc:Agent>
            <dc:title>Néhémie Strupler</dc:title>
          </cc:Agent>
        </dc:creator>
        <dc:description>Pottery Drawing from the BoKeWTer database </dc:description>
        <dc:contributor>
          <cc:Agent>
            <dc:title>Illustrator: Néhémie Strupler
Basic digitisation: Mehmet Turgut
Final work and metadata: Néhémie Strupler</dc:title>
          </cc:Agent>
        </dc:contributor>
        <dc:subject>
          <rdf:Bag>
            <rdf:li>Pottery</rdf:li>
            <rdf:li>Drawing</rdf:li>
            <rdf:li>BoKeWTer</rdf:li>
            <rdf:li>Westterrasse</rdf:li>
            <rdf:li>Boğazköy</rdf:li>
            <rdf:li>Bogazkoy</rdf:li>
            <rdf:li>Hattusa</rdf:li>
            <rdf:li>Late Bronze Age</rdf:li>
            <rdf:li>Turkey</rdf:li>
          </rdf:Bag>
        </dc:subject>
        <dc:date>2015-07-08</dc:date>
        <dc:rights>
          <cc:Agent>
            <dc:title>Néhémie Strupler</dc:title>
          </cc:Agent>
        </dc:rights>
        <dc:relation />
      </cc:Work>
      <cc:License
         rdf:about="http://creativecommons.org/licenses/by/3.0/">
        <cc:permits
           rdf:resource="http://creativecommons.org/ns#Reproduction" />
        <cc:permits
           rdf:resource="http://creativecommons.org/ns#Distribution" />
        <cc:requires
           rdf:resource="http://creativecommons.org/ns#Notice" />
        <cc:requires
           rdf:resource="http://creativecommons.org/ns#Attribution" />
        <cc:permits
           rdf:resource="http://creativecommons.org/ns#DerivativeWorks" />
      </cc:License>
    </rdf:RDF>
  </metadata>
  <g
     inkscape:groupmode="layer"
     id="layer17"
     inkscape:label="scale"
     transform="translate(-3.7401828,393.8303)">
    <g
       style="display:inline"
       id="g3705"
       transform="matrix(1.244841,0,0,1.3514373,-1338.9469,-1143.4969)">
      <g
         id="g5680">
        <g
           style="display:inline;stroke-width:0.96372944;stroke-miterlimit:4;stroke-dasharray:none"
           id="g3676"
           transform="translate(0,2.0000001)">
          <rect
             x="1230.9233"
             y="1090.9103"
             width="283.53973"
             height="13.916063"
             id="rect3757-68"
             style="display:inline;fill:none;stroke:#000000;stroke-width:0.96372944;stroke-miterlimit:4;stroke-dasharray:none" />
          <rect
             x="1230.7921"
             y="1097.8679"
             width="28.34347"
             height="6.9582772"
             id="rect3759-1"
             style="display:inline;fill:none;stroke:#000000;stroke-width:0.96372944;stroke-miterlimit:4;stroke-dasharray:none" />
          <rect
             x="1259.1566"
             y="1097.8684"
             width="28.34347"
             height="6.9582772"
             id="rect3761-59"
             style="display:inline;stroke:#000000;stroke-width:0.96372944;stroke-miterlimit:4;stroke-dasharray:none" />
          <rect
             x="1287.52"
             y="1097.865"
             width="28.344469"
             height="6.9582772"
             id="rect3763-46"
             style="display:inline;fill:none;stroke:#000000;stroke-width:0.96372944;stroke-miterlimit:4;stroke-dasharray:none" />
          <rect
             x="1315.8845"
             y="1097.8684"
             width="28.344469"
             height="6.9582772"
             id="rect3765-3"
             style="display:inline;stroke:#000000;stroke-width:0.96372944;stroke-miterlimit:4;stroke-dasharray:none" />
          <rect
             x="1344.249"
             y="1097.8684"
             width="28.34347"
             height="6.9582772"
             id="rect3767-4"
             style="display:inline;fill:none;stroke:#000000;stroke-width:0.96372944;stroke-miterlimit:4;stroke-dasharray:none" />
          <rect
             x="1372.6125"
             y="1097.865"
             width="141.71834"
             height="6.9577866"
             id="rect3769-0"
             style="display:inline;stroke:#000000;stroke-width:0.96372944;stroke-miterlimit:4;stroke-dasharray:none" />
          <rect
             x="1230.7921"
             y="1090.8317"
             width="28.34347"
             height="6.9582772"
             id="rect3771-4"
             style="display:inline;stroke:#000000;stroke-width:0.96372944;stroke-miterlimit:4;stroke-dasharray:none" />
          <rect
             x="1259.1566"
             y="1090.8322"
             width="28.34347"
             height="6.9582772"
             id="rect3773-0"
             style="display:inline;fill:none;stroke:#000000;stroke-width:0.96372944;stroke-miterlimit:4;stroke-dasharray:none" />
          <rect
             x="1287.52"
             y="1090.8287"
             width="28.345469"
             height="6.9582772"
             id="rect3775-6"
             style="display:inline;stroke:#000000;stroke-width:0.96372944;stroke-miterlimit:4;stroke-dasharray:none" />
          <rect
             x="1315.8845"
             y="1090.8322"
             width="28.344469"
             height="6.9582772"
             id="rect3777-7"
             style="display:inline;fill:none;stroke:#000000;stroke-width:0.96372944;stroke-miterlimit:4;stroke-dasharray:none" />
          <rect
             x="1344.249"
             y="1090.8322"
             width="28.34347"
             height="6.9582772"
             id="rect3779-1"
             style="display:inline;stroke:#000000;stroke-width:0.96372944;stroke-miterlimit:4;stroke-dasharray:none" />
          <rect
             x="1372.6125"
             y="1090.8287"
             width="141.71935"
             height="6.9577866"
             id="rect3781-5"
             style="display:inline;fill:none;stroke:#000000;stroke-width:0.96372944;stroke-miterlimit:4;stroke-dasharray:none" />
        </g>
        <g
           transform="translate(-4.8075526,-102.46773)"
           id="g3755-2"
           style="display:inline">
          <g
             id="g3304-2">
            <g
               id="g3671">
              <text
                 y="1191.0444"
                 x="1234.5"
                 font-size="12"
                 id="text3783-2"
                 style="font-style:normal;font-variant:normal;font-weight:normal;font-stretch:normal;font-size:13px;font-family:'Gentium Book Basic';-inkscape-font-specification:'Gentium Book Basic'">0</text>
              <text
                 y="1191.0063"
                 x="1373.5"
                 font-size="12"
                 id="text3785-4"
                 style="font-style:normal;font-variant:normal;font-weight:normal;font-stretch:normal;font-size:13px;font-family:'Gentium Book Basic';-inkscape-font-specification:'Gentium Book Basic'">5</text>
              <text
                 y="1191.0762"
                 x="1487.5"
                 font-size="12"
                 id="text3787-8"
                 style="font-style:normal;font-variant:normal;font-weight:normal;font-stretch:normal;font-size:13px;font-family:'Gentium Book Basic';-inkscape-font-specification:'Gentium Book Basic'">10 cm</text>
            </g>
          </g>
          <g
             inkscape:groupmode="layer"
             id="layer7"
             inkscape:label="scale"
             style="display:inline" />
          <text
             xml:space="preserve"
             style="font-style:normal;font-weight:normal;font-size:12px;line-height:125%;font-family:Sans;letter-spacing:0px;word-spacing:0px;fill:#000000;fill-opacity:1;stroke:none"
             x="2077.3782"
             y="1590.157"
             id="text3215-1"
             sodipodi:linespacing="125%"
             transform="translate(3.0762894,36.91539)"><tspan
               sodipodi:role="line"
               id="tspan3217-7"
               x="2077.3782"
               y="1590.157" /></text>
        </g>
      </g>
    </g>
  </g>
  <g
     inkscape:label="Layer 1"
     inkscape:groupmode="layer"
     id="layer1"
     transform="translate(-3.7401828,393.8303)">
    <g
       id="g4910">
      <path
         style="clip-rule:evenodd;fill:none;fill-rule:evenodd;stroke:#000000;stroke-width:1.26999998;stroke-miterlimit:3.86369991"
         inkscape:connector-curvature="0"
         stroke-miterlimit="3.8637"
         d="m 15.857652,225.21831 6.50875,-6.19125 8.5725,-9.36625 4.60375,-6.0325 4.445,-3.96875 5.23875,-7.14375 6.6675,-7.62 1.5875,-3.4925 4.60375,-5.715 3.65125,-5.715 6.19125,-6.0325 1.11125,-2.38125 7.46125,-8.09625 3.33375,-5.3975 5.715,-7.77875 4.60375,-5.715 6.82625,-11.27125 7.143748,-9.04875 10.795,-13.81125 2.2225,-3.81 4.28625,-5.3975 2.8575,-5.08 5.3975,-6.0325 3.65125,-6.82625 5.23875,-5.3975 9.36625,-13.6525 c 0,0 0.4318,-0.61976 1.09982,-1.57734 13.11783,-18.81124 24.66975,-38.59276 37.60343,-57.4929 12.68349,-18.53565 20.97913,-38.81628 32.45612,-57.9374 1.50114,-2.49809 2.81813,-4.91236 2.81813,-4.91236 l 4.28625,-9.04875 2.2225,-7.3025 3.4925,-10.63625 0.9525,-4.1275 1.74625,-9.68375 2.06375,-10.795 0.15875,-4.1275 1.11125,-10.95375 1.905,-17.62125 0.79375,-11.90625 0.47625,-17.30375 -0.47625,-14.76375 -0.15875,-10.16 -1.11125,-10.31875 -0.79375,-13.6525 -0.15875,-9.8425 -0.79375,-3.81 -2.06375,-10.31875 -0.47625,-9.36625 -1.27,-5.23875 -1.11125,-5.3975 -2.54,-9.36625 -1.5875,-6.985 -2.2225,-5.3975 -2.2225,-6.82625 -2.54,-4.92125 -4.28625,-5.23875 -3.33375,-3.4925 -5.23875,-3.175 c 0,0 -0.16891,-0.10922 -0.40386,-0.33401 -9.9695,-9.52119 -23.51405,-7.57047 -31.00959,-16.48841 -4.89585,-5.82422 -5.31241,-13.40739 -4.11353,-20.73021 4.94665,-30.24378 36.67379,-31.58109 61.39942,-35.58413 0.20066,-0.033 0.32258,-0.0483 0.32258,-0.0483 l 284.1625,-0.47625"
         id="path12" />
      <line
         style="clip-rule:evenodd;fill:none;fill-rule:evenodd;stroke:#000000;stroke-width:1.26999998;stroke-miterlimit:3.86369991"
         stroke-miterlimit="3.8637"
         x1="385.42764"
         y1="-393.11295"
         x2="385.11014"
         y2="242.83957"
         id="line14" />
      <path
         style="clip-rule:evenodd;fill-rule:evenodd;stroke:#000000;stroke-width:1.26999998;stroke-miterlimit:3.86369991"
         inkscape:connector-curvature="0"
         stroke-miterlimit="3.8637"
         d="m 508.85641,-356.94715 c 3.46456,-6.01345 7.94131,-11.03122 12.09167,-16.49095 10.58037,-13.92047 16.52778,-27.81554 35.56889,-14.15415 0.72136,0.51816 1.29413,1.00584 1.84277,1.71069 9.73074,12.47394 17.65173,26.81351 7.47268,41.52392 -6.03758,2.93116 -12.56157,5.40639 -18.25371,8.93064 -1.06172,0.92837 -2.28981,2.00406 -2.28981,2.00406 l -4.1275,3.96875 -4.92125,6.6675 -3.4925,5.23875 -1.78562,2.62001 -2.06375,2.73812 -3.29438,3.4925 -1.86563,4.00812 -4.00812,9.525 -2.69875,9.04875 -2.8575,8.5725 -2.54,12.54125 -0.79375,11.1125 -1.42875,13.81125 -1.5875,14.44625 -0.47625,5.08 -1.11125,11.27125 -0.15875,8.09625 -1.5875,7.9375 -0.635,9.68375 0,13.0175 0.79375,12.85875 0.79375,6.50875 0.15875,6.6675 1.905,10.31875 2.54,7.14375 1.11125,2.2225 0.9525,0.15875 0.79375,5.3975 0.635,9.2075 1.11125,7.14375 1.42875,3.96875 0.79375,4.445 2.2225,5.87375 2.54,5.3975 3.175,6.6675 c 0,0 1.19888,2.17932 1.61036,2.92735 8.08863,20.27047 19.78279,39.49065 30.65653,58.41111 11.20267,19.49577 28.44292,37.20719 36.37534,58.44794 0.48641,1.06172 1.05029,2.29235 1.05029,2.29235 l 3.65125,4.28625 3.01625,3.81 1.5875,2.8575 3.175,3.175 2.69875,3.96875 4.60375,5.87375 4.60375,7.3025 4.7625,6.35 5.08,6.50875 2.69875,4.1275 3.4925,3.01625 2.38125,3.175 3.01625,3.81 3.81,4.60375 3.65125,6.19125 1.27,3.81 5.23875,6.35 3.01625,4.1275 6.19125,8.41375 2.06375,2.8575 3.33375,2.54 1.74625,2.8575 2.2225,4.7625 3.33375,3.81 2.06375,1.5875 3.81,3.81 2.54,2.54 1.74625,2.38125 4.445,4.28625 4.7625,5.87375 3.175,5.55625 4.1275,6.0325 4.7625,6.50875 3.175,3.96875 c 0,0 1.30302,1.37922 2.32918,2.53238 8.01751,9.01446 16.5989,17.2339 25.10663,25.78608 -3.77698,14.37005 -10.55243,13.61567 -13.081,20.87499 -4.09829,1.55702 -5.75183,3.91922 -9.33196,5.95757 -2.46761,-2.29235 -4.27736,-5.56514 -6.65734,-7.70001 -18.36674,-16.46809 -20.40001,-5.86486 -35.6362,-35.64382 -2.40284,-4.69519 -4.97967,-9.31672 -8.39597,-13.60297 -5.13461,-6.4389 -11.54049,-12.70635 -17.14373,-18.8214 l -1.78689,-1.79578 c -17.56537,-14.94536 -32.56026,-28.15082 -47.76597,-45.61205 -1.1049,-1.26873 -2.57048,-2.77749 -2.57048,-2.77749 l -4.28625,-8.09625 -4.92125,-8.09625 -3.96875,-7.14375 -3.96875,-9.68375 -2.8575,-6.985 -4.28625,-7.14375 -3.96875,-5.23875 -5.3975,-7.3025 -4.92125,-4.60375 -5.55625,-5.3975 -3.175,-5.715 -2.69875,-4.92125 -3.96875,-10.16 -4.60375,-6.6675 -6.19125,-6.82625 -7.3025,-6.6675 -6.19125,-5.08 -5.23875,-5.55625 -5.23875,-5.08 -3.01625,-6.35 -2.69875,-6.82625 -3.96875,-7.14375 -3.81,-6.19125 -4.28625,-6.19125 -6.985,-9.8425 -4.28625,-5.55625 -3.4925,-4.60375 -3.65125,-7.77875 -3.4925,-8.73125 -3.65125,-9.8425 -2.2225,-7.9375 -0.9525,-11.1125 -2.2225,-9.36625 -2.54,-8.89 0,-4.445 0.47625,-12.3825 -1.11125,-10.16 -0.47625,-9.36625 -0.79375,-15.24 -2.2225,-9.68375 1.27,-10.00125 3.65125,-14.44625 1.5875,-7.46125 1.42875,-10.31875 1.905,-12.54125 2.2225,-11.27125 0.635,-5.08 0.79375,-6.35 0.15875,-3.89001 1.50876,-4.7625 1.35001,-5.55625 1.74625,-5.79501 2.06375,-3.33375 2.54,-5.79501 1.905,-4.84251 2.2225,-4.92125 2.8575,-5.79501 1.74625,-4.92125 1.82626,-5.08 1.82626,-4.60375 2.93751,-4.60375 2.62001,-4.36626 3.09626,-6.82625 2.06375,-4.7625 2.8575,-4.7625 2.2225,-3.57251 2.46126,-5.3975 2.93751,-4.68376 c -0.008,0.005 0.86868,-1.53162 1.73863,-3.04038 z"
         id="path16" />
      <path
         style="clip-rule:evenodd;fill:none;fill-rule:evenodd;stroke:#000000;stroke-width:1.26999998;stroke-miterlimit:3.86369991"
         inkscape:connector-curvature="0"
         stroke-miterlimit="3.8637"
         d="m 511.15765,-264.36669 3.01625,6.6675 1.42875,2.69875 3.96875,3.175 5.3975,2.2225 3.175,1.74625 6.50875,0.3175 c 1.03378,0.2286 1.56337,0.81026 1.5875,1.74625 l -0.15875,2.8575 -0.9525,3.33375 0.15875,1.74625 2.2225,2.2225 0.47625,1.42875 -0.635,1.905 -1.74625,3.81 c 0,0 0.0825,0.87503 0.1651,1.72974 0.30607,13.69441 1.87833,45.10278 -14.54785,50.45456 -2.85877,2.81686 -3.35026,7.88035 -3.13436,11.76909 0.44196,7.94004 4.82727,13.88491 5.19176,20.99691 0.31115,6.09981 -4.10845,9.40308 -4.32435,15.17904 -0.78994,1.68148 -1.86944,2.8067 -3.23596,3.37566 -1.35001,0 -4.24434,0 -4.24434,0"
         id="path18" />
      <path
         style="clip-rule:evenodd;fill:#000000;fill-opacity:0.33333333;fill-rule:evenodd;stroke:#000000;stroke-width:1.26999998;stroke-miterlimit:3.86369991"
         inkscape:connector-curvature="0"
         stroke-miterlimit="3.8637"
         d="m 657.0489,-239.76044 11.58875,2.69875 10.00125,2.06375 c 0,0 7.01548,0 8.58266,0 10.02919,1.76911 41.96207,20.84705 48.3616,28.62199 2.0701,2.51587 2.77495,6.45414 3.47853,9.53008 4.38277,19.13509 -21.16074,46.30674 -35.01771,57.3659 -33.60039,26.82113 -60.41644,18.36039 -99.31273,-14.15288 -0.53848,-0.44958 -0.8636,-0.72136 -0.8636,-0.72136 l -5.08,-6.19125 -3.4925,-4.92125 0,-3.65125 -1.11125,-2.8575 2.2225,-12.3825 3.96875,-12.22375 5.08,-10.4775 6.19125,-9.8425 6.0325,-4.92125 3.65125,-4.7625 3.65125,-1.42875 7.14375,-5.08 9.2075,-3.4925 9.8425,-1.905 5.87375,-1.26873 z"
         id="path20" />
      <line
         style="clip-rule:evenodd;fill:none;fill-rule:evenodd;stroke:#000000;stroke-width:1.26999998;stroke-miterlimit:3.86369991"
         stroke-miterlimit="3.8637"
         x1="517.50763"
         y1="-258.49295"
         x2="517.50763"
         y2="-269.28793"
         id="line32" />
      <line
         style="clip-rule:evenodd;fill:none;fill-rule:evenodd;stroke:#000000;stroke-width:1.26999998;stroke-miterlimit:3.86369991"
         stroke-miterlimit="3.8637"
         x1="517.03137"
         y1="-111.0142"
         x2="517.03137"
         y2="-121.8092"
         id="line34" />
      <line
         style="clip-rule:evenodd;fill:none;fill-rule:evenodd;stroke:#000000;stroke-width:1.26999998;stroke-miterlimit:3.86369991"
         stroke-miterlimit="3.8637"
         x1="551.94244"
         y1="-245.57578"
         x2="541.17407"
         y2="-246.32762"
         id="line36" />
      <line
         style="clip-rule:evenodd;fill:none;fill-rule:evenodd;stroke:#000000;stroke-width:1.26999998;stroke-miterlimit:3.86369991"
         stroke-miterlimit="3.8637"
         x1="533.80682"
         y1="-122.64484"
         x2="523.11597"
         y2="-124.14853"
         id="line38" />
      <line
         style="clip-rule:evenodd;fill:none;fill-rule:evenodd;stroke:#000000;stroke-width:1.26999998;stroke-miterlimit:3.86369991"
         stroke-miterlimit="3.8637"
         x1="667.05017"
         y1="-244.20544"
         x2="667.05017"
         y2="-255.00044"
         id="line40" />
      <line
         style="clip-rule:evenodd;fill:none;fill-rule:evenodd;stroke:#000000;stroke-width:1.26999998;stroke-miterlimit:3.86369991"
         stroke-miterlimit="3.8637"
         x1="669.59015"
         y1="-105.14045"
         x2="669.59015"
         y2="-115.93545"
         id="line42" />
      <line
         style="clip-rule:evenodd;fill:none;fill-rule:evenodd;stroke:#000000;stroke-width:1.26999998;stroke-miterlimit:3.86369991"
         stroke-miterlimit="3.8637"
         x1="4.2193718"
         y1="239.45122"
         x2="11.302162"
         y2="231.30544"
         id="line44" />
      <line
         style="clip-rule:evenodd;fill:none;fill-rule:evenodd;stroke:#000000;stroke-width:1.26999998;stroke-miterlimit:3.86369991"
         stroke-miterlimit="3.8637"
         x1="726.48615"
         y1="267.19565"
         x2="719.69171"
         y2="258.806"
         id="line46" />
      <line
         style="clip-rule:evenodd;fill:none;fill-rule:evenodd;stroke:#000000;stroke-width:1.26999998;stroke-miterlimit:3.86369991"
         stroke-miterlimit="3.8637"
         x1="750.93365"
         y1="241.1606"
         x2="744.13916"
         y2="232.771"
         id="line48" />
    </g>
  </g>
  <style
     id="style5430"
     type="text/css">

@font-face{font-family:'ArialMT';src:url(&quot;data:;base64,\
T1RUTwADACAAAQAQQ0ZGIOJhRYsAAACgAAAEdkdQT1Ov/L6JAAAFGAAAAFpjbWFwATIBOQAAADwA\
AABkAAAAAQAAAAMAAAAMAAQAWAAAABIAEAADAAIAIAAtADEAMwA1ADcAQgBQ//8AAAAgAC0AMQAz\
ADUANwBCAE/////h/9X/0v/R/9D/z//F/7kAAQAAAAAAAAAAAAAAAAAAAAAAAAEABAIAAQEBCEFy\
aWFsTVQAAQEBO/gbAfgYBPgcDBUc+q/9LRwQABwIDAUeoABIgoEl/4uLHqAASIKBJf+LiwwH9ykP\
9zwQ9z4RkxwEbhIAAgEBMj9BcmlhbCBpcyBhIHRyYWRlbWFyayBvZiBUaGUgTW9ub3R5cGUgQ29y\
cG9yYXRpb24uL0ZTVHlwZSA4IGRlZgAAAAABAA4AEgAUABYAGAAjADAAMQAAAAoCAAEAGwAeACwA\
VgEVAZoB4AKXA0sDrMr3lBYcBQD6lBz7AAf+dKsV+lQcBMD+VAYO/hwO/avM+EwV90n4vftJBw75\
jxb7SBwEewZgYlJhRWJEYkxsU3YI90IH8LrjxdbO1s7BzarKCPcIBg7h+BcV90ijoCWuQr1eGV68\
yHTSG+DSqMbGH8XGqNPiGt5wz1XBHsBVRqY4G2lhhH5YH5/3MgWKl5WKkhvY0J+zyB/Is6rJ3hrN\
dcJeth62XlKhRBtFUXVfXB9cX21JfjP7SKsYofcNvejZzgjN2eys9wgb29V6ac4fzmi/XK9QCK5Q\
nUxIGkx6UWlXHmlXWWJIbOJ3zmK7TAi7TKM8LBr7FFz7AC4yHjIu+wpe+yMb+xUhsdg2HzbYWu5/\
9w4IDuD4FBX3UZuZL6xGvl0ZXL7IdNMb4tSszMcfx8yp4vcAGvJu3FLGHsZRP6kuG1FXfnFcH1xw\
Z2lwYfs9oRj3IvmFBflt+0D83QY8/B4FyOPnquwb9xT3AF8y4x/jMrf7BvsfGvsZZPsGPioe+wst\
+xRQ+zcb+xn7AbDWNx821lvuf/cPCA7sHAT6FfdB+kn7IAcuKC77GDD7OS/7OUT7PVn7Qmf7D3T7\
GoH7Jgj7TQaN9wei9yC29ze29zfK9zLc9yzc9yvh9xTm8wgOIPcqFhwFuvi6B/cE5Xxuzx/ObcBd\
sk4IsU2eSkgaTHpQaVQeaVRYXkZp5HHPX7tMCLpMo0E2GkZ9TG5QHm5QZ11ga2BrVnNLewh6SjyD\
Lhv8AfnmFffRBuHJkZawH7yasaOkrQikrZe2vhq8f7Z0sB50sGmkYJkImGBAkiIb+7kG/vQE+AEG\
yreNkKQfuJOwmKmeqZ6kpp6vCJ6ulbS6GsJ9um+0Hm+zZKdanAibWUOTLhv75wYO9wzu+V4V94fM\
91P3F/ceHvcd9xf3PND3Yxv3G/cOa0r3AR/3AUreMcT7BwjE+win+xf7Jxr7KW37GU/7CR5P+wk2\
MvsCTwhO+wL7C237Exv7HvsPrM77AR/7Ac455lP3BwhT9wdv9w73FRr3XIgV+0W7+x/qJh4l6vcL\
WPcjG/cm9wy+8uof6fK69yX3URr3C3f0Y+QeYuRQ0D68CLw9NKMqG/sd+wpcLSgfKCxZ+zH7cRoO\
IPcyFhwFuvi9B+zWhoK+H9N/x3S8arxpslypTgioTppJQhr7EWMiPDUeNDz7JGD7Yxv8DPzoBvmV\
BPgPBvcR5KK6wB/AuqXM4BrIfMBstx5stmKoWJkIlGpPjzMb/AsGDhwEcxQcBcEVAAAAAQAAAAoA\
HgAsAAFERkxUAAgABAAAAAD//wABAAAAAWtlcm4ACAAAAAEAAAABAAQAAgAAAAEACAABABoABAAA\
AAIADgAUAAEAA/9oAAEAAf/bAAEAAgADAAkAAA==&quot;)}

</style>
  <style
     id="style6533"
     type="text/css">

@font-face{font-family:'ArialMT';src:url(&quot;data:;base64,\
T1RUTwADACAAAQAQQ0ZGIOHrJ9IAAACwAAAHv0dQT1OvQL7DAAAIcAAAAGRjbWFwAdcB2gAAADwA\
AAB0AAAAAQAAAAMAAAAMAAQAaAAAABYAEAADAAYAIAAtADIAOAA6AEIATwBSAGMAbf//AAAAIAAs\
ADEANQA6AEEATwBSAGMAbf///+H/1v/T/9H/0P/K/77/vP+s/6MAAQAAAAAAAAAAAAAAAAAAAAAA\
AAAAAAABAAQCAAEBAQhBcmlhbE1UAAEBATv4GwH4GAT4HAwVHPqv/S0cEAAcCAwFHqAASIKBJf+L\
ix6gAEiCgSX/i4sMB/cpD/dIEPdKEZIcB7gSAAIBATI/QXJpYWwgaXMgYSB0cmFkZW1hcmsgb2Yg\
VGhlIE1vbm90eXBlIENvcnBvcmF0aW9uLi9GU1R5cGUgOCBkZWYAAAEAAQAADQEAEgEAFgMAGwAA\
IgEAMAAAMwAARAAATgAAAAARAgABABwAHgBGAFMAfQEHAYwCVAKaA3oDlAPTBIsFPwXMBk8G3Pnw\
95QWHAUA+pQc+wAH/nSrFfpUHATA/lQGDiAOIPdKFvdh92H7YQdAfk5wXR5wXGFnUXJZ2BixnKej\
naydq5W5jcgIDpHM+EwV90n4vftJBw75jxb7SBwEewZgYlJhRWJEYkxsU3YI90IH8LrjxdbO1s7B\
zarKCPcIBg76m/dBFftB/l0HiraStZqzpM2yzMLLwcvZ1fLf9zP3F/cA8sPYCMPXp9PPGtJyyFi8\
HrxYSKM5GzRGcVdXH1dXcUOKL/tNnhiY9x669N7UCNPe9wOv9x8b9yH3A2Q93R/dPbQq+wcaUH9S\
c1Iec1JjUFRMU0wuNfsV+wH7ADBGTmxrbGpya3dqCA7g+BQV91GbmS+sRr5dGVy+yHTTG+LUrMzH\
H8fMqeL3ABrybtxSxh7GUT+pLhtRV35xXB9ccGdpcGH7PaEY9yL5hQX5bftA/N0GPPweBcjj56rs\
G/cU9wBfMuMf4zK3+wb7Hxr7GWT7Bj4qHvsLLfsUUPs3G/sZ+wGw1jcfNtZb7n/3DwgO+o/65xX7\
R3170nS+bqsZvlpPpUQbUlh7a2AfUmJfTmo8ajx6+wWK+ye2zcC8yqsIq8rMm9Ab9wzxXzPgH98y\
tfsG+yAaL3c2ZDweYzxUTkZhCGFGPHYzG/sq+w7C9wMsHyz3Alz3SveRGvevv/di9PcVHvcE5vcP\
w/cvG/cH6mtK1R/USrcymvsGCP1z/QwVTZhQplIepVKwYLpuCG26vXy/G9fMqsjCH8LIpt/0GvBw\
21XGHsVVR6g5GzpGblFSH1JQbz8sGg7sHAT6FfdB+kn7IAcuKC77GDD7OS/7OUT7PVn7Qmf7D3T7\
GoH7Jgj7TQaN9wei9yC29ze29zfK9zLc9yzc9yvh9xTm8wgO9/75rxVAplSyZ74IZ755x9Ia9rHk\
2NQe1Njxr/cTG/cU8mZB2R/ZQLIxIBpHeVBoWR5nWFVkQnDlbtBbukoIukqiPTAa+xFfITI2HjYy\
+whg+yUb+yX7CLbhMh8y4F/29xQa6qPbvMweu8vQt+SiCGf3xRVGoVK4Xx5fuMV10hvQxKG3uB+3\
tqHByhrNdMNeuB64XVKhRxtGUnVfXh9eX3RWThpR/TkVWJdZpFseo1uvZrtxCHC7v37CG+HSp8LD\
H8PCp9LgGuJu0lLEHsRRQ6c0GzZFb1NUH1NTb0U3Gg4g90357RX3Yfdh+2EH+2H97RX3Yfdh+2EH\
DvlGiBb4xxwFugX3ZQb47Bz6RgX7cQb7P/hQBfz5Bvs1/FAF92347hX4hQb7LfgqXPcPafF02hl4\
LXEuaS4IDvlG9yoWHAW6+LoH9wTlfG7PH85twF2yTgixTZ5KSBpMelBpVB5pVFheRmnkcc9fu0wI\
ukyjQTYaRn1MblAeblBnXWBrYGtWc0t7CHpKPIMuG/wB+eYV99EG4cmRlrAfvJqxo6StCKStl7a+\
Grx/tnSwHnSwaaRgmQiYYECSIhv7uQb+9AT4AQbKt42QpB+4k7CYqZ6pnqSmnq8Inq6VtLoawn26\
b7Qeb7Nkp1qcCJtZQ5MuG/vnBg76Ke75XhX3h8z3U/cX9x4e9x33F/c80PdjG/cb9w5rSvcBH/cB\
St4xxPsHCMT7CKf7F/snGvspbfsZT/sJHk/7CTYy+wJPCE77AvsLbfsTG/se+w+szvsBH/sBzjnm\
U/cHCFP3B2/3DvcVGvdciBX7Rbv7H+omHiXq9wtY9yMb9yb3DL7y6h/p8rr3JfdRGvcLd/Rj5B5i\
5FDQPrwIvD00oyob+x37ClwtKB8oLFn7MftxGg75t/c1FhwFuvkeB/cX7n5xzx/PcMFdtEgItEif\
QjoaI2kzSEQeSEQjXfsheL5ysnOmc8RXwEq+PfeT/CMY+4gG+1b3xVLjXc5muhlmumurbp5unm2Y\
bZIIkHVnjVkb+3X9Hwb5xwT4NQbk0JSevR+9nbGopbQIpbOYt7oa0HLEWbgeuFg8ofsBG/xkBg73\
8PnQ+BkV90V0ePsOWSw8RhlGOylo+wgb+yX7CbvqMx8y6l/3HPdFGvcHnu+x4R6x4cXM2bYIttjg\
oOYb9wfqblHUH9RQujigIPtDcBh60m7BYa8Ir2BYnU8bMEJrSlIfUkpvJPshGvsjpiTCSh5KwtJr\
4xvSxqG2uh+6tqnOmOUIDvqa9xsW+rr3NfspB6y/uLXCqwiqwsqb0hvay3tqvh+9aq5eoFAI9xDf\
9wHJ9xsb9NxuUcQfxFCnMfsNGv1t+0f5MQfThb+Aqx5/qnalbJ4InmxnlWIbQE1yWlofWllyO/sB\
Gvz9+0j5RgfbfMdusx6zblufSBtYXX5wYB9gcGtkeFgIeFiBQSoa/LsHDhwEcxT5OBUAAAEAAAAK\
AB4ALAABREZMVAAIAAQAAAAA//8AAQAAAAFrZXJuAAgAAAABAAAAAQAEAAIAAAABAAgAAQAiAAQA\
AAADABAAFgAcAAEAC/+PAAEABP9oAAEAAf+PAAEAAwABAAQACw==&quot;)}

</style>
</svg>
