<?xml version="1.0" encoding="UTF-8" standalone="no"?>
<!-- Created with Inkscape (http://www.inkscape.org/) -->

<svg
   xmlns:dc="http://purl.org/dc/elements/1.1/"
   xmlns:cc="http://creativecommons.org/ns#"
   xmlns:rdf="http://www.w3.org/1999/02/22-rdf-syntax-ns#"
   xmlns:svg="http://www.w3.org/2000/svg"
   xmlns="http://www.w3.org/2000/svg"
   xmlns:sodipodi="http://sodipodi.sourceforge.net/DTD/sodipodi-0.dtd"
   xmlns:inkscape="http://www.inkscape.org/namespaces/inkscape"
   version="1.1"
   id="svg2"
   xml:space="preserve"
   width="793.70135"
   height="1122.52"
   viewBox="0 0 793.70135 1122.52"
   sodipodi:docname="B6-BoKeWTer-Colors_chart.svg"
   inkscape:version="0.92.3 (2405546, 2018-03-11)"><metadata
     id="metadata8"><rdf:RDF><cc:Work
         rdf:about=""><dc:format>image/svg+xml</dc:format><dc:type
           rdf:resource="http://purl.org/dc/dcmitype/StillImage" /><dc:title></dc:title></cc:Work></rdf:RDF></metadata><defs
     id="defs6"><clipPath
       clipPathUnits="userSpaceOnUse"
       id="clipPath18"><path
         d="M 580.053,643.914 H 15 v 66.523 h 565.053 z"
         id="path16"
         inkscape:connector-curvature="0" /></clipPath><linearGradient
       x1="0"
       y1="0"
       x2="1"
       y2="0"
       gradientUnits="userSpaceOnUse"
       gradientTransform="matrix(565.05322,0,0,-565.05322,14.999512,677.17578)"
       spreadMethod="pad"
       id="linearGradient30"><stop
         style="stop-opacity:1;stop-color:#c1c0c1"
         offset="0"
         id="stop24" /><stop
         style="stop-opacity:1;stop-color:#c1c0c1"
         offset="0.06206327"
         id="stop26" /><stop
         style="stop-opacity:1;stop-color:#706d6e"
         offset="1"
         id="stop28" /></linearGradient><clipPath
       clipPathUnits="userSpaceOnUse"
       id="clipPath42"><path
         d="M 580.052,231.546 H 15 v 66.523 h 565.052 z"
         id="path40"
         inkscape:connector-curvature="0" /></clipPath><linearGradient
       x1="0"
       y1="0"
       x2="1"
       y2="0"
       gradientUnits="userSpaceOnUse"
       gradientTransform="matrix(565.05225,0,0,-565.05225,14.999512,264.80762)"
       spreadMethod="pad"
       id="linearGradient50"><stop
         style="stop-opacity:1;stop-color:#d13823"
         offset="0"
         id="stop46" /><stop
         style="stop-opacity:1;stop-color:#a92116"
         offset="1"
         id="stop48" /></linearGradient><clipPath
       clipPathUnits="userSpaceOnUse"
       id="clipPath62"><path
         d="M 580.053,428.13 H 15 v 66.523 h 565.053 z"
         id="path60"
         inkscape:connector-curvature="0" /></clipPath><linearGradient
       x1="0"
       y1="0"
       x2="1"
       y2="0"
       gradientUnits="userSpaceOnUse"
       gradientTransform="matrix(565.05322,0,0,-565.05322,14.999512,461.3916)"
       spreadMethod="pad"
       id="linearGradient72"><stop
         style="stop-opacity:1;stop-color:#a74424"
         offset="0"
         id="stop66" /><stop
         style="stop-opacity:1;stop-color:#a74424"
         offset="0.00549316"
         id="stop68" /><stop
         style="stop-opacity:1;stop-color:#752e17"
         offset="1"
         id="stop70" /></linearGradient><clipPath
       clipPathUnits="userSpaceOnUse"
       id="clipPath84"><path
         d="M 580.053,748.114 H 15 v 66.522 h 565.053 z"
         id="path82"
         inkscape:connector-curvature="0" /></clipPath><linearGradient
       x1="0"
       y1="0"
       x2="1"
       y2="0"
       gradientUnits="userSpaceOnUse"
       gradientTransform="matrix(565.05322,0,0,-565.05322,14.999512,781.375)"
       spreadMethod="pad"
       id="linearGradient92"><stop
         style="stop-opacity:1;stop-color:#423e3f"
         offset="0"
         id="stop88" /><stop
         style="stop-opacity:1;stop-color:#231f20"
         offset="1"
         id="stop90" /></linearGradient><clipPath
       clipPathUnits="userSpaceOnUse"
       id="clipPath104"><path
         d="M 580.053,18.716 H 15 v 66.523 h 565.053 z"
         id="path102"
         inkscape:connector-curvature="0" /></clipPath><linearGradient
       x1="0"
       y1="0"
       x2="1"
       y2="0"
       gradientUnits="userSpaceOnUse"
       gradientTransform="matrix(565.05322,0,0,-565.05322,14.999512,51.977539)"
       spreadMethod="pad"
       id="linearGradient112"><stop
         style="stop-opacity:1;stop-color:#fffde0"
         offset="0"
         id="stop108" /><stop
         style="stop-opacity:1;stop-color:#f4eb9c"
         offset="1"
         id="stop110" /></linearGradient><clipPath
       clipPathUnits="userSpaceOnUse"
       id="clipPath124"><path
         d="M 580.053,122.915 H 15 v 66.523 h 565.053 z"
         id="path122"
         inkscape:connector-curvature="0" /></clipPath><linearGradient
       x1="0"
       y1="0"
       x2="1"
       y2="0"
       gradientUnits="userSpaceOnUse"
       gradientTransform="matrix(565.05322,0,0,-565.05322,14.999512,156.17676)"
       spreadMethod="pad"
       id="linearGradient134"><stop
         style="stop-opacity:1;stop-color:#f8bc93"
         offset="0"
         id="stop128" /><stop
         style="stop-opacity:1;stop-color:#f8bc93"
         offset="0.0164795"
         id="stop130" /><stop
         style="stop-opacity:1;stop-color:#df996b"
         offset="1"
         id="stop132" /></linearGradient><clipPath
       clipPathUnits="userSpaceOnUse"
       id="clipPath146"><path
         d="M 0,841.89 H 595.276 V 0 H 0 Z"
         id="path144"
         inkscape:connector-curvature="0" /></clipPath><clipPath
       clipPathUnits="userSpaceOnUse"
       id="clipPath170"><path
         d="M 580.053,536.789 H 15 v 66.523 h 565.053 z"
         id="path168"
         inkscape:connector-curvature="0" /></clipPath><linearGradient
       x1="0"
       y1="0"
       x2="1"
       y2="0"
       gradientUnits="userSpaceOnUse"
       gradientTransform="matrix(565.05322,0,0,-565.05322,14.999512,570.05029)"
       spreadMethod="pad"
       id="linearGradient178"><stop
         style="stop-opacity:1;stop-color:#bf935b"
         offset="0"
         id="stop174" /><stop
         style="stop-opacity:1;stop-color:#855333"
         offset="1"
         id="stop176" /></linearGradient><clipPath
       clipPathUnits="userSpaceOnUse"
       id="clipPath190"><path
         d="M 580.053,330.148 H 15 v 66.523 h 565.053 z"
         id="path188"
         inkscape:connector-curvature="0" /></clipPath><linearGradient
       x1="0"
       y1="0"
       x2="1"
       y2="0"
       gradientUnits="userSpaceOnUse"
       gradientTransform="matrix(565.05322,0,0,-565.05322,14.999512,363.41016)"
       spreadMethod="pad"
       id="linearGradient200"><stop
         style="stop-opacity:1;stop-color:#db7f0e"
         offset="0"
         id="stop194" /><stop
         style="stop-opacity:1;stop-color:#db7f0e"
         offset="0.00549316"
         id="stop196" /><stop
         style="stop-opacity:1;stop-color:#ca6011"
         offset="1"
         id="stop198" /></linearGradient><clipPath
       clipPathUnits="userSpaceOnUse"
       id="clipPath212"><path
         d="M 0,841.89 H 595.276 V 0 H 0 Z"
         id="path210"
         inkscape:connector-curvature="0" /></clipPath></defs><sodipodi:namedview
     pagecolor="#ffffff"
     bordercolor="#666666"
     borderopacity="1"
     objecttolerance="10"
     gridtolerance="10"
     guidetolerance="10"
     inkscape:pageopacity="0"
     inkscape:pageshadow="2"
     inkscape:window-width="1596"
     inkscape:window-height="825"
     id="namedview4"
     showgrid="false"
     inkscape:zoom="0.21024124"
     inkscape:cx="-449.79578"
     inkscape:cy="561.26001"
     inkscape:window-x="0"
     inkscape:window-y="54"
     inkscape:window-maximized="0"
     inkscape:current-layer="g10" /><g
     id="g10"
     inkscape:groupmode="layer"
     inkscape:label="B6-BoKeWTer-Colors_chart"
     transform="matrix(1.3333333,0,0,-1.3333333,0,1122.52)"><g
       id="g12"><g
         id="g14"
         clip-path="url(#clipPath18)"><g
           id="g20"><g
             id="g22"><path
               d="M 580.053,643.914 H 15 v 66.523 h 565.053 z"
               style="fill:url(#linearGradient30);stroke:none"
               id="path32"
               inkscape:connector-curvature="0" /></g></g></g></g><path
       d="M 580.053,643.914 H 15 v 66.523 h 565.053 z"
       style="fill:none;stroke:#240f0f;stroke-width:0.73799998;stroke-linecap:butt;stroke-linejoin:miter;stroke-miterlimit:4;stroke-dasharray:none;stroke-opacity:1"
       id="path34"
       inkscape:connector-curvature="0" /><g
       id="g36"><g
         id="g38"
         clip-path="url(#clipPath42)"><g
           id="g44"><path
             d="M 580.052,231.546 H 15 v 66.523 h 565.052 z"
             style="fill:url(#linearGradient50);stroke:none"
             id="path52"
             inkscape:connector-curvature="0" /></g></g></g><path
       d="M 580.052,231.546 H 15 v 66.523 h 565.052 z"
       style="fill:none;stroke:#231f20;stroke-width:0.73799998;stroke-linecap:butt;stroke-linejoin:miter;stroke-miterlimit:4;stroke-dasharray:none;stroke-opacity:1"
       id="path54"
       inkscape:connector-curvature="0" /><g
       id="g56"><g
         id="g58"
         clip-path="url(#clipPath62)"><g
           id="g64"><path
             d="M 580.053,428.13 H 15 v 66.523 h 565.053 z"
             style="fill:url(#linearGradient72);stroke:none"
             id="path74"
             inkscape:connector-curvature="0" /></g></g></g><path
       d="M 580.053,428.13 H 15 v 66.523 h 565.053 z"
       style="fill:none;stroke:#231f20;stroke-width:0.73799998;stroke-linecap:butt;stroke-linejoin:miter;stroke-miterlimit:4;stroke-dasharray:none;stroke-opacity:1"
       id="path76"
       inkscape:connector-curvature="0" /><g
       id="g78"><g
         id="g80"
         clip-path="url(#clipPath84)"><g
           id="g86"><path
             d="M 580.053,748.114 H 15 v 66.522 h 565.053 z"
             style="fill:url(#linearGradient92);stroke:none"
             id="path94"
             inkscape:connector-curvature="0" /></g></g></g><path
       d="M 580.053,748.114 H 15 v 66.522 h 565.053 z"
       style="fill:none;stroke:#231f20;stroke-width:0.73799998;stroke-linecap:butt;stroke-linejoin:miter;stroke-miterlimit:4;stroke-dasharray:none;stroke-opacity:1"
       id="path96"
       inkscape:connector-curvature="0" /><g
       id="g98"><g
         id="g100"
         clip-path="url(#clipPath104)"><g
           id="g106"><path
             d="M 580.053,18.716 H 15 v 66.523 h 565.053 z"
             style="fill:url(#linearGradient112);stroke:none"
             id="path114"
             inkscape:connector-curvature="0" /></g></g></g><path
       d="M 580.053,18.716 H 15 v 66.523 h 565.053 z"
       style="fill:none;stroke:#231f20;stroke-width:0.73799998;stroke-linecap:butt;stroke-linejoin:miter;stroke-miterlimit:4;stroke-dasharray:none;stroke-opacity:1"
       id="path116"
       inkscape:connector-curvature="0" /><g
       id="g118"><g
         id="g120"
         clip-path="url(#clipPath124)"><g
           id="g126"><path
             d="M 580.053,122.915 H 15 v 66.523 h 565.053 z"
             style="fill:url(#linearGradient134);stroke:none"
             id="path136"
             inkscape:connector-curvature="0" /></g></g></g><path
       d="M 580.053,122.915 H 15 v 66.523 h 565.053 z"
       style="fill:none;stroke:#231f20;stroke-width:0.73799998;stroke-linecap:butt;stroke-linejoin:miter;stroke-miterlimit:4;stroke-dasharray:none;stroke-opacity:1"
       id="path138"
       inkscape:connector-curvature="0" /><g
       id="g140"><g
         id="g142"
         clip-path="url(#clipPath146)"><text
           transform="matrix(1,0,0,-1,14.9995,827.0811)"
           style="font-variant:normal;font-weight:normal;font-stretch:normal;font-size:12px;font-family:'Myriad Pro';-inkscape-font-specification:MyriadPro-Regular;writing-mode:lr-tb;fill:#231f20;fill-opacity:1;fill-rule:nonzero;stroke:none"
           id="text162"><tspan
             x="0 6.6599998 13.248 16.056 19.98 22.524 26.639999 29.184 33.936001 39.312 45.816002 54.599998 60.383999 64.416 69.552002 72.096001 76.211998 78.755997 83.508003 86.316002 91.919998 97.704002"
             y="0"
             sodipodi:role="line"
             id="tspan148">noir / schwarz / siyah</tspan><tspan
             x="0 6.6360002 10.608 13.416 18.167999 20.712 24.827999 27.372 34.007999 37.872002 43.655998 50.268002 52.812 56.928001 59.472 66.108002 70.080002"
             y="106.164"
             sodipodi:role="line"
             id="tspan150">gris / grau / gri</tspan><tspan
             x="0 6.8280001 10.752 17.364 24.024 26.568001 30.684 33.228001 40.056 43.919998 49.703999 56.316002 62.976002 65.519997 69.636002 72.18 78.024002 83.807999 90.311996 95.963997 101.976 105.78 111.792 118.452 125.088"
             y="207.228"
             sodipodi:role="line"
             id="tspan152">brun / braun / kahverengi</tspan><tspan
             x="0 3.8039999 10.392 17.004 23.712 29.724001 32.268002 36.383999 38.928001 42.731998 49.32 53.292 55.835999 59.952 62.495998 68.328003 71.136002 75.108002 85.115997 87.924004 93.059998"
             y="518.31598"
             sodipodi:role="line"
             id="tspan154">rouge / rot / kırmızı</tspan><tspan
             x="0 6.8280001 10.8 13.608 20.364 26.976 32.987999 35.532001 39.647999 42.192001 47.327999 50.136002 56.147999 62.855999 68.867996 71.699997 75.503998 82.092003"
             y="323.70001"
             sodipodi:role="line"
             id="tspan156">brique / ziegelrot</tspan><tspan
             x="0 4.7519999 10.536 17.148001 27.156 33.743999 40.403999 42.948002 47.063999 49.608002 52.439999 58.223999 63.599998 70.260002 75.012001 78.515999 84.300003 88.272003 95.099998 97.907997 104.616 107.16"
             y="624.75598"
             sodipodi:role="line"
             id="tspan158">saumon / lachsfarbig /</tspan><tspan
             x="0 6.9239998 10.728 16.74 26.747999 32.759998 35.304001 39.419998 41.964001 47.34 51.144001 57.155998 67.164001 73.176003 75.720001 79.835999 87.468002 93.251999 98.615997 101.424 107.052 109.596 114.348 120.132 124.104"
             y="725.82001"
             sodipodi:role="line"
             id="tspan160">Crème / creme / açık sarı</tspan></text>
</g></g><g
       id="g164"><g
         id="g166"
         clip-path="url(#clipPath170)"><g
           id="g172"><path
             d="M 580.053,536.789 H 15 v 66.523 h 565.053 z"
             style="fill:url(#linearGradient178);stroke:none"
             id="path180"
             inkscape:connector-curvature="0" /></g></g></g><path
       d="M 580.053,536.789 H 15 v 66.523 h 565.053 z"
       style="fill:none;stroke:#231f20;stroke-width:0.73799998;stroke-linecap:butt;stroke-linejoin:miter;stroke-miterlimit:4;stroke-dasharray:none;stroke-opacity:1"
       id="path182"
       inkscape:connector-curvature="0" /><g
       id="g184"><g
         id="g186"
         clip-path="url(#clipPath190)"><g
           id="g192"><path
             d="M 580.053,330.148 H 15 v 66.523 h 565.053 z"
             style="fill:url(#linearGradient200);stroke:none"
             id="path202"
             inkscape:connector-curvature="0" /></g></g></g><path
       d="M 580.053,330.148 H 15 v 66.523 h 565.053 z"
       style="fill:none;stroke:#231f20;stroke-width:0.73799998;stroke-linecap:butt;stroke-linejoin:miter;stroke-miterlimit:4;stroke-dasharray:none;stroke-opacity:1"
       id="path204"
       inkscape:connector-curvature="0" /><g
       id="g206"><g
         id="g208"
         clip-path="url(#clipPath212)"><text
           transform="matrix(1,0,0,-1,14.9995,405.4072)"
           style="font-variant:normal;font-weight:normal;font-stretch:normal;font-size:12px;font-family:'Myriad Pro';-inkscape-font-specification:MyriadPro-Regular;writing-mode:lr-tb;fill:#231f20;fill-opacity:1;fill-rule:nonzero;stroke:none"
           id="text216"><tspan
             x="0 6.5879998 10.452 16.236 22.896 29.604 35.616001 38.16 42.276001 48.863998 52.728001 58.512001 65.171997 71.879997 77.891998 80.435997 84.552002 87.096001 93.924004 100.512 104.724 108.696 114.48 120.324 126.108 128.94 131.48399 135.28799 141.3 147.96001 154.59599"
             y="0"
             sodipodi:role="line"
             id="tspan214">orange /orange / portakal rengi</tspan></text>
</g></g></g></svg>