<?xml version="1.0" encoding="UTF-8"?><svg onload="createPlot()" preserveAspectRatio="xMinYMin" zoomAndPan="magnify" height="488.051pt" width="509.400pt" xmlns:ev="http://www.w3.org/2001/xml-events" xmlns:xlink="http://www.w3.org/1999/xlink" xmlns="http://www.w3.org/2000/svg" version="1.1" id="top" viewBox="0 0 509.400 488.051">
   <defs id="definitions">
   <filter filterUnits="userSpaceOnUse" id="Shadow">
    <feGaussianBlur result="blur" stdDeviation="4" in="SourceAlpha"/>
    <feOffset result="offsetBlurredAlpha" dy="4" dx="4" in="blur"/>
    <feMerge>
     <feMergeNode in="offsetBlurredAlpha"/>
     <feMergeNode in="SourceGraphic"/>
    </feMerge> 
   </filter>    
    <filter filterUnits="objectBoundingBox" height="140%" width="140%" y="-20%" x="-20%" id="Correlation1">
     <feGaussianBlur result="blur" stdDeviation="7" in="SourceGraphic"/>
     <feColorMatrix values="0 0 0  5.00 -2.00
               0 0 0 -2.50  2.50
               0 0 0  0.00  0.00
               0 0 0  2.50  0.00" in="blur" type="matrix"/>
    </filter>    
    <filter filterUnits="objectBoundingBox" height="140%" width="140%" y="-20%" x="-20%" id="Correlation2">
     <feGaussianBlur result="blur" stdDeviation="7" in="SourceGraphic"/>
     <feGaussianBlur result="opacity" stdDeviation="7" in="SourceAlpha"/>
     <feColorMatrix values="0 0 0  5.00 -2.00
               0 0 0 -2.50  2.50
               0 0 0  0.00  0.00
               0 0 0  2.50  0.00" result="newcolor" in="blur" type="matrix"/>
     <feSpecularLighting result="specularOut" lighting-color="white" specularExponent="20" specularConstant="1" surfaceScale="5" in="opacity">
      <feDistantLight elevation="30" azimuth="225"/>
     </feSpecularLighting>
     <feComposite result="litPaint" k4="0" k3="1" k2="1" k1="0" operator="arithmetic" in2="specularOut" in="newcolor"/>
    </filter>
    <pattern viewBox="0 0 5 5" height="5" width="5" y="0" x="0" patternUnits="userSpaceOnUse" id="Sequence">
    </pattern>    
    <pattern viewBox="0 0 5 5" height="5" width="5" y="0" x="0" patternUnits="userSpaceOnUse" id="U_Sequence">
     <line style="stroke-width:1.5;stroke:black" y2="-2.5" y1="5" x2="5" x1="-2.5"/>
     <line style="stroke-width:1.5;stroke:black" y2="0" y1="7.5" x2="7.5" x1="0"/>
    </pattern>    
    <pattern viewBox="0 0 5 5" height="5" width="5" y="0" x="0" patternUnits="userSpaceOnUse" id="D_Sequence">
     <line style="stroke-width:1;stroke:black" y2="7.5" y1="-2.5" x2="7.5" x1="-2.5"/>
     <line style="stroke-width:1;stroke:black" y2="-2.5" y1="7.5" x2="7.5" x1="-2.5"/>
    </pattern>    
    <pattern viewBox="0 0 5 5" height="5" width="5" y="0" x="0" patternUnits="userSpaceOnUse" id="V_Sequence">
     <ellipse style="fill:black" ry="0.7" rx="1.5" cy="2.5" cx="2.5"/>
    </pattern>    
    <pattern viewBox="0 0 5 5" height="5" width="5" y="0" x="0" patternUnits="userSpaceOnUse" id="P_Sequence">
     <circle style="fill:black" r="1" cy="3.75" cx="1.25"/>
     <circle style="fill:black" r="1" cy="1.25" cx="3.75"/>
    </pattern>
    <style type="text/css">
      rect.border { fill:none; stroke:black;stroke-width:1px }
      rect.fillblack { fill:black; stroke:black;stroke-width:1px }
      rect.structure { fill:none; stroke:none }
      rect.structtab { fill:blue; stroke:none;fill-opacity:0.2 }
      rect.structclip { fill:white; stroke:none }
      rect.structborder { fill:none; stroke:black; stroke-width:0.5px }
      rect.range3 {fill:black;stroke:black;stroke-width:1px;fill-opacity:0.1 }
      rect.range2 {fill:black;stroke:black;stroke-width:1px;fill-opacity:0.3 }
      rect.range1 {fill:black;stroke:black;stroke-width:1px;fill-opacity:0.5 }
      rect.fillbackground { fill:#000099 }
      rect.fillmodel { fill:#ffffcc;stroke:black;stroke-width:1px;fill-opacity:0.8 }
      rect.modeldist {fill:black;stroke:black;stroke-width:1px;fill-opacity:0.3 }
      rect.fill { fill:#CC0000 }
      polygon.main { fill:black; stroke:black;stroke-width:0.2px;fill-opacity:0.5 }
      polygon.shadow { fill:black; stroke:black;stroke-width:0.2px;fill-opacity:0.1 }
      polygon.curve { fill:blue; stroke:blue;stroke-width:1px;fill-opacity:0.3 }
      polygon.normal { fill:red; stroke:red;stroke-width:1px;fill-opacity:0.3 }
      polygon.kdesigma { fill:blue; stroke:blue;stroke-width:0px;fill-opacity:0.2 }
      polygon.modeldist { fill:url(#U_Sequence);stroke:black;stroke-width:1px;fill-opacity:0.3 }
      polyline.datacurve { fill:none; stroke:blue;stroke-width:1px }
      polyline.range { fill:none; stroke:black; stroke-width:1px; stroke-linejoin:round }
      polyline.ensemble { fill:none; stroke:black; stroke-width:0.5px;stroke-opacity:0.2 }
      polyline.kdemean { fill:none; stroke:blue; stroke-width:1px }
      path.model3 { fill:blue; stroke:blue;stroke-width:1px;fill-opacity:0.1 }
      path.model2 { fill:blue; stroke:blue;stroke-width:1px;fill-opacity:0.3 }
      path.model1 { fill:blue; stroke:blue;stroke-width:1px;fill-opacity:0.5 }
      g.curve { fill:blue; stroke:blue;stroke-width:1px;fill-opacity:0.3 }
      line.majorpip { stroke:black; stroke-width:1px }
      line.minorpip { stroke:black; stroke-width:0.5px }
      line.gridline { stroke:black; stroke-width:0.5px }
      line.majorpip2 { stroke:white; stroke-width:1px }
      line.minorpip2 { stroke:white; stroke-width:0.5px }
      line.gridline2 { stroke:white; stroke-width:0.5px }
      line.okline { stroke:green; stroke-width:1px }
      line.errorline { stroke:red; stroke-width:1px }
      line.range { stroke:black; stroke-width:1px }
      line.modelline { stroke:black; stroke-width:1px }
      line.constrshadow { stroke:#ffffcc; stroke-width:2px }
      line.constrok { stroke:black; stroke-width:1px }
      line.constrerror { stroke:#ff0000; stroke-width:1px }
      line.curve { stroke:blue;stroke-width:1px }
      text { fill:black; stroke:none; font-size:10pt; font-family:"Arial","Helvetica"; font-style:normal }
    </style>
   <clipPath id="clip1"><rect x="0" width="481.1" y="0" height="431.45"/></clipPath><clipPath id="clip2"><rect class="structure" x="0" width="471.48" y="-404.15" height="404.15" rx="5"/></clipPath><clipPath id="clip3"><rect class="structure" x="0" width="461.86" y="-322.22" height="322.22" rx="5"/></clipPath><clipPath id="clip4"><rect class="structure" x="0" width="452.24" y="-76.46" height="76.46" rx="5"/></clipPath><clipPath id="clip5"><rect class="structure" x="0" width="452.24" y="-212.99" height="212.99" rx="5"/></clipPath><clipPath id="clip6"><rect x="0" width="481.1" y="0" height="431.45"/></clipPath></defs>
    <g id="mainframe"><rect style="fill:white" x="-50.94" y="-48.81" width="611.28" height="585.67" stroke="none"/><g id="mainviewport" transform="translate(0 0)"><rect class="border" x="14.15" width="481.1" y="14.15" height="431.45"/><g id="tabarea" transform="translate(14.15 14.15)"><g id="group" transform="translate(4.81 417.8)"><g clip-path="url(#clip2)"><rect class="structtab" x="0" width="471.48" y="-404.15" height="24.58"/></g></g><g id="group" transform="translate(9.62 390.49)"><g clip-path="url(#clip3)"><rect class="structtab" x="0" width="461.86" y="-322.22" height="24.58"/></g></g><g id="group" transform="translate(14.43 172.03)"><g clip-path="url(#clip4)"><rect class="structtab" x="0" width="452.24" y="-76.46" height="24.58"/></g></g><g id="group" transform="translate(14.43 390.49)"><g clip-path="url(#clip5)"><rect class="structtab" x="0" width="452.24" y="-212.99" height="24.58"/></g></g></g><g id="plotarea" transform="translate(14.15 14.15)"><g id="structarea" transform="translate(0 0)"><g clip-path="url(#clip1)"><rect class="structure" x="4.81" width="471.48" y="13.65" height="404.15" rx="5"/><rect class="structborder" x="4.81" width="471.48" y="13.65" height="404.15" rx="5"/><rect class="structure" x="9.62" width="461.86" y="68.27" height="322.22" rx="5"/><rect class="structborder" x="9.62" width="461.86" y="68.27" height="322.22" rx="5"/><rect class="structure" x="14.43" width="452.24" y="95.57" height="76.46" rx="5"/><rect class="structborder" x="14.43" width="452.24" y="95.57" height="76.46" rx="5"/><rect class="structure" x="14.43" width="452.24" y="177.5" height="212.99" rx="5"/><rect class="structborder" x="14.43" width="452.24" y="177.5" height="212.99" rx="5"/></g></g><g clip-path="url(#clip6)"><g id="itemarea1" transform="translate(0 -8.72)"/><g id="itemarea2" transform="translate(0 18.59)"><polygon class="main" points="175.26,33.3
175.26,33.3
176.29,33.29
177.33,33.29
178.36,33.29
179.4,33.29
180.43,33.29
181.47,33.29
182.5,33.29
183.54,33.29
184.57,33.29
185.61,33.29
186.64,33.29
187.68,33.29
188.71,33.29
189.75,33.29
190.78,33.29
191.82,33.29
192.85,33.29
193.89,33.29
194.92,33.29
195.96,33.29
196.99,33.29
198.03,33.29
199.06,33.29
200.1,33.29
201.13,33.29
202.17,33.29
203.2,33.29
204.24,33.29
205.27,33.29
206.31,33.29
207.34,33.29
208.38,33.29
209.42,33.29
210.45,33.29
211.49,33.29
212.52,33.29
213.56,33.29
214.59,33.29
215.63,33.29
216.66,33.28
217.7,33.29
218.73,33.29
219.77,33.29
220.8,33.29
221.84,33.29
222.87,33.28
223.91,33.28
224.94,33.29
225.98,33.28
227.01,33.28
228.05,33.28
229.08,33.28
230.12,33.28
231.15,33.28
232.19,33.28
233.22,33.27
234.26,33.28
235.29,33.28
236.33,33.27
237.36,33.27
238.4,33.27
239.43,33.27
240.47,33.27
241.5,33.26
242.54,33.26
243.57,33.27
244.61,33.25
245.64,33.25
246.68,33.26
247.71,33.25
248.75,33.24
249.78,33.25
250.82,33.24
251.85,33.24
252.89,33.23
253.92,33.22
254.96,33.22
255.99,33.21
257.03,33.19
258.06,33.2
259.1,33.17
260.13,33.19
261.17,33.18
262.2,33.17
263.24,33.15
264.27,33.18
265.31,33.15
266.34,33.14
267.38,33.11
268.41,33.1
269.45,33.07
270.48,33.04
271.52,33.06
272.55,33.01
273.59,33.01
274.62,32.98
275.66,32.94
276.69,32.91
277.73,32.9
278.76,32.83
279.8,32.85
280.83,32.78
281.87,32.74
282.91,32.71
283.94,32.6
284.98,32.59
286.01,32.48
287.05,32.43
288.08,32.26
289.12,32.29
290.15,32.15
291.19,32.06
292.22,31.97
293.26,31.7
294.29,31.69
295.33,31.45
296.36,31.41
297.4,31.1
298.43,31.01
299.47,30.72
300.5,30.58
301.54,30.58
302.57,30.42
303.61,30.24
304.64,30.31
305.68,30.02
306.71,29.87
307.75,29.69
308.78,29.46
309.82,29.15
310.85,28.65
311.89,28.35
312.92,27.91
313.96,27.43
314.99,26.73
316.03,26.26
317.06,25.66
318.1,25.08
319.13,24.97
320.17,25.65
321.2,25.42
322.24,26.05
323.27,26.12
324.31,26.5
325.34,26.52
326.38,26.84
327.41,27.61
328.45,28.02
329.48,28.56
330.52,29.51
331.55,29.99
332.59,30.56
333.62,31.13
334.66,31.63
335.69,32.16
336.73,32.51
337.76,32.65
338.8,32.9
339.83,33.01
340.87,33.08
341.9,33.15
342.94,33.19
343.97,33.23
345.01,33.27
346.04,33.28
347.08,33.29
347.08,33.3"/><polyline class="range" points="283.01,38.29
283.01,39.95
337.97,39.95
337.97,38.29"/></g><g id="itemarea3" transform="translate(0 45.9)"/><g id="itemarea4" transform="translate(0 73.2)"/><g id="itemarea5" transform="translate(0 100.51)"><polygon class="shadow" points="204.24,33.3
204.24,33.3
205.27,33.3
206.31,33.3
207.34,33.29
208.38,33.29
209.42,33.29
210.45,33.29
211.49,33.29
212.52,33.29
213.56,33.29
214.59,33.29
215.63,33.29
216.66,33.29
217.7,33.29
218.73,33.29
219.77,33.29
220.8,33.29
221.84,33.29
222.87,33.29
223.91,33.29
224.94,33.29
225.98,33.29
227.01,33.29
228.05,33.29
229.08,33.29
230.12,33.27
231.15,33.24
232.19,33.22
233.22,33.22
234.26,33.23
235.29,33.22
236.33,33.21
237.36,33.2
238.4,33.22
239.43,33.25
240.47,33.25
241.5,33.23
242.54,33.2
243.57,33.17
244.61,33.17
245.64,33.16
246.68,33.2
247.71,33.23
248.75,33.24
249.78,33.23
250.82,33.24
251.85,33.24
252.89,33.24
253.92,33.17
254.96,33.11
255.99,33.06
257.03,32.99
258.06,33.01
259.1,33.08
260.13,33.08
261.17,33.1
262.2,33.03
263.24,33.04
264.27,32.94
265.31,32.74
266.34,32.38
267.38,32.16
268.41,31.81
269.45,31.4
270.48,31.21
271.52,31.21
272.55,31.66
273.59,31.93
274.62,32.41
275.66,32.35
276.69,32.42
277.73,32.13
278.76,31.7
279.8,31.95
280.83,32.27
281.87,31.97
282.91,31.33
283.94,30.09
284.98,28.67
286.01,27.61
287.05,27.31
288.08,27.53
289.12,28.22
290.15,28.59
291.19,29.12
292.22,29.41
293.26,29.91
294.29,29.19
295.33,28.6
296.36,27.4
297.4,26.01
298.43,25.35
299.47,25.08
300.5,25.01
301.54,24.97
302.57,25.05
303.61,25.04
304.64,25.05
305.68,24.99
306.71,25.03
307.75,25.27
308.78,25.56
309.82,25.75
310.85,25.75
311.89,25.85
312.92,25.6
313.96,25.3
314.99,25.32
316.03,25.13
317.06,25.01
318.1,24.99
319.13,25.48
320.17,26.12
321.2,26.72
322.24,27.12
323.27,27.8
324.31,28.26
325.34,27.95
326.38,27.12
327.41,26.65
328.45,26.46
329.48,26.98
330.52,28.1
331.55,28.33
332.59,28.33
333.62,28.56
334.66,28.8
335.69,29.31
336.73,29.82
337.76,30.37
338.8,30.89
339.83,30.91
340.87,31.06
341.9,31.32
342.94,31.56
343.97,31.7
345.01,31.78
346.04,31.86
347.08,32.02
348.11,32.33
349.15,32.67
350.18,32.98
351.22,33.14
352.25,33.19
353.29,33.22
354.32,33.24
355.36,33.24
356.39,33.24
357.43,33.2
358.47,33.13
359.5,33.03
360.54,33.05
361.57,33.1
362.61,33.13
363.64,33.16
364.68,33.2
365.71,33.21
366.75,33.18
367.78,33.13
368.82,33.09
369.85,33.08
370.89,33.14
371.92,33.2
372.96,33.24
373.99,33.26
375.03,33.26
376.06,33.26
377.1,33.27
378.13,33.28
379.17,33.29
380.2,33.29
381.24,33.29
382.27,33.29
383.31,33.29
384.34,33.29
385.38,33.29
386.41,33.29
387.45,33.29
388.48,33.29
389.52,33.29
390.55,33.29
391.59,33.29
392.62,33.29
393.66,33.29
394.69,33.29
395.73,33.29
396.76,33.29
397.8,33.29
398.83,33.29
399.87,33.29
400.9,33.29
401.94,33.29
402.97,33.29
404.01,33.3
405.04,33.3
405.04,33.3" style="fill:Green; stroke:Green"/><polygon class="main" points="259.1,33.3
259.1,33.3
260.13,33.29
261.17,33.29
262.2,33.29
263.24,33.29
264.27,33.29
265.31,33.29
266.34,33.29
267.38,33.29
268.41,33.29
269.45,33.28
270.48,33.28
271.52,33.28
272.55,33.28
273.59,33.28
274.62,33.28
275.66,33.28
276.69,33.28
277.73,33.28
278.76,33.26
279.8,33.27
280.83,33.28
281.87,33.27
282.91,33.26
283.94,33.22
284.98,33.18
286.01,33.15
287.05,33.14
288.08,33.1
289.12,33.12
290.15,33.12
291.19,33.13
292.22,33.13
293.26,33.13
294.29,33.07
295.33,33.01
296.36,32.9
297.4,32.79
298.43,32.66
299.47,32.6
300.5,32.45
301.54,32.33
302.57,32.34
303.61,32.21
304.64,32.08
305.68,32.01
306.71,31.89
307.75,31.8
308.78,31.73
309.82,31.65
310.85,31.38
311.89,31.3
312.92,30.98
313.96,30.58
314.99,30.3
316.03,29.93
317.06,29.5
318.1,29.12
319.13,28.75
320.17,28.62
321.2,28.52
322.24,28.45
323.27,28.63
324.31,28.52
325.34,27.86
326.38,26.73
327.41,25.52
328.45,24.97
329.48,25.07
330.52,25.97
331.55,26.12
332.59,25.77
333.62,25.77
334.66,26.14
335.69,26.6
336.73,27.29
337.76,28.18
338.8,28.91
339.83,29.07
340.87,29.22
341.9,29.66
342.94,30.09
343.97,30.29
345.01,30.49
346.04,30.61
347.08,30.96
348.11,31.47
349.15,32.14
350.18,32.68
351.22,32.98
352.25,33.11
353.29,33.16
354.32,33.19
355.36,33.2
356.39,33.19
357.43,33.14
358.47,33.04
359.5,32.92
360.54,32.94
361.57,33.03
362.61,33.09
363.64,33.13
364.68,33.18
365.71,33.19
366.75,33.17
367.78,33.12
368.82,33.09
369.85,33.09
370.89,33.15
371.92,33.2
372.96,33.25
373.99,33.26
375.03,33.27
376.06,33.27
377.1,33.28
378.13,33.28
379.17,33.29
380.2,33.29
381.24,33.29
382.27,33.29
383.31,33.29
384.34,33.29
385.38,33.29
386.41,33.29
387.45,33.29
388.48,33.29
389.52,33.29
390.55,33.3
390.55,33.3" style="fill:Green; stroke:Green"/><polyline class="range" points="299.47,38.29
299.47,39.95
349.98,39.95
349.98,38.29" style="stroke:Green"/></g><g id="itemarea6" transform="translate(0 127.82)"><polygon class="shadow" points="224.94,33.3
224.94,33.3
225.98,33.3
227.01,33.29
228.05,33.29
229.08,33.29
230.12,33.29
231.15,33.29
232.19,33.29
233.22,33.29
234.26,33.29
235.29,33.29
236.33,33.29
237.36,33.29
238.4,33.29
239.43,33.29
240.47,33.29
241.5,33.29
242.54,33.29
243.57,33.29
244.61,33.29
245.64,33.29
246.68,33.29
247.71,33.29
248.75,33.29
249.78,33.29
250.82,33.29
251.85,33.29
252.89,33.29
253.92,33.29
254.96,33.29
255.99,33.29
257.03,33.29
258.06,33.29
259.1,33.29
260.13,33.29
261.17,33.29
262.2,33.29
263.24,33.29
264.27,33.29
265.31,33.28
266.34,33.27
267.38,33.26
268.41,33.24
269.45,33.21
270.48,33.2
271.52,33.2
272.55,33.23
273.59,33.24
274.62,33.27
275.66,33.27
276.69,33.27
277.73,33.26
278.76,33.23
279.8,33.25
280.83,33.26
281.87,33.25
282.91,33.21
283.94,33.1
284.98,32.93
286.01,32.73
287.05,32.66
288.08,32.71
289.12,32.85
290.15,32.91
291.19,32.99
292.22,33.03
293.26,33.09
294.29,33
295.33,32.92
296.36,32.67
297.4,32.17
298.43,31.66
299.47,31.31
300.5,31.08
301.54,30.74
302.57,30.42
303.61,30.37
304.64,30.52
305.68,30.94
306.71,31.22
307.75,31.64
308.78,31.89
309.82,32.07
310.85,32.02
311.89,32.08
312.92,31.92
313.96,31.73
314.99,31.67
316.03,31.44
317.06,31.03
318.1,30.49
319.13,29.55
320.17,28.72
321.2,28.12
322.24,27.73
323.27,27.15
324.31,26.77
325.34,27.03
326.38,27.73
327.41,28.19
328.45,28.39
329.48,27.86
330.52,26.89
331.55,26.72
332.59,26.72
333.62,26.55
334.66,26.36
335.69,26
336.73,25.68
337.76,25.35
338.8,25.07
339.83,25.11
340.87,25.07
341.9,25.02
342.94,24.98
343.97,24.97
345.01,24.97
346.04,24.98
347.08,25.02
348.11,25.18
349.15,25.57
350.18,26.46
351.22,27.5
352.25,28.17
353.29,28.7
354.32,29.03
355.36,29.16
356.39,28.97
357.43,28.37
358.47,27.45
359.5,26.76
360.54,26.88
361.57,27.25
362.61,27.44
363.64,27.77
364.68,28.24
365.71,28.44
366.75,28.04
367.78,27.44
368.82,27.05
369.85,26.99
370.89,27.51
371.92,28.24
372.96,29.1
373.99,29.61
375.03,29.67
376.06,29.74
377.1,30.21
378.13,30.91
379.17,31.59
380.2,32.09
381.24,32.36
382.27,32.45
383.31,32.37
384.34,32.12
385.38,31.63
386.41,31.21
387.45,31.45
388.48,31.99
389.52,32.49
390.55,32.82
391.59,32.93
392.62,32.93
393.66,32.89
394.69,32.91
395.73,33.02
396.76,33.08
397.8,33.07
398.83,33.06
399.87,33.1
400.9,33.15
401.94,33.16
402.97,33.2
404.01,33.24
405.04,33.26
406.08,33.28
407.11,33.29
408.15,33.29
409.18,33.29
410.22,33.29
411.25,33.29
412.29,33.28
413.32,33.28
414.36,33.28
415.39,33.28
416.43,33.28
417.46,33.29
418.5,33.28
419.53,33.29
420.57,33.29
421.6,33.29
422.64,33.29
423.67,33.29
424.71,33.29
425.74,33.29
426.78,33.29
427.81,33.29
428.85,33.29
429.88,33.29
430.92,33.29
431.95,33.29
432.99,33.29
434.03,33.29
435.06,33.29
436.1,33.29
437.13,33.29
438.17,33.29
439.2,33.29
440.24,33.29
441.27,33.29
442.31,33.29
443.34,33.3
444.38,33.3
444.38,33.3" style="fill:Green; stroke:Green"/><polygon class="main" points="280.83,33.3
280.83,33.3
281.87,33.29
282.91,33.29
283.94,33.29
284.98,33.28
286.01,33.27
287.05,33.27
288.08,33.27
289.12,33.27
290.15,33.28
291.19,33.28
292.22,33.28
293.26,33.28
294.29,33.27
295.33,33.26
296.36,33.24
297.4,33.19
298.43,33.15
299.47,33.08
300.5,33.03
301.54,32.97
302.57,32.89
303.61,32.88
304.64,32.83
305.68,32.86
306.71,32.91
307.75,32.94
308.78,32.98
309.82,33.01
310.85,32.99
311.89,32.97
312.92,32.88
313.96,32.77
314.99,32.72
316.03,32.6
317.06,32.33
318.1,32.03
319.13,31.46
320.17,30.91
321.2,30.43
322.24,29.95
323.27,29.44
324.31,29.03
325.34,28.92
326.38,29.23
327.41,29.35
328.45,29.35
329.48,28.71
330.52,27.91
331.55,27.54
332.59,27.27
333.62,27
334.66,26.71
335.69,26.27
336.73,25.95
337.76,25.65
338.8,25.24
339.83,25.39
340.87,25.25
341.9,25.17
342.94,25.14
343.97,25.16
345.01,25.18
346.04,24.97
347.08,25.15
348.11,25.17
349.15,25.68
350.18,26.63
351.22,27.56
352.25,28.3
353.29,28.83
354.32,29.22
355.36,29.37
356.39,29.33
357.43,29.02
358.47,28.47
359.5,28.19
360.54,28.39
361.57,28.82
362.61,29.19
363.64,29.5
364.68,29.96
365.71,30.04
366.75,29.95
367.78,29.69
368.82,29.57
369.85,29.58
370.89,29.93
371.92,30.39
372.96,30.96
373.99,31.26
375.03,31.42
376.06,31.45
377.1,31.75
378.13,32.13
379.17,32.48
380.2,32.74
381.24,32.89
382.27,32.95
383.31,32.94
384.34,32.87
385.38,32.77
386.41,32.69
387.45,32.77
388.48,32.96
389.52,33.1
390.55,33.19
391.59,33.21
392.62,33.23
393.66,33.23
394.69,33.24
395.73,33.25
396.76,33.27
397.8,33.27
398.83,33.27
399.87,33.28
400.9,33.28
401.94,33.29
402.97,33.29
404.01,33.29
405.04,33.29
406.08,33.29
407.11,33.29
408.15,33.29
408.15,33.3" style="fill:Green; stroke:Green"/><polyline class="range" points="317.17,38.29
317.17,39.95
378.65,39.95
378.65,38.29" style="stroke:Green"/></g><g id="itemarea8" transform="translate(0 155.12)"/><g id="itemarea9" transform="translate(0 182.43)"><polygon class="shadow" points="263.24,33.3
263.24,33.3
264.27,33.3
265.31,33.3
266.34,33.29
267.38,33.29
268.41,33.29
269.45,33.29
270.48,33.29
271.52,33.29
272.55,33.29
273.59,33.29
274.62,33.29
275.66,33.29
276.69,33.29
277.73,33.29
278.76,33.29
279.8,33.29
280.83,33.29
281.87,33.29
282.91,33.29
283.94,33.29
284.98,33.24
286.01,33.1
287.05,33.03
288.08,33.08
289.12,33.2
290.15,33.22
291.19,33.26
292.22,33.27
293.26,33.29
294.29,33.27
295.33,33.23
296.36,33
297.4,32.05
298.43,30.52
299.47,29.32
300.5,28.56
301.54,27.47
302.57,26.62
303.61,26.43
304.64,26.93
305.68,28.1
306.71,29.04
307.75,30.47
308.78,31.25
309.82,31.85
310.85,31.64
311.89,31.81
312.92,31.35
313.96,30.8
314.99,30.56
316.03,29.79
317.06,28.41
318.1,26.68
319.13,25.11
320.17,24.97
321.2,25.84
322.24,26.44
323.27,27.81
324.31,28.75
325.34,28.12
326.38,26.44
327.41,25.74
328.45,25.48
329.48,26.17
330.52,28.44
331.55,28.9
332.59,28.9
333.62,29.32
334.66,29.85
335.69,30.71
336.73,31.48
337.76,32.19
338.8,32.75
339.83,32.66
340.87,32.75
341.9,32.89
342.94,33.02
343.97,33.08
345.01,33.11
346.04,33.14
347.08,33.18
348.11,33.25
349.15,33.28
350.18,33.29
351.22,33.29
352.25,33.29
353.29,33.29
354.32,33.29
355.36,33.3
356.39,33.29
357.43,33.29
358.47,33.29
359.5,33.29
360.54,33.29
361.57,33.29
362.61,33.29
363.64,33.29
364.68,33.29
365.71,33.29
366.75,33.29
367.78,33.29
368.82,33.29
369.85,33.29
370.89,33.29
371.92,33.29
372.96,33.3
373.99,33.3
375.03,33.3
375.03,33.3" style="fill:Blue; stroke:Blue"/><polygon class="main" points="281.87,33.3
281.87,33.3
282.91,33.3
283.94,33.3
284.98,33.29
286.01,33.29
287.05,33.29
288.08,33.29
289.12,33.29
290.15,33.29
291.19,33.29
292.22,33.29
293.26,33.29
294.29,33.29
295.33,33.29
296.36,33.27
297.4,33.19
298.43,33.07
299.47,32.93
300.5,32.79
301.54,32.62
302.57,32.47
303.61,32.33
304.64,32.32
305.68,32.44
306.71,32.56
307.75,32.74
308.78,32.88
309.82,32.94
310.85,32.9
311.89,32.87
312.92,32.73
313.96,32.53
314.99,32.32
316.03,31.91
317.06,31.21
318.1,30.18
319.13,29.08
320.17,28.58
321.2,28.64
322.24,28.79
323.27,29.23
324.31,29.59
325.34,28.76
326.38,27.06
327.41,25.88
328.45,24.97
329.48,25.34
330.52,27.07
331.55,27.37
332.59,27.2
333.62,27.27
334.66,27.89
335.69,28.9
336.73,30.06
337.76,31.2
338.8,32.08
339.83,32.03
340.87,32.14
341.9,32.39
342.94,32.64
343.97,32.76
345.01,32.85
346.04,32.91
347.08,33.03
348.11,33.18
349.15,33.27
350.18,33.29
351.22,33.29
352.25,33.3
352.25,33.3" style="fill:Blue; stroke:Blue"/><polyline class="range" points="300.92,38.29
300.92,39.95
307.64,39.95
307.64,38.29" style="stroke:Blue"/><polyline class="range" points="312.92,38.29
312.92,39.95
343.56,39.95
343.56,38.29" style="stroke:Blue"/></g><g id="itemarea10" transform="translate(0 209.74)"><polygon class="shadow" points="280.83,33.3
280.83,33.3
281.87,33.3
282.91,33.3
283.94,33.29
284.98,33.29
286.01,33.29
287.05,33.29
288.08,33.29
289.12,33.29
290.15,33.29
291.19,33.29
292.22,33.29
293.26,33.29
294.29,33.29
295.33,33.29
296.36,33.29
297.4,33.24
298.43,33.07
299.47,32.88
300.5,32.7
301.54,32.38
302.57,31.93
303.61,31.89
304.64,32.04
305.68,32.56
306.71,32.84
307.75,33.09
308.78,33.17
309.82,33.24
310.85,33.21
311.89,33.22
312.92,33.18
313.96,33.14
314.99,33.09
316.03,32.98
317.06,32.65
318.1,32.08
319.13,30.37
320.17,28.53
321.2,27.22
322.24,26.34
323.27,25.5
324.31,25.09
325.34,25.46
326.38,26.34
327.41,27.36
328.45,27.79
329.48,26.6
330.52,25.08
331.55,25.16
332.59,25.16
333.62,25.23
334.66,24.97
335.69,25.5
336.73,26.16
337.76,27.17
338.8,28.41
339.83,28.55
340.87,28.99
341.9,29.67
342.94,30.32
343.97,30.69
345.01,30.91
346.04,31.13
347.08,31.52
348.11,32.22
349.15,32.87
350.18,33.2
351.22,33.28
352.25,33.29
353.29,33.29
354.32,33.29
355.36,33.29
356.39,33.29
357.43,33.29
358.47,33.27
359.5,33.23
360.54,33.24
361.57,33.26
362.61,33.27
363.64,33.28
364.68,33.29
365.71,33.29
366.75,33.29
367.78,33.28
368.82,33.26
369.85,33.26
370.89,33.28
371.92,33.29
372.96,33.29
373.99,33.29
375.03,33.29
376.06,33.29
377.1,33.29
378.13,33.29
379.17,33.3
380.2,33.3
381.24,33.3
381.24,33.3" style="fill:Blue; stroke:Blue"/><polygon class="main" points="295.33,33.3
295.33,33.3
296.36,33.29
297.4,33.29
298.43,33.28
299.47,33.25
300.5,33.21
301.54,33.16
302.57,33.09
303.61,33.06
304.64,33.08
305.68,33.16
306.71,33.2
307.75,33.24
308.78,33.27
309.82,33.28
310.85,33.27
311.89,33.27
312.92,33.26
313.96,33.24
314.99,33.21
316.03,33.16
317.06,33.01
318.1,32.69
319.13,31.86
320.17,30.76
321.2,29.84
322.24,29.07
323.27,28.31
324.31,27.68
325.34,27.74
326.38,27.97
327.41,28.5
328.45,28.54
329.48,27.37
330.52,25.92
331.55,25.76
332.59,25.62
333.62,25.37
334.66,24.97
335.69,25.31
336.73,25.91
337.76,26.84
338.8,27.96
339.83,28.19
340.87,28.67
341.9,29.38
342.94,30.02
343.97,30.41
345.01,30.63
346.04,30.94
347.08,31.41
348.11,32.14
349.15,32.82
350.18,33.18
351.22,33.28
352.25,33.29
353.29,33.29
354.32,33.29
355.36,33.29
356.39,33.29
357.43,33.29
358.47,33.28
359.5,33.24
360.54,33.25
361.57,33.27
362.61,33.28
363.64,33.29
364.68,33.29
365.71,33.29
366.75,33.29
367.78,33.28
368.82,33.27
369.85,33.27
370.89,33.28
371.92,33.29
372.96,33.29
373.99,33.29
375.03,33.3
375.03,33.3" style="fill:Blue; stroke:Blue"/><polyline class="range" points="319.44,38.29
319.44,39.95
347.18,39.95
347.18,38.29" style="stroke:Blue"/></g><g id="itemarea11" transform="translate(0 237.04)"><polygon class="shadow" points="282.91,33.3
282.91,33.3
283.94,33.3
284.98,33.3
286.01,33.29
287.05,33.29
288.08,33.29
289.12,33.3
290.15,33.3
291.19,33.3
292.22,33.3
293.26,33.3
294.29,33.3
295.33,33.3
296.36,33.29
297.4,33.29
298.43,33.29
299.47,33.28
300.5,33.28
301.54,33.26
302.57,33.23
303.61,33.23
304.64,33.23
305.68,33.27
306.71,33.28
307.75,33.29
308.78,33.29
309.82,33.29
310.85,33.29
311.89,33.29
312.92,33.29
313.96,33.29
314.99,33.29
316.03,33.29
317.06,33.28
318.1,33.25
319.13,33.05
320.17,32.69
321.2,32.12
322.24,31.73
323.27,30.76
324.31,30.03
325.34,30.48
326.38,31.73
327.41,32.18
328.45,32.37
329.48,31.9
330.52,30.34
331.55,29.87
332.59,29.87
333.62,29.42
334.66,29.04
335.69,27.96
336.73,26.96
337.76,25.93
338.8,24.97
339.83,25.32
340.87,25.32
341.9,25.41
342.94,25.56
343.97,25.74
345.01,25.88
346.04,26.05
347.08,26.46
348.11,27.59
349.15,29.45
350.18,31.58
351.22,32.72
352.25,33.01
353.29,33.13
354.32,33.19
355.36,33.21
356.39,33.18
357.43,33.05
358.47,32.61
359.5,31.95
360.54,32.1
361.57,32.47
362.61,32.65
363.64,32.84
364.68,33.03
365.71,33.1
366.75,32.96
367.78,32.68
368.82,32.38
369.85,32.31
370.89,32.69
371.92,33.05
372.96,33.21
373.99,33.25
375.03,33.26
376.06,33.26
377.1,33.28
378.13,33.29
379.17,33.29
380.2,33.29
381.24,33.29
382.27,33.29
383.31,33.29
384.34,33.29
385.38,33.29
386.41,33.29
387.45,33.29
388.48,33.29
389.52,33.3
390.55,33.3
391.59,33.3
391.59,33.3" style="fill:Red; stroke:Red"/><polygon class="main" points="299.47,33.3
299.47,33.3
300.5,33.29
301.54,33.29
302.57,33.28
303.61,33.28
304.64,33.28
305.68,33.29
306.71,33.29
307.75,33.29
308.78,33.29
309.82,33.29
310.85,33.29
311.89,33.29
312.92,33.29
313.96,33.29
314.99,33.29
316.03,33.29
317.06,33.29
318.1,33.26
319.13,33.16
320.17,32.93
321.2,32.57
322.24,32.18
323.27,31.54
324.31,31
325.34,31.19
326.38,32.01
327.41,32.33
328.45,32.41
329.48,31.99
330.52,30.71
331.55,30.15
332.59,29.88
333.62,29.5
334.66,29.02
335.69,27.98
336.73,26.87
337.76,25.88
338.8,24.97
339.83,25.09
340.87,25.15
341.9,25.35
342.94,25.37
343.97,25.52
345.01,25.7
346.04,25.89
347.08,26.36
348.11,27.34
349.15,29.36
350.18,31.46
351.22,32.63
352.25,32.98
353.29,33.12
354.32,33.18
355.36,33.2
356.39,33.17
357.43,33.04
358.47,32.68
359.5,32.23
360.54,32.29
361.57,32.6
362.61,32.77
363.64,32.94
364.68,33.08
365.71,33.13
366.75,33.04
367.78,32.83
368.82,32.66
369.85,32.66
370.89,32.86
371.92,33.11
372.96,33.23
373.99,33.26
375.03,33.27
376.06,33.27
377.1,33.29
378.13,33.29
379.17,33.3
380.2,33.29
380.2,33.3" style="fill:Red; stroke:Red"/><polyline class="range" points="321,38.29
321,39.95
351.22,39.95
351.22,38.29" style="stroke:Red"/><polyline class="range" points="358.57,38.29
358.57,39.95
361.88,39.95
361.88,38.29" style="stroke:Red"/></g><g id="itemarea12" transform="translate(0 264.35)"><polygon class="shadow" points="294.29,33.3
294.29,33.3
295.33,33.3
296.36,33.3
297.4,33.29
298.43,33.29
299.47,33.29
300.5,33.29
301.54,33.29
302.57,33.28
303.61,33.28
304.64,33.28
305.68,33.29
306.71,33.29
307.75,33.29
308.78,33.29
309.82,33.29
310.85,33.29
311.89,33.29
312.92,33.29
313.96,33.29
314.99,33.29
316.03,33.29
317.06,33.29
318.1,33.28
319.13,33.23
320.17,33.09
321.2,32.83
322.24,32.66
323.27,32.1
324.31,31.65
325.34,31.9
326.38,32.66
327.41,32.86
328.45,32.95
329.48,32.74
330.52,31.87
331.55,31.51
332.59,31.51
333.62,31.16
334.66,30.95
335.69,29.97
336.73,28.93
337.76,27.67
338.8,26.29
339.83,26.34
340.87,26.01
341.9,25.57
342.94,25.2
343.97,25.06
345.01,25
346.04,24.97
347.08,25
348.11,25.49
349.15,26.96
350.18,29.68
351.22,31.72
352.25,32.41
353.29,32.75
354.32,32.91
355.36,32.97
356.39,32.88
357.43,32.53
358.47,31.54
359.5,30.32
360.54,30.57
361.57,31.24
362.61,31.59
363.64,32.01
364.68,32.46
365.71,32.65
366.75,32.28
367.78,31.63
368.82,31.01
369.85,30.9
370.89,31.68
371.92,32.5
372.96,32.97
373.99,33.12
375.03,33.14
376.06,33.15
377.1,33.22
378.13,33.27
379.17,33.29
380.2,33.29
381.24,33.29
382.27,33.29
383.31,33.29
384.34,33.29
385.38,33.29
386.41,33.29
387.45,33.29
388.48,33.29
389.52,33.29
390.55,33.3
391.59,33.3
392.62,33.3
392.62,33.3" style="fill:Red; stroke:Red"/><polygon class="main" points="300.5,33.3
300.5,33.3
301.54,33.29
302.57,33.29
303.61,33.29
304.64,33.29
305.68,33.29
306.71,33.29
307.75,33.3
308.78,33.3
309.82,33.3
310.85,33.3
311.89,33.3
312.92,33.3
313.96,33.3
314.99,33.29
316.03,33.29
317.06,33.29
318.1,33.29
319.13,33.26
320.17,33.17
321.2,33.02
322.24,32.84
323.27,32.49
324.31,32.17
325.34,32.28
326.38,32.75
327.41,32.93
328.45,32.96
329.48,32.74
330.52,32.06
331.55,31.64
332.59,31.56
333.62,31.24
334.66,30.95
335.69,30.07
336.73,28.92
337.76,27.76
338.8,26.47
339.83,26.41
340.87,26.1
341.9,25.49
342.94,25.19
343.97,24.98
345.01,25.02
346.04,24.97
347.08,25.04
348.11,25.51
349.15,27.1
350.18,29.61
351.22,31.61
352.25,32.39
353.29,32.74
354.32,32.92
355.36,32.96
356.39,32.87
357.43,32.56
358.47,31.79
359.5,30.9
360.54,31.08
361.57,31.6
362.61,31.98
363.64,32.34
364.68,32.67
365.71,32.79
366.75,32.57
367.78,32.15
368.82,31.75
369.85,31.78
370.89,32.26
371.92,32.77
372.96,33.08
373.99,33.18
375.03,33.19
376.06,33.21
377.1,33.25
378.13,33.28
379.17,33.29
380.2,33.29
381.24,33.29
381.24,33.3" style="fill:Red; stroke:Red"/><polyline class="range" points="322.65,38.29
322.65,39.95
326.27,39.95
326.27,38.29" style="stroke:Red"/><polyline class="range" points="329.59,38.29
329.59,39.95
353.08,39.95
353.08,38.29" style="stroke:Red"/><polyline class="range" points="357.02,38.29
357.02,39.95
364.78,39.95
364.78,38.29" style="stroke:Red"/><polyline class="range" points="366.23,38.29
366.23,39.95
371.71,39.95
371.71,38.29" style="stroke:Red"/></g><g id="itemarea13" transform="translate(0 291.66)"><polygon class="shadow" points="295.33,33.3
295.33,33.3
296.36,33.3
297.4,33.3
298.43,33.29
299.47,33.29
300.5,33.29
301.54,33.29
302.57,33.29
303.61,33.29
304.64,33.29
305.68,33.29
306.71,33.29
307.75,33.29
308.78,33.29
309.82,33.3
310.85,33.29
311.89,33.29
312.92,33.29
313.96,33.29
314.99,33.29
316.03,33.29
317.06,33.29
318.1,33.29
319.13,33.29
320.17,33.28
321.2,33.26
322.24,33.24
323.27,33.18
324.31,33.12
325.34,33.15
326.38,33.24
327.41,33.26
328.45,33.27
329.48,33.25
330.52,33.16
331.55,33.1
332.59,33.1
333.62,33.04
334.66,33.03
335.69,32.82
336.73,32.57
337.76,32.19
338.8,31.74
339.83,31.51
340.87,31.21
341.9,30.69
342.94,30.15
343.97,29.79
345.01,29.55
346.04,29.3
347.08,28.79
348.11,27.62
349.15,26.05
350.18,24.97
351.22,25.53
352.25,26.61
353.29,27.64
354.32,28.29
355.36,28.56
356.39,28.16
357.43,27.01
358.47,25.59
359.5,25.07
360.54,25.12
361.57,25.38
362.61,25.52
363.64,25.96
364.68,26.73
365.71,27.08
366.75,26.38
367.78,25.45
368.82,25.07
369.85,25.03
370.89,25.6
371.92,26.7
372.96,28.43
373.99,29.48
375.03,29.61
376.06,29.73
377.1,30.66
378.13,31.79
379.17,32.63
380.2,33.02
381.24,33.16
382.27,33.19
383.31,33.16
384.34,33.04
385.38,32.69
386.41,32.25
387.45,32.54
388.48,33.01
389.52,33.22
390.55,33.28
391.59,33.29
392.62,33.29
393.66,33.29
394.69,33.29
395.73,33.29
396.76,33.29
397.8,33.29
398.83,33.29
399.87,33.29
400.9,33.29
401.94,33.29
402.97,33.29
404.01,33.29
405.04,33.29
406.08,33.3
407.11,33.3
407.11,33.3" style="fill:Red; stroke:Red"/><polygon class="main" points="314.99,33.3
314.99,33.3
316.03,33.3
317.06,33.29
318.1,33.29
319.13,33.29
320.17,33.28
321.2,33.28
322.24,33.26
323.27,33.22
324.31,33.18
325.34,33.2
326.38,33.25
327.41,33.27
328.45,33.27
329.48,33.26
330.52,33.18
331.55,33.11
332.59,33.11
333.62,33.06
334.66,33
335.69,32.85
336.73,32.56
337.76,32.18
338.8,31.77
339.83,31.51
340.87,31.13
341.9,30.66
342.94,30.16
343.97,29.79
345.01,29.5
346.04,29.16
347.08,28.63
348.11,27.55
349.15,25.95
350.18,24.97
351.22,25.42
352.25,26.51
353.29,27.59
354.32,28.34
355.36,28.66
356.39,28.57
357.43,27.77
358.47,27.04
359.5,27.07
360.54,27.43
361.57,27.71
362.61,28.03
363.64,28.6
364.68,29.07
365.71,29.42
366.75,29.21
367.78,28.82
368.82,28.74
369.85,28.83
370.89,29.21
371.92,29.82
372.96,30.76
373.99,31.31
375.03,31.43
376.06,31.59
377.1,32.08
378.13,32.59
379.17,32.99
380.2,33.17
381.24,33.24
382.27,33.25
383.31,33.24
384.34,33.2
385.38,33.1
386.41,33.03
387.45,33.11
388.48,33.22
389.52,33.28
390.55,33.29
391.59,33.29
392.62,33.29
393.66,33.29
394.69,33.29
394.69,33.3" style="fill:Red; stroke:Red"/><polyline class="range" points="338.7,38.29
338.7,39.95
376.48,39.95
376.48,38.29" style="stroke:Red"/></g><g id="itemarea14" transform="translate(0 318.97)"><polygon class="shadow" points="337.76,33.29
337.76,33.29
338.8,33.29
339.83,33.29
340.87,33.29
341.9,33.29
342.94,33.29
343.97,33.29
345.01,33.29
346.04,33.29
347.08,33.29
348.11,33.28
349.15,33.25
350.18,32.95
351.22,31.83
352.25,30.28
353.29,28.71
354.32,27.72
355.36,27.34
356.39,27.92
357.43,29.67
358.47,31.78
359.5,32.68
360.54,32.56
361.57,32.08
362.61,31.86
363.64,31.23
364.68,30.1
365.71,29.59
366.75,30.62
367.78,31.95
368.82,32.49
369.85,32.56
370.89,31.75
371.92,30.17
372.96,27.49
373.99,26.01
375.03,25.86
376.06,25.71
377.1,24.97
378.13,25.74
379.17,28.33
380.2,30.87
381.24,32.08
382.27,32.35
383.31,32.1
384.34,31.02
385.38,28.54
386.41,26.44
387.45,27.45
388.48,30.53
389.52,32.63
390.55,33.21
391.59,33.26
392.62,33.26
393.66,33.24
394.69,33.26
395.73,33.28
396.76,33.29
397.8,33.29
398.83,33.29
399.87,33.29
400.9,33.29
401.94,33.29
402.97,33.29
404.01,33.29
405.04,33.29
406.08,33.29
406.08,33.29" style="fill:Blue; stroke:Blue"/><polygon class="main" points="340.87,33.29
340.87,33.29
341.9,33.29
342.94,33.29
343.97,33.29
345.01,33.29
346.04,33.29
347.08,33.29
348.11,33.28
349.15,33.2
350.18,32.69
351.22,30.94
352.25,28.45
353.29,26.15
354.32,24.97
355.36,25.03
356.39,26.52
357.43,29
358.47,31.49
359.5,32.51
360.54,32.55
361.57,32.23
362.61,32.01
363.64,31.57
364.68,30.89
365.71,30.75
366.75,31.46
367.78,32.33
368.82,32.74
369.85,32.77
370.89,32.35
371.92,31.44
372.96,30.1
373.99,29.38
375.03,29.41
376.06,29.42
377.1,29.25
378.13,29.78
379.17,31.06
380.2,32.2
381.24,32.75
382.27,32.91
383.31,32.84
384.34,32.51
385.38,31.86
386.41,31.51
387.45,31.83
388.48,32.65
389.52,33.14
390.55,33.27
391.59,33.28
392.62,33.29
393.66,33.28
394.69,33.29
395.73,33.29
395.73,33.29" style="fill:Blue; stroke:Blue"/><polyline class="range" points="350.29,38.28
350.29,39.95
368.4,39.95
368.4,38.28" style="stroke:Blue"/><polyline class="range" points="370.37,38.28
370.37,39.95
380.93,39.95
380.93,38.28" style="stroke:Blue"/><polyline class="range" points="384.13,38.28
384.13,39.95
388.38,39.95
388.38,38.28" style="stroke:Blue"/></g><g id="itemarea15" transform="translate(0 346.27)"><polygon class="shadow" points="336.73,33.3
336.73,33.3
337.76,33.3
338.8,33.3
339.83,33.29
340.87,33.29
341.9,33.29
342.94,33.29
343.97,33.29
345.01,33.29
346.04,33.29
347.08,33.29
348.11,33.29
349.15,33.29
350.18,33.25
351.22,33.1
352.25,32.83
353.29,32.46
354.32,32.16
355.36,32.02
356.39,32.23
357.43,32.69
358.47,33.08
359.5,33.21
360.54,33.19
361.57,33.13
362.61,33.1
363.64,33
364.68,32.8
365.71,32.72
366.75,32.9
367.78,33.11
368.82,33.19
369.85,33.2
370.89,33.08
371.92,32.83
372.96,32.14
373.99,31.48
375.03,31.38
376.06,31.28
377.1,30.36
378.13,28.5
379.17,26.38
380.2,25.17
381.24,24.97
382.27,25.22
383.31,25.1
384.34,25.13
385.38,26.2
386.41,27.58
387.45,26.79
388.48,25.05
389.52,24.99
390.55,26.93
391.59,28.22
392.62,28.23
393.66,27.74
394.69,27.9
395.73,29.48
396.76,30.55
397.8,30.24
398.83,30.13
399.87,30.77
400.9,31.59
401.94,31.83
402.97,32.5
404.01,32.97
405.04,33.13
406.08,33.27
407.11,33.29
408.15,33.29
409.18,33.29
410.22,33.29
411.25,33.29
412.29,33.28
413.32,33.28
414.36,33.27
415.39,33.27
416.43,33.28
417.46,33.29
418.5,33.29
419.53,33.29
420.57,33.29
421.6,33.29
422.64,33.29
423.67,33.29
424.71,33.29
425.74,33.29
426.78,33.29
427.81,33.29
428.85,33.3
429.88,33.3
430.92,33.3
430.92,33.3" style="fill:Red; stroke:Red"/><polygon class="main" points="337.76,33.3
337.76,33.3
338.8,33.3
339.83,33.3
340.87,33.29
341.9,33.29
342.94,33.29
343.97,33.29
345.01,33.29
346.04,33.29
347.08,33.29
348.11,33.27
349.15,33.23
350.18,32.86
351.22,31.65
352.25,29.5
353.29,26.94
354.32,25.14
355.36,24.97
356.39,27.02
357.43,30.03
358.47,32.13
359.5,32.85
360.54,32.86
361.57,32.69
362.61,32.59
363.64,32.34
364.68,31.94
365.71,31.9
366.75,32.39
367.78,32.88
368.82,33.07
369.85,33.1
370.89,32.93
371.92,32.59
372.96,31.69
373.99,31.08
375.03,31.09
376.06,31.12
377.1,30.4
378.13,29.24
379.17,28.19
380.2,27.81
381.24,28.35
382.27,29.09
383.31,29.44
384.34,29.88
385.38,30.56
386.41,31.27
387.45,31.31
388.48,31.1
389.52,31.28
390.55,31.92
391.59,32.32
392.62,32.45
393.66,32.43
394.69,32.58
395.73,32.82
396.76,32.97
397.8,32.99
398.83,33.01
399.87,33.09
400.9,33.16
401.94,33.2
402.97,33.24
404.01,33.28
405.04,33.29
406.08,33.29
407.11,33.29
408.15,33.29
408.15,33.3" style="fill:Red; stroke:Red"/><polyline class="range" points="350.29,38.29
350.29,39.95
359.29,39.95
359.29,38.29" style="stroke:Red"/><polyline class="range" points="361.57,38.29
361.57,39.95
367.37,39.95
367.37,38.29" style="stroke:Red"/><polyline class="range" points="371.61,38.29
371.61,39.95
395.21,39.95
395.21,38.29" style="stroke:Red"/></g><g id="itemarea17" transform="translate(0 373.58)"><polygon class="main" points="349.15,33.3
349.15,33.3
350.18,33.3
351.22,33.28
352.25,32.86
353.29,32.03
354.32,30.06
355.36,28.09
356.39,26.31
357.43,25.9
358.47,26.03
359.5,26.74
360.54,26.96
361.57,27.71
362.61,28.24
363.64,28.47
364.68,28.52
365.71,28.96
366.75,28.95
367.78,29.31
368.82,29.56
369.85,29.71
370.89,30.19
371.92,30.04
372.96,30.3
373.99,29.57
375.03,29.61
376.06,29.13
377.1,28.71
378.13,28.04
379.17,27.39
380.2,26.27
381.24,25.14
382.27,25.21
383.31,25.43
384.34,24.97
385.38,25.35
386.41,25.07
387.45,25.09
388.48,25.24
389.52,26.01
390.55,26.31
391.59,26.9
392.62,27.23
393.66,27.84
394.69,28.11
395.73,28.75
396.76,29.22
397.8,29.5
398.83,29.91
399.87,29.97
400.9,30.29
401.94,30.68
402.97,30.85
404.01,31.25
405.04,31.43
406.08,31.69
407.11,31.84
408.15,31.92
409.18,31.96
410.22,32.13
411.25,32.29
412.29,32.41
413.32,32.5
414.36,32.56
415.39,32.59
416.43,32.68
417.46,32.71
418.5,32.72
419.53,32.76
420.57,32.88
421.6,32.86
422.64,32.94
423.67,32.96
424.71,33
425.74,33
426.78,33.05
427.81,33.07
428.85,33.08
429.88,33.11
430.92,33.09
431.95,33.11
432.99,33.13
434.03,33.17
435.06,33.15
436.1,33.16
437.13,33.19
438.17,33.18
439.2,33.2
440.24,33.19
441.27,33.2
442.31,33.21
443.34,33.21
444.38,33.21
445.41,33.24
446.45,33.24
447.48,33.23
448.52,33.23
449.55,33.25
450.59,33.24
451.62,33.25
452.66,33.25
453.69,33.26
454.73,33.26
455.76,33.27
456.8,33.25
457.83,33.25
458.87,33.26
459.9,33.26
460.94,33.28
461.97,33.27
463.01,33.27
464.04,33.27
465.08,33.27
466.11,33.27
467.15,33.27
468.18,33.28
469.22,33.28
470.25,33.28
471.29,33.28
472.32,33.28
473.36,33.28
474.39,33.28
475.43,33.28
476.46,33.28
477.5,33.28
478.53,33.28
479.57,33.29
480.6,33.29
481.64,33.29
482.67,33.29
483.71,33.29
484.74,33.29
485.78,33.29
486.81,33.29
487.85,33.29
488.88,33.29
489.92,33.29
490.95,33.29
491.99,33.29
493.02,33.29
494.06,33.29
495.09,33.29
496.13,33.29
497.16,33.29
498.2,33.29
499.23,33.29
500.27,33.29
501.3,33.29
502.34,33.29
503.37,33.29
504.41,33.29
505.44,33.29
506.48,33.29
507.51,33.29
508.55,33.29
509.59,33.29
510.62,33.29
511.66,33.29
512.69,33.29
513.73,33.29
514.76,33.29
515.8,33.29
516.83,33.29
517.87,33.29
518.9,33.29
518.9,33.3"/><polyline class="range" points="353.08,38.29
353.08,39.95
410.84,39.95
410.84,38.29"/></g></g></g><g id="textarea" transform="translate(14.15 14.15)"><g id="itemarea1" transform="translate(0 -8.72)"><text transform="translate(0 3.2)" style="font-size:8pt" x="7.22" y="33.3">Sequence Comptoirs d'Anatolie Centrale [Amodel:87]</text></g><g id="itemarea2" transform="translate(0 18.59)"><text transform="translate(0 3.2)" style="font-size:8pt;font-style:italic" x="12.03" y="33.3">Boundary debut CAC</text></g><g id="itemarea3" transform="translate(0 45.9)"><text transform="translate(0 3.2)" style="font-size:8pt" x="12.03" y="33.29">Phase CAC</text></g><g id="itemarea4" transform="translate(0 73.2)"><text transform="translate(0 3.2)" style="font-size:8pt" x="16.84" y="33.3">Phase phase BK IVd</text></g><g id="itemarea5" transform="translate(0 100.51)"><text transform="translate(0 3.2)" style="font-size:8pt;font-style:italic" x="21.65" y="33.3">R_Date H 3441-2841 (BK IVd) [A:86]</text></g><g id="itemarea6" transform="translate(0 127.82)"><text transform="translate(0 3.2)" style="font-size:8pt;font-style:italic" x="21.65" y="33.3">R_Date H 3442-2842 (BK IVd) [A:113]</text></g><g id="itemarea8" transform="translate(0 155.12)"><text transform="translate(0 3.2)" style="font-size:8pt" x="16.84" y="33.3">Phase phase KNW CAC</text></g><g id="itemarea9" transform="translate(0 182.43)"><text transform="translate(0 3.2)" style="font-size:8pt;font-style:italic" x="21.65" y="33.3">R_Date KIA45940 (Bo10-112-1701) [A:96]</text></g><g id="itemarea10" transform="translate(0 209.74)"><text transform="translate(0 3.2)" style="font-size:8pt;font-style:italic" x="21.65" y="33.3">R_Date KIA45945 (Bo10-112-497) [A:103]</text></g><g id="itemarea11" transform="translate(0 237.04)"><text transform="translate(0 3.2)" style="font-size:8pt;font-style:italic" x="21.65" y="33.3">R_Date KIA45941 (Bo10-177-362) [A:104]</text></g><g id="itemarea12" transform="translate(0 264.35)"><text transform="translate(0 3.2)" style="font-size:8pt;font-style:italic" x="21.65" y="33.3">R_Date KIA45942 (Bo10-177-363) [A:104]</text></g><g id="itemarea13" transform="translate(0 291.66)"><text transform="translate(0 3.2)" style="font-size:8pt;font-style:italic" x="21.65" y="33.3">R_Date KIA41842 (Bo09-178-470) [A:99]</text></g><g id="itemarea14" transform="translate(0 318.97)"><text transform="translate(0 3.2)" style="font-size:8pt;font-style:italic" x="21.65" y="33.29">R_Date KIA41843 (Bo09-207-1750) [A:93]</text></g><g id="itemarea15" transform="translate(0 346.27)"><text transform="translate(0 3.2)" style="font-size:8pt;font-style:italic" x="21.65" y="33.3">R_Date KIA45943 (Bo10-177-345) [A:65]</text></g><g id="itemarea17" transform="translate(0 373.58)"><text transform="translate(0 3.2)" style="font-size:8pt;font-style:italic" x="12.03" y="33.3">Boundary fin CAC</text></g></g><rect class="border" x="14.15" width="481.1" y="14.15" height="431.45"/><g><line class="gridline" x1="29.08" y1="445.6" x2="29.08" y2="14.15"/><line class="gridline" x1="132.58" y1="445.6" x2="132.58" y2="14.15"/><line class="gridline" x1="236.09" y1="445.6" x2="236.09" y2="14.15"/><line class="gridline" x1="339.6" y1="445.6" x2="339.6" y2="14.15"/><line class="gridline" x1="443.1" y1="445.6" x2="443.1" y2="14.15"/></g><g><line class="majorpip" x1="14.15" y1="445.6" x2="495.25" y2="445.6"/><line class="minorpip" x1="18.73" y1="445.6" x2="18.73" y2="442.77"/><line class="minorpip" x1="29.08" y1="445.6" x2="29.08" y2="442.77"/><line class="minorpip" x1="39.43" y1="445.6" x2="39.43" y2="442.77"/><line class="minorpip" x1="49.78" y1="445.6" x2="49.78" y2="442.77"/><line class="minorpip" x1="60.13" y1="445.6" x2="60.13" y2="442.77"/><line class="minorpip" x1="70.48" y1="445.6" x2="70.48" y2="442.77"/><line class="minorpip" x1="80.83" y1="445.6" x2="80.83" y2="442.77"/><line class="minorpip" x1="91.18" y1="445.6" x2="91.18" y2="442.77"/><line class="minorpip" x1="101.53" y1="445.6" x2="101.53" y2="442.77"/><line class="minorpip" x1="111.88" y1="445.6" x2="111.88" y2="442.77"/><line class="minorpip" x1="122.23" y1="445.6" x2="122.23" y2="442.77"/><line class="minorpip" x1="132.58" y1="445.6" x2="132.58" y2="442.77"/><line class="minorpip" x1="142.93" y1="445.6" x2="142.93" y2="442.77"/><line class="minorpip" x1="153.28" y1="445.6" x2="153.28" y2="442.77"/><line class="minorpip" x1="163.63" y1="445.6" x2="163.63" y2="442.77"/><line class="minorpip" x1="173.99" y1="445.6" x2="173.99" y2="442.77"/><line class="minorpip" x1="184.34" y1="445.6" x2="184.34" y2="442.77"/><line class="minorpip" x1="194.69" y1="445.6" x2="194.69" y2="442.77"/><line class="minorpip" x1="205.04" y1="445.6" x2="205.04" y2="442.77"/><line class="minorpip" x1="215.39" y1="445.6" x2="215.39" y2="442.77"/><line class="minorpip" x1="225.74" y1="445.6" x2="225.74" y2="442.77"/><line class="minorpip" x1="236.09" y1="445.6" x2="236.09" y2="442.77"/><line class="minorpip" x1="246.44" y1="445.6" x2="246.44" y2="442.77"/><line class="minorpip" x1="256.79" y1="445.6" x2="256.79" y2="442.77"/><line class="minorpip" x1="267.14" y1="445.6" x2="267.14" y2="442.77"/><line class="minorpip" x1="277.49" y1="445.6" x2="277.49" y2="442.77"/><line class="minorpip" x1="287.84" y1="445.6" x2="287.84" y2="442.77"/><line class="minorpip" x1="298.19" y1="445.6" x2="298.19" y2="442.77"/><line class="minorpip" x1="308.54" y1="445.6" x2="308.54" y2="442.77"/><line class="minorpip" x1="318.89" y1="445.6" x2="318.89" y2="442.77"/><line class="minorpip" x1="329.25" y1="445.6" x2="329.25" y2="442.77"/><line class="minorpip" x1="339.6" y1="445.6" x2="339.6" y2="442.77"/><line class="minorpip" x1="349.95" y1="445.6" x2="349.95" y2="442.77"/><line class="minorpip" x1="360.3" y1="445.6" x2="360.3" y2="442.77"/><line class="minorpip" x1="370.65" y1="445.6" x2="370.65" y2="442.77"/><line class="minorpip" x1="381" y1="445.6" x2="381" y2="442.77"/><line class="minorpip" x1="391.35" y1="445.6" x2="391.35" y2="442.77"/><line class="minorpip" x1="401.7" y1="445.6" x2="401.7" y2="442.77"/><line class="minorpip" x1="412.05" y1="445.6" x2="412.05" y2="442.77"/><line class="minorpip" x1="422.4" y1="445.6" x2="422.4" y2="442.77"/><line class="minorpip" x1="432.75" y1="445.6" x2="432.75" y2="442.77"/><line class="minorpip" x1="443.1" y1="445.6" x2="443.1" y2="442.77"/><line class="minorpip" x1="453.45" y1="445.6" x2="453.45" y2="442.77"/><line class="minorpip" x1="463.8" y1="445.6" x2="463.8" y2="442.77"/><line class="minorpip" x1="474.16" y1="445.6" x2="474.16" y2="442.77"/><line class="minorpip" x1="484.51" y1="445.6" x2="484.51" y2="442.77"/><line class="minorpip" x1="494.86" y1="445.6" x2="494.86" y2="442.77"/><line class="majorpip" x1="29.08" y1="445.6" x2="29.08" y2="439.94"/><text transform="translate(0 9.28)" style="font-size:8pt;text-anchor:middle" x="29.08" y="445.6">3500</text><line class="majorpip" x1="132.58" y1="445.6" x2="132.58" y2="439.94"/><text transform="translate(0 9.28)" style="font-size:8pt;text-anchor:middle" x="132.58" y="445.6">3000</text><line class="majorpip" x1="236.09" y1="445.6" x2="236.09" y2="439.94"/><text transform="translate(0 9.28)" style="font-size:8pt;text-anchor:middle" x="236.09" y="445.6">2500</text><line class="majorpip" x1="339.6" y1="445.6" x2="339.6" y2="439.94"/><text transform="translate(0 9.28)" style="font-size:8pt;text-anchor:middle" x="339.6" y="445.6">2000</text><line class="majorpip" x1="443.1" y1="445.6" x2="443.1" y2="439.94"/><text transform="translate(0 9.28)" style="font-size:8pt;text-anchor:middle" x="443.1" y="445.6">1500</text><text transform="translate(0 3.2)" style="font-size:8pt;text-anchor:middle;font-style:italic" x="254.7" y="473.9">Modelled date (BC)</text></g><g id="references" transform="translate(0 0)"><text transform="translate(0 -1.15)" style="font-size:4.800000000000001pt" x="14.15" y="14.15">OxCal v4.3.2 Bronk Ramsey (2017); r:5  IntCal13 atmospheric curve (Reimer et al 2013)</text></g></g></g>
</svg>