<?xml version="1.0" encoding="UTF-8"?><svg onload="createPlot()" preserveAspectRatio="xMinYMin" zoomAndPan="magnify" height="283.000pt" width="438.650pt" xmlns:ev="http://www.w3.org/2001/xml-events" xmlns:xlink="http://www.w3.org/1999/xlink" xmlns="http://www.w3.org/2000/svg" version="1.1" id="top" viewBox="0 0 438.650 283.000">
   <defs id="definitions">
   <filter filterUnits="userSpaceOnUse" id="Shadow">
    <feGaussianBlur result="blur" stdDeviation="4" in="SourceAlpha"/>
    <feOffset result="offsetBlurredAlpha" dy="4" dx="4" in="blur"/>
    <feMerge>
     <feMergeNode in="offsetBlurredAlpha"/>
     <feMergeNode in="SourceGraphic"/>
    </feMerge> 
   </filter>    
    <filter filterUnits="objectBoundingBox" height="140%" width="140%" y="-20%" x="-20%" id="Correlation1">
     <feGaussianBlur result="blur" stdDeviation="7" in="SourceGraphic"/>
     <feColorMatrix values="0 0 0  5.00 -2.00
               0 0 0 -2.50  2.50
               0 0 0  0.00  0.00
               0 0 0  2.50  0.00" in="blur" type="matrix"/>
    </filter>    
    <filter filterUnits="objectBoundingBox" height="140%" width="140%" y="-20%" x="-20%" id="Correlation2">
     <feGaussianBlur result="blur" stdDeviation="7" in="SourceGraphic"/>
     <feGaussianBlur result="opacity" stdDeviation="7" in="SourceAlpha"/>
     <feColorMatrix values="0 0 0  5.00 -2.00
               0 0 0 -2.50  2.50
               0 0 0  0.00  0.00
               0 0 0  2.50  0.00" result="newcolor" in="blur" type="matrix"/>
     <feSpecularLighting result="specularOut" lighting-color="white" specularExponent="20" specularConstant="1" surfaceScale="5" in="opacity">
      <feDistantLight elevation="30" azimuth="225"/>
     </feSpecularLighting>
     <feComposite result="litPaint" k4="0" k3="1" k2="1" k1="0" operator="arithmetic" in2="specularOut" in="newcolor"/>
    </filter>
    <pattern viewBox="0 0 5 5" height="5" width="5" y="0" x="0" patternUnits="userSpaceOnUse" id="Sequence">
    </pattern>    
    <pattern viewBox="0 0 5 5" height="5" width="5" y="0" x="0" patternUnits="userSpaceOnUse" id="U_Sequence">
     <line style="stroke-width:1.5;stroke:black" y2="-2.5" y1="5" x2="5" x1="-2.5"/>
     <line style="stroke-width:1.5;stroke:black" y2="0" y1="7.5" x2="7.5" x1="0"/>
    </pattern>    
    <pattern viewBox="0 0 5 5" height="5" width="5" y="0" x="0" patternUnits="userSpaceOnUse" id="D_Sequence">
     <line style="stroke-width:1;stroke:black" y2="7.5" y1="-2.5" x2="7.5" x1="-2.5"/>
     <line style="stroke-width:1;stroke:black" y2="-2.5" y1="7.5" x2="7.5" x1="-2.5"/>
    </pattern>    
    <pattern viewBox="0 0 5 5" height="5" width="5" y="0" x="0" patternUnits="userSpaceOnUse" id="V_Sequence">
     <ellipse style="fill:black" ry="0.7" rx="1.5" cy="2.5" cx="2.5"/>
    </pattern>    
    <pattern viewBox="0 0 5 5" height="5" width="5" y="0" x="0" patternUnits="userSpaceOnUse" id="P_Sequence">
     <circle style="fill:black" r="1" cy="3.75" cx="1.25"/>
     <circle style="fill:black" r="1" cy="1.25" cx="3.75"/>
    </pattern>
    <style type="text/css">
      rect.border { fill:none; stroke:black;stroke-width:1px }
      rect.fillblack { fill:black; stroke:black;stroke-width:1px }
      rect.structure { fill:none; stroke:none }
      rect.structtab { fill:blue; stroke:none;fill-opacity:0.2 }
      rect.structclip { fill:white; stroke:none }
      rect.structborder { fill:none; stroke:black; stroke-width:0.5px }
      rect.range3 {fill:black;stroke:black;stroke-width:1px;fill-opacity:0.1 }
      rect.range2 {fill:black;stroke:black;stroke-width:1px;fill-opacity:0.3 }
      rect.range1 {fill:black;stroke:black;stroke-width:1px;fill-opacity:0.5 }
      rect.fillbackground { fill:#000099 }
      rect.fillmodel { fill:#ffffcc;stroke:black;stroke-width:1px;fill-opacity:0.8 }
      rect.modeldist {fill:black;stroke:black;stroke-width:1px;fill-opacity:0.3 }
      rect.fill { fill:#CC0000 }
      polygon.main { fill:black; stroke:black;stroke-width:0.2px;fill-opacity:0.5 }
      polygon.shadow { fill:black; stroke:black;stroke-width:0.2px;fill-opacity:0.1 }
      polygon.curve { fill:blue; stroke:blue;stroke-width:1px;fill-opacity:0.3 }
      polygon.normal { fill:red; stroke:red;stroke-width:1px;fill-opacity:0.3 }
      polygon.kdesigma { fill:blue; stroke:blue;stroke-width:0px;fill-opacity:0.2 }
      polygon.modeldist { fill:url(#U_Sequence);stroke:black;stroke-width:1px;fill-opacity:0.3 }
      polyline.datacurve { fill:none; stroke:blue;stroke-width:1px }
      polyline.range { fill:none; stroke:black; stroke-width:1px; stroke-linejoin:round }
      polyline.ensemble { fill:none; stroke:black; stroke-width:0.5px;stroke-opacity:0.2 }
      polyline.kdemean { fill:none; stroke:blue; stroke-width:1px }
      path.model3 { fill:blue; stroke:blue;stroke-width:1px;fill-opacity:0.1 }
      path.model2 { fill:blue; stroke:blue;stroke-width:1px;fill-opacity:0.3 }
      path.model1 { fill:blue; stroke:blue;stroke-width:1px;fill-opacity:0.5 }
      g.curve { fill:blue; stroke:blue;stroke-width:1px;fill-opacity:0.3 }
      line.majorpip { stroke:black; stroke-width:1px }
      line.minorpip { stroke:black; stroke-width:0.5px }
      line.gridline { stroke:black; stroke-width:0.5px }
      line.majorpip2 { stroke:white; stroke-width:1px }
      line.minorpip2 { stroke:white; stroke-width:0.5px }
      line.gridline2 { stroke:white; stroke-width:0.5px }
      line.okline { stroke:green; stroke-width:1px }
      line.errorline { stroke:red; stroke-width:1px }
      line.range { stroke:black; stroke-width:1px }
      line.modelline { stroke:black; stroke-width:1px }
      line.constrshadow { stroke:#ffffcc; stroke-width:2px }
      line.constrok { stroke:black; stroke-width:1px }
      line.constrerror { stroke:#ff0000; stroke-width:1px }
      line.curve { stroke:blue;stroke-width:1px }
      text { fill:black; stroke:none; font-size:10pt; font-family:"Arial","Helvetica"; font-style:normal }
    </style>
   <clipPath id="clip1"><rect x="0" width="325.45" y="0" height="226.4"/></clipPath><clipPath id="clip2"><rect x="0" width="325.45" y="0" height="226.4"/></clipPath></defs>
    <g id="mainframe"><rect style="fill:white" x="-43.87" y="-28.3" width="526.39" height="339.6" stroke="none"/><g id="mainviewport" transform="translate(0 0)"><rect class="border" x="84.9" width="325.45" y="14.15" height="226.4"/><g id="plotarea" transform="translate(84.9 14.15)"><g clip-path="url(#clip2)"><g id="distarea" transform="translate(0 115.46)"><polygon id="prob" class="main" points="27.12,74.72
27.12,74.72
28.76,74.64
30.41,73.43
32.05,63.95
33.7,45.24
35.34,35.56
36.98,25.78
38.63,17.09
40.27,12.65
41.91,10.75
43.56,10.91
45.2,10.85
46.85,12.4
48.49,9.61
50.13,7.1
51.78,5.4
53.42,5.08
55.06,1.44
56.71,0
58.35,1.35
59.99,8.31
61.64,15.32
63.28,20.05
64.93,26.55
66.57,31.15
68.21,38.17
69.86,43.44
71.5,47.81
73.14,51.35
74.79,54.27
76.43,57.37
78.08,59.09
79.72,61.6
81.36,62.73
83.01,64.75
84.65,65.74
86.29,66.91
87.94,67.84
89.58,68.73
91.22,69.36
92.87,70.27
94.51,70.68
96.16,71.07
97.8,71.57
99.44,71.8
101.09,72.05
102.73,72.46
104.37,72.79
106.02,72.96
107.66,73.2
109.31,73.25
110.95,73.39
112.59,73.58
114.24,73.63
115.88,73.77
117.52,73.85
119.17,73.98
120.81,74.04
122.45,74.07
124.1,74.17
125.74,74.25
127.39,74.28
129.03,74.25
130.67,74.3
132.32,74.39
133.96,74.41
135.6,74.38
137.25,74.5
138.89,74.5
140.54,74.52
142.18,74.52
143.82,74.53
145.47,74.52
147.11,74.56
148.75,74.59
150.4,74.6
152.04,74.61
153.68,74.61
155.33,74.63
156.97,74.61
158.62,74.64
160.26,74.63
161.9,74.63
163.55,74.64
165.19,74.67
166.83,74.65
168.48,74.67
170.12,74.67
171.77,74.67
173.41,74.68
175.05,74.67
176.7,74.68
178.34,74.68
179.98,74.69
181.63,74.69
183.27,74.7
184.91,74.68
186.56,74.7
188.2,74.7
189.85,74.7
191.49,74.7
193.13,74.7
194.78,74.7
196.42,74.69
198.06,74.71
199.71,74.7
201.35,74.7
203,74.7
204.64,74.7
206.28,74.71
207.93,74.71
209.57,74.71
211.21,74.71
212.86,74.71
214.5,74.71
216.14,74.71
217.79,74.71
219.43,74.71
221.08,74.72
222.72,74.71
224.36,74.71
226.01,74.71
227.65,74.72
229.29,74.72
230.94,74.71
232.58,74.72
234.23,74.71
235.87,74.72
237.51,74.72
239.16,74.72
240.8,74.72
242.44,74.72
244.09,74.71
245.73,74.72
247.37,74.72
249.02,74.72
250.66,74.72
252.31,74.72
253.95,74.71
255.59,74.72
257.24,74.72
258.88,74.72
260.52,74.72
262.17,74.72
263.81,74.72
265.46,74.72
267.1,74.72
268.74,74.72
270.39,74.72
272.03,74.72
273.67,74.72
275.32,74.72
276.96,74.72
278.6,74.72
280.25,74.72
281.89,74.72
283.54,74.72
285.18,74.72
286.82,74.72
288.47,74.72
290.11,74.72
291.75,74.72
293.4,74.72
295.04,74.72
296.69,74.72
298.33,74.72
298.33,74.72"/></g><g id="rangearea" transform="translate(0 190.18)"><polyline class="range" points="31.56,10.87
31.56,14.49
85.8,14.49
85.8,10.87"/></g><g id="rangearea" transform="translate(0 190.18)"/></g></g><g id="textarea" transform="translate(84.9 14.15)"><text transform="translate(0 9.6)" style="font-size:9.600000000000001pt;text-anchor:middle;font-style:italic" x="162.73" y="4.53">Fin période hittite Boundary</text><text transform="translate(0 8)" style="font-size:8pt" x="175.74" y="18.11">  95.4% probability</text><text transform="translate(0 8)" style="font-size:8pt" x="182.25" y="31.7">   1608  (95.4%)  1443BC</text></g><rect class="border" x="84.9" width="325.45" y="14.15" height="226.4"/><g><line class="majorpip" x1="84.9" y1="240.55" x2="410.35" y2="240.55"/><line class="minorpip" x1="85.89" y1="240.55" x2="85.89" y2="237.72"/><line class="minorpip" x1="92.46" y1="240.55" x2="92.46" y2="237.72"/><line class="minorpip" x1="99.04" y1="240.55" x2="99.04" y2="237.72"/><line class="minorpip" x1="105.61" y1="240.55" x2="105.61" y2="237.72"/><line class="minorpip" x1="112.19" y1="240.55" x2="112.19" y2="237.72"/><line class="minorpip" x1="118.76" y1="240.55" x2="118.76" y2="237.72"/><line class="minorpip" x1="125.33" y1="240.55" x2="125.33" y2="237.72"/><line class="minorpip" x1="131.91" y1="240.55" x2="131.91" y2="237.72"/><line class="minorpip" x1="138.48" y1="240.55" x2="138.48" y2="237.72"/><line class="minorpip" x1="145.06" y1="240.55" x2="145.06" y2="237.72"/><line class="minorpip" x1="151.63" y1="240.55" x2="151.63" y2="237.72"/><line class="minorpip" x1="158.21" y1="240.55" x2="158.21" y2="237.72"/><line class="minorpip" x1="164.78" y1="240.55" x2="164.78" y2="237.72"/><line class="minorpip" x1="171.36" y1="240.55" x2="171.36" y2="237.72"/><line class="minorpip" x1="177.93" y1="240.55" x2="177.93" y2="237.72"/><line class="minorpip" x1="184.51" y1="240.55" x2="184.51" y2="237.72"/><line class="minorpip" x1="191.08" y1="240.55" x2="191.08" y2="237.72"/><line class="minorpip" x1="197.66" y1="240.55" x2="197.66" y2="237.72"/><line class="minorpip" x1="204.23" y1="240.55" x2="204.23" y2="237.72"/><line class="minorpip" x1="210.81" y1="240.55" x2="210.81" y2="237.72"/><line class="minorpip" x1="217.38" y1="240.55" x2="217.38" y2="237.72"/><line class="minorpip" x1="223.96" y1="240.55" x2="223.96" y2="237.72"/><line class="minorpip" x1="230.53" y1="240.55" x2="230.53" y2="237.72"/><line class="minorpip" x1="237.11" y1="240.55" x2="237.11" y2="237.72"/><line class="minorpip" x1="243.68" y1="240.55" x2="243.68" y2="237.72"/><line class="minorpip" x1="250.25" y1="240.55" x2="250.25" y2="237.72"/><line class="minorpip" x1="256.83" y1="240.55" x2="256.83" y2="237.72"/><line class="minorpip" x1="263.4" y1="240.55" x2="263.4" y2="237.72"/><line class="minorpip" x1="269.98" y1="240.55" x2="269.98" y2="237.72"/><line class="minorpip" x1="276.55" y1="240.55" x2="276.55" y2="237.72"/><line class="minorpip" x1="283.13" y1="240.55" x2="283.13" y2="237.72"/><line class="minorpip" x1="289.7" y1="240.55" x2="289.7" y2="237.72"/><line class="minorpip" x1="296.28" y1="240.55" x2="296.28" y2="237.72"/><line class="minorpip" x1="302.85" y1="240.55" x2="302.85" y2="237.72"/><line class="minorpip" x1="309.43" y1="240.55" x2="309.43" y2="237.72"/><line class="minorpip" x1="316" y1="240.55" x2="316" y2="237.72"/><line class="minorpip" x1="322.58" y1="240.55" x2="322.58" y2="237.72"/><line class="minorpip" x1="329.15" y1="240.55" x2="329.15" y2="237.72"/><line class="minorpip" x1="335.73" y1="240.55" x2="335.73" y2="237.72"/><line class="minorpip" x1="342.3" y1="240.55" x2="342.3" y2="237.72"/><line class="minorpip" x1="348.88" y1="240.55" x2="348.88" y2="237.72"/><line class="minorpip" x1="355.45" y1="240.55" x2="355.45" y2="237.72"/><line class="minorpip" x1="362.03" y1="240.55" x2="362.03" y2="237.72"/><line class="minorpip" x1="368.6" y1="240.55" x2="368.6" y2="237.72"/><line class="minorpip" x1="375.18" y1="240.55" x2="375.18" y2="237.72"/><line class="minorpip" x1="381.75" y1="240.55" x2="381.75" y2="237.72"/><line class="minorpip" x1="388.32" y1="240.55" x2="388.32" y2="237.72"/><line class="minorpip" x1="394.9" y1="240.55" x2="394.9" y2="237.72"/><line class="minorpip" x1="401.47" y1="240.55" x2="401.47" y2="237.72"/><line class="minorpip" x1="408.05" y1="240.55" x2="408.05" y2="237.72"/><line class="majorpip" x1="118.76" y1="240.55" x2="118.76" y2="234.89"/><text transform="translate(0 9.28)" style="font-size:8pt;text-anchor:middle" x="118.76" y="240.55">1600</text><line class="majorpip" x1="184.51" y1="240.55" x2="184.51" y2="234.89"/><text transform="translate(0 9.28)" style="font-size:8pt;text-anchor:middle" x="184.51" y="240.55">1400</text><line class="majorpip" x1="250.25" y1="240.55" x2="250.25" y2="234.89"/><text transform="translate(0 9.28)" style="font-size:8pt;text-anchor:middle" x="250.25" y="240.55">1200</text><line class="majorpip" x1="316" y1="240.55" x2="316" y2="234.89"/><text transform="translate(0 9.28)" style="font-size:8pt;text-anchor:middle" x="316" y="240.55">1000</text><line class="majorpip" x1="381.75" y1="240.55" x2="381.75" y2="234.89"/><text transform="translate(0 9.28)" style="font-size:8pt;text-anchor:middle" x="381.75" y="240.55">800</text><text transform="translate(0 3.2)" style="font-size:8pt;text-anchor:middle" x="247.63" y="268.85">Modelled date (BC)</text></g><g><line class="majorpip" x1="84.9" y1="204.33" x2="84.9" y2="129.61"/><line class="minorpip" x1="84.9" y1="204.33" x2="87.73" y2="204.33"/><line class="minorpip" x1="84.9" y1="200.44" x2="87.73" y2="200.44"/><line class="minorpip" x1="84.9" y1="196.56" x2="87.73" y2="196.56"/><line class="minorpip" x1="84.9" y1="192.67" x2="87.73" y2="192.67"/><line class="minorpip" x1="84.9" y1="188.79" x2="87.73" y2="188.79"/><line class="minorpip" x1="84.9" y1="184.9" x2="87.73" y2="184.9"/><line class="minorpip" x1="84.9" y1="181.02" x2="87.73" y2="181.02"/><line class="minorpip" x1="84.9" y1="177.13" x2="87.73" y2="177.13"/><line class="minorpip" x1="84.9" y1="173.24" x2="87.73" y2="173.24"/><line class="minorpip" x1="84.9" y1="169.36" x2="87.73" y2="169.36"/><line class="minorpip" x1="84.9" y1="165.47" x2="87.73" y2="165.47"/><line class="minorpip" x1="84.9" y1="161.59" x2="87.73" y2="161.59"/><line class="minorpip" x1="84.9" y1="157.7" x2="87.73" y2="157.7"/><line class="minorpip" x1="84.9" y1="153.82" x2="87.73" y2="153.82"/><line class="minorpip" x1="84.9" y1="149.93" x2="87.73" y2="149.93"/><line class="minorpip" x1="84.9" y1="146.04" x2="87.73" y2="146.04"/><line class="minorpip" x1="84.9" y1="142.16" x2="87.73" y2="142.16"/><line class="minorpip" x1="84.9" y1="138.27" x2="87.73" y2="138.27"/><line class="minorpip" x1="84.9" y1="134.39" x2="87.73" y2="134.39"/><line class="minorpip" x1="84.9" y1="130.5" x2="87.73" y2="130.5"/><line class="majorpip" x1="84.9" y1="204.33" x2="90.56" y2="204.33"/><text transform="translate(0 3.2)" style="font-size:8pt;text-anchor:end" x="82.07" y="204.33">0</text><line class="majorpip" x1="84.9" y1="165.47" x2="90.56" y2="165.47"/><text transform="translate(0 3.2)" style="font-size:8pt;text-anchor:end" x="82.07" y="165.47">0.005</text><text transform="matrix(0,-1,1,0,28.3,166.97)" style="font-size:8pt;text-anchor:middle" x="0" y="3.2">Probability density</text></g><text transform="translate(0 -1.15)" style="font-size:4.800000000000001pt" x="84.9" y="14.15">OxCal v4.3.2 Bronk Ramsey (2017); r:5</text></g></g>
</svg>