"Name","Unmodelled (BC/AD)",,,"Modelled (BC/AD)",,,"Indices
Amodel 107.9
Aoverall 106.5",
,"from","to","%","from","to","%","Acomb","A","L","P","C",
"Sequence Ville basse",,,,,,,,,,,,
"Boundary debut BA",,,,"-2170","-1964","95.4",,,,,95.3,
"Phase BA BK Vc",,,,,,,,,,,,
"R_Date H 3443-2843 (BK Vc)","-2279","-1896","95.4","-2123","-1961","95.4",,110.9,,,97,
"R_Date H 3444-2844 (BK Vc)","-2135","-1695","95.4","-2125","-1959","95.39999999999999",,85,,,97.5,
"R_Date H 3445-2845 (BK Vc)","-2134","-1694","95.4","-2125","-1958","95.39999999999999",,79.7,,,97.6,
"R_Date H 3446-2860 (BK Vc)","-2194","-1777","95.4","-2124","-1960","95.39999999999999",,119.6,,,97.5,
"Span span BK Vc",,,,"0","100","95.4",,,,,99,
"Boundary transition BA/CAC",,,,"-2105","-1944","95.4",,,,,97.8,
"Phase Période des Comptoirs d'Anatolie Centrale",,,,,,,,,,,,
"Phase phase BK IVd",,,,,,,,,,,,
"R_Date H 3441-2841 (BK IVd)","-2279","-1896","95.4","-2056","-1786","95.39999999999999",,68.9,,,99.8,
"R_Date H 3442-2842 (BK IVd)","-2135","-1695","95.4","-2013","-1742","95.4",,112.3,,,99.9,
"Span span BK IVd",,,,"0","224","95.4",,,,,100,
"Phase phase KNW CAC",,,,,,,,,,,,
"R_Date KIA45940 (Bo10-112-1701)","-2136","-1944","95.4","-2032","-1914","95.4",,85.7,,,99.6,
"R_Date KIA45945 (Bo10-112-497)","-2113","-1892","95.4","-2014","-1893","95.4",,102,,,99.9,
"R_Date KIA45941 (Bo10-177-362)","-2026","-1782","95.4","-2012","-1783","95.4",,105.6,,,99.9,
"R_Date KIA45942 (Bo10-177-363)","-2016","-1775","95.4","-1979","-1776","95.4",,103.3,,,99.9,
"R_Date KIA41842 (Bo09-178-470)","-1936","-1746","95.4","-1932","-1749","95.4",,100.5,,,100,
"R_Date KIA41843 (Bo09-207-1750)","-1877","-1693","95.50000000000001","-1880","-1694","95.3",,97.3,,,99.9,
"R_Date KIA45943 (Bo10-177-345)","-1865","-1627","95.39999999999999","-1876","-1661","95.3",,89.6,,,99.9,
"Span span KNW CAC",,,,"113","338","95.4",,,,,99.8,
"Boundary Transition CAC/Hittite",,,,"-1847","-1617","95.4",,,,,99.9,
"Phase Période hittite",,,,,,,,,,,,
"Sequence KNW hittite",,,,,,,,,,,,
"R_Date ETH-56444 (Bo13-18-422)","-1658","-1507","95.4","-1664","-1539","95.4",,94.7,,,99.9,
"Span span KNW BR 1/2",,,,"0","99","95.4",,,,,99.9,
"R_Date KlA45944 (Bo10-85-1724)","-1641","-1450","95.4","-1622","-1506","95.4",,112.7,,,99.9,
"Sequence WTer  hittite",,,,,,,,,,,,
"Phase WTer 1",,,,,,,,,,,,
"R_Date SUERC-50213 (Bo1975-P5)","-1874","-1561","95.4","-1742","-1604","95.4",,103.2,,,99.9,
"R_Date SUERC-50214 (Bo1976-A20)","-1751","-1531","95.4","-1733","-1564","95.4",,117.1,,,99.9,
"Span span WTer 1",,,,"0","90","95.4",,,,,100,
"R_Date SUERC-50212 (Bo1975-O12)","-1728","-1502","95.4","-1656","-1521","95.4",,114.7,,,99.9,
"Phase Silo Poternenmauer",,,,,,,,,,,,
"Combine","-1612","-1526","95.4","-1613","-1529","95.4",120.2,,,,99.9,
"R_Date Hd-21429","-1621","-1460","95.39999999999999","-1613","-1529","95.4",,108.7,,,99.9,
"R_Date Hd-21379","-1635","-1506","95.4","-1613","-1529","95.4",,110.7,,,99.9,
"R_Date Hd-21432","-1612","-1455","95.4","-1613","-1529","95.4",,,77.5,,99.9,
"R_Date Hd-21376","-1643","-1504","95.4","-1613","-1529","95.4",,111.4,,,99.9,
"R_Date Hd-21401","-1641","-1502","95.4","-1613","-1529","95.4",,113,,,99.9,
"R_Date Hd-21373","-1614","-1506","95.4","-1613","-1529","95.4",,110.3,,,99.9,
"R_Date Hd-21391","-1613","-1500","95.4","-1613","-1529","95.4",,94.7,,,99.9,
"Span span Silo Poternenmauer",,,,"0","5","95.4",,,,,100,
"Boundary Fin période hittite",,,,"-1608","-1443","95.4",,,,,99.2,
