<?xml version="1.0" encoding="UTF-8" standalone="no"?>
<!-- Created with Inkscape (http://www.inkscape.org/) -->

<svg
   xmlns:dc="http://purl.org/dc/elements/1.1/"
   xmlns:cc="http://creativecommons.org/ns#"
   xmlns:rdf="http://www.w3.org/1999/02/22-rdf-syntax-ns#"
   xmlns:svg="http://www.w3.org/2000/svg"
   xmlns="http://www.w3.org/2000/svg"
   xmlns:sodipodi="http://sodipodi.sourceforge.net/DTD/sodipodi-0.dtd"
   xmlns:inkscape="http://www.inkscape.org/namespaces/inkscape"
   width="28.296068mm"
   height="28.231815mm"
   id="svg4048"
   version="1.1"
   inkscape:version="0.92.4 (5da689c313, 2019-01-14)"
   sodipodi:docname="Bo71-350.svg"
   inkscape:export-filename="/media/hdd/Nehemie/Bogazkoy/BoKe/BoKeWTer/Images/SVG/Divers/Bo75-588.png"
   inkscape:export-xdpi="300"
   inkscape:export-ydpi="300">
  <title
     id="title2983">Bo71-350</title>
  <defs
     id="defs4050" />
  <sodipodi:namedview
     id="base"
     pagecolor="#ffffff"
     bordercolor="#666666"
     borderopacity="1.0"
     inkscape:pageopacity="0.0"
     inkscape:pageshadow="2"
     inkscape:zoom="0.2902709"
     inkscape:cx="-41.289262"
     inkscape:cy="-331.35903"
     inkscape:document-units="px"
     inkscape:current-layer="layer2"
     showgrid="true"
     units="mm"
     inkscape:window-width="956"
     inkscape:window-height="951"
     inkscape:window-x="0"
     inkscape:window-y="108"
     inkscape:window-maximized="0"
     fit-margin-top="0"
     fit-margin-left="0"
     fit-margin-right="0"
     fit-margin-bottom="0">
    <inkscape:grid
       type="xygrid"
       id="grid4079"
       units="cm"
       empspacing="5"
       visible="false"
       enabled="false"
       snapvisiblegridlinesonly="true"
       originx="-316.23176"
       originy="-225.10486"
       spacingx="37.795276"
       spacingy="37.795276" />
  </sodipodi:namedview>
  <metadata
     id="metadata4053">
    <rdf:RDF>
      <cc:Work
         rdf:about="">
        <dc:format>image/svg+xml</dc:format>
        <dc:type
           rdf:resource="http://purl.org/dc/dcmitype/StillImage" />
        <dc:title>Bo71-350</dc:title>
        <cc:license
           rdf:resource="http://creativecommons.org/licenses/by-sa/4.0/" />
        <dc:creator>
          <cc:Agent>
            <dc:title>Néhémie Strupler</dc:title>
          </cc:Agent>
        </dc:creator>
        <dc:description>Pottery Drawing from the BoKeWTer database </dc:description>
        <dc:contributor>
          <cc:Agent>
            <dc:title>Illustrator: unknown (1971)
Digitalisation: Néhémie Strupler</dc:title>
          </cc:Agent>
        </dc:contributor>
        <dc:subject>
          <rdf:Bag>
            <rdf:li>Pottery</rdf:li>
            <rdf:li>Drawing</rdf:li>
            <rdf:li>BoKeWTer</rdf:li>
            <rdf:li>Westterrasse</rdf:li>
            <rdf:li>Boğazköy</rdf:li>
            <rdf:li>Bogazkoy</rdf:li>
            <rdf:li>Hattusa</rdf:li>
            <rdf:li>Late Bronze Age</rdf:li>
            <rdf:li>Turquie</rdf:li>
          </rdf:Bag>
        </dc:subject>
        <dc:date>2015-06-11</dc:date>
        <dc:rights>
          <cc:Agent>
            <dc:title>Néhémie Strupler</dc:title>
          </cc:Agent>
        </dc:rights>
        <dc:relation />
      </cc:Work>
      <cc:License
         rdf:about="http://creativecommons.org/licenses/by-sa/4.0/">
        <cc:permits
           rdf:resource="http://creativecommons.org/ns#Reproduction" />
        <cc:permits
           rdf:resource="http://creativecommons.org/ns#Distribution" />
        <cc:requires
           rdf:resource="http://creativecommons.org/ns#Notice" />
        <cc:requires
           rdf:resource="http://creativecommons.org/ns#Attribution" />
        <cc:permits
           rdf:resource="http://creativecommons.org/ns#DerivativeWorks" />
        <cc:requires
           rdf:resource="http://creativecommons.org/ns#ShareAlike" />
      </cc:License>
    </rdf:RDF>
  </metadata>
  <g
     inkscape:groupmode="layer"
     id="layer2"
     inkscape:label="scale"
     transform="translate(-316.23178,-790.71176)"
     style="display:inline">
    <rect
       style="display:inline;fill:none;stroke:#000000;stroke-width:0.75122672;stroke-miterlimit:4;stroke-dasharray:none"
       id="rect3759-1"
       height="5.6514339"
       width="21.204493"
       y="891.38715"
       x="316.71729" />
    <rect
       style="display:inline;stroke:#000000;stroke-width:0.75122672;stroke-miterlimit:4;stroke-dasharray:none"
       id="rect3761-59"
       height="5.6514339"
       width="21.204493"
       y="891.38763"
       x="337.93756" />
    <rect
       style="display:inline;fill:none;stroke:#000000;stroke-width:0.75122672;stroke-miterlimit:4;stroke-dasharray:none"
       id="rect3763-46"
       height="5.6514339"
       width="21.20524"
       y="891.38477"
       x="359.15692" />
    <rect
       style="display:inline;stroke:#000000;stroke-width:0.75122672;stroke-miterlimit:4;stroke-dasharray:none"
       id="rect3765-3"
       height="5.6514339"
       width="21.20524"
       y="891.38763"
       x="380.3772" />
    <rect
       style="display:inline;fill:none;stroke:#000000;stroke-width:0.75122672;stroke-miterlimit:4;stroke-dasharray:none"
       id="rect3767-4"
       height="5.6514339"
       width="21.204493"
       y="891.38763"
       x="401.59744" />
    <rect
       style="display:inline;stroke:#000000;stroke-width:0.75122672;stroke-miterlimit:4;stroke-dasharray:none"
       id="rect3771-4"
       height="5.6514339"
       width="21.204493"
       y="885.67242"
       x="316.71729" />
    <rect
       style="display:inline;fill:none;stroke:#000000;stroke-width:0.75122672;stroke-miterlimit:4;stroke-dasharray:none"
       id="rect3773-0"
       height="5.6514339"
       width="21.204493"
       y="885.67279"
       x="337.93756" />
    <rect
       style="display:inline;stroke:#000000;stroke-width:0.75122672;stroke-miterlimit:4;stroke-dasharray:none"
       id="rect3775-6"
       height="5.6514339"
       width="21.20599"
       y="885.67004"
       x="359.15692" />
    <rect
       style="display:inline;fill:none;stroke:#000000;stroke-width:0.75122672;stroke-miterlimit:4;stroke-dasharray:none"
       id="rect3777-7"
       height="5.6514339"
       width="21.20524"
       y="885.67279"
       x="380.3772" />
    <rect
       style="display:inline;stroke:#000000;stroke-width:0.75122672;stroke-miterlimit:4;stroke-dasharray:none"
       id="rect3779-1"
       height="5.6514339"
       width="21.204493"
       y="885.67279"
       x="401.59744" />
    <text
       style="font-style:normal;font-variant:normal;font-weight:normal;font-stretch:normal;font-size:10.13349533px;line-height:0%;font-family:'Gentium Book Basic';-inkscape-font-specification:'Gentium Book Basic';stroke-width:0.77949965"
       id="text3783-2"
       font-size="12"
       x="329.14194"
       y="846.70905"
       transform="scale(0.95975193,1.0419359)">0</text>
    <text
       style="font-style:normal;font-variant:normal;font-weight:normal;font-stretch:normal;font-size:10.13349533px;line-height:0%;font-family:'Gentium Book Basic';-inkscape-font-specification:'Gentium Book Basic';stroke-width:0.77949965"
       id="text3785-4"
       font-size="12"
       x="422.93042"
       y="846.67932"
       transform="scale(0.95975193,1.0419359)">5cm</text>
  </g>
  <g
     inkscape:groupmode="layer"
     id="layer8"
     inkscape:label="external"
     transform="translate(-698.44688,-1353.7974)">
    <path
       style="fill:none;stroke:#000000;stroke-width:0.60098141px;stroke-linecap:butt;stroke-linejoin:miter;stroke-opacity:1"
       d="m 752.0236,1428.7915 c 0,0 -40.26013,-3.6601 -43.55415,-27.4501 -3.29401,-23.7901 8.41803,-38.7962 8.41803,-44.6522"
       id="path4329"
       inkscape:connector-curvature="0" />
  </g>
  <g
     inkscape:groupmode="layer"
     id="layer9"
     inkscape:label="section"
     transform="translate(-698.44688,-1353.7974)">
    <path
       style="fill:#000000;fill-opacity:1;stroke:#000000;stroke-width:0.60098141px;stroke-linecap:butt;stroke-linejoin:miter;stroke-opacity:1"
       d="m 751.9971,1428.7915 c 0,0 30.14588,-0.054 40.83673,-27.062 9.09885,-22.9866 -4.66541,-40.09 -4.66541,-45.9461 0,0 -7.84474,-4.7126 -8.49174,1.6281 0,0 7.76405,26.1389 5.82304,32.9972 -1.94101,6.8582 -2.66418,16.8991 -17.98674,22.6451 -12.42248,4.6585 -15.91631,2.7175 -15.91631,2.7175 z"
       id="path4329-2"
       inkscape:connector-curvature="0"
       sodipodi:nodetypes="csccssc" />
  </g>
  <g
     inkscape:groupmode="layer"
     id="layer10"
     inkscape:label="rotation_axis"
     transform="translate(-698.44688,-1353.7974)">
    <path
       style="fill:none;stroke:#000000;stroke-width:0.60098141px;stroke-linecap:butt;stroke-linejoin:miter;stroke-opacity:1"
       d="m 751.46727,1428.8408 v -72.7234"
       id="path4870"
       inkscape:connector-curvature="0" />
    <path
       style="fill:none;stroke:#000000;stroke-width:0.60098141px;stroke-linecap:butt;stroke-linejoin:miter;stroke-opacity:1"
       d="m 716.79598,1356.6892 c 0,0 5.58152,0.2745 8.23503,-0.8235 2.6535,-1.098 10.52253,-0.183 13.63354,0.732 3.11101,0.9151 10.43104,-0.549 12.07804,-0.549 1.64701,0 23.33258,-1.098 23.33258,-1.098"
       id="path4874"
       inkscape:connector-curvature="0" />
  </g>
</svg>
