<?xml version="1.0" encoding="UTF-8" standalone="no"?>
<!-- Created with Inkscape (http://www.inkscape.org/) -->

<svg
   xmlns:dc="http://purl.org/dc/elements/1.1/"
   xmlns:cc="http://creativecommons.org/ns#"
   xmlns:rdf="http://www.w3.org/1999/02/22-rdf-syntax-ns#"
   xmlns:svg="http://www.w3.org/2000/svg"
   xmlns="http://www.w3.org/2000/svg"
   xmlns:sodipodi="http://sodipodi.sourceforge.net/DTD/sodipodi-0.dtd"
   xmlns:inkscape="http://www.inkscape.org/namespaces/inkscape"
   width="617.95337"
   height="285.82565"
   id="svg4048"
   version="1.1"
   inkscape:version="0.48.3.1 r9886"
   sodipodi:docname="Bo75-A2-39.svg"
   inkscape:export-filename="/media/hdd/Nehemie/Bogazkoy/BoKe/BoKeWTer/Images/SVG/Geb84/clean/Bo75-A2-39.png"
   inkscape:export-xdpi="300"
   inkscape:export-ydpi="300">
  <title
     id="title2983">Bo75-A2-39</title>
  <defs
     id="defs4050">
	
	
	
	
		
	
	
		
	
		
	
		


</defs>
  <sodipodi:namedview
     id="base"
     pagecolor="#ffffff"
     bordercolor="#666666"
     borderopacity="1.0"
     inkscape:pageopacity="0.0"
     inkscape:pageshadow="2"
     inkscape:zoom="0.7"
     inkscape:cx="604.50067"
     inkscape:cy="419.87223"
     inkscape:document-units="px"
     inkscape:current-layer="layer1"
     showgrid="true"
     units="mm"
     inkscape:window-width="1600"
     inkscape:window-height="851"
     inkscape:window-x="0"
     inkscape:window-y="26"
     inkscape:window-maximized="1"
     fit-margin-top="0"
     fit-margin-left="0"
     fit-margin-right="0"
     fit-margin-bottom="0">
    <inkscape:grid
       type="xygrid"
       id="grid4079"
       units="cm"
       empspacing="5"
       visible="false"
       enabled="false"
       snapvisiblegridlinesonly="true"
       originx="-2.266499cm"
       originy="-21.25235cm" />
  </sodipodi:namedview>
  <metadata
     id="metadata4053">
    <rdf:RDF>
      <cc:Work
         rdf:about="">
        <dc:format>image/svg+xml</dc:format>
        <dc:type
           rdf:resource="http://purl.org/dc/dcmitype/StillImage" />
        <dc:title>Bo75-A2-39</dc:title>
        <cc:license
           rdf:resource="" />
        <dc:creator>
          <cc:Agent>
            <dc:title>Néhémie Strupler</dc:title>
          </cc:Agent>
        </dc:creator>
        <dc:description>Pottery Drawing from the BoKeWTer database </dc:description>
        <dc:contributor>
          <cc:Agent>
            <dc:title>Illustrator: İrem Göçmez
Basic digitisation: Mehmet Turgut
Final work and metadata: Néhémie Strupler</dc:title>
          </cc:Agent>
        </dc:contributor>
        <dc:subject>
          <rdf:Bag>
            <rdf:li>Pottery</rdf:li>
            <rdf:li>Drawing</rdf:li>
            <rdf:li>BoKeWTer</rdf:li>
            <rdf:li>Westterrasse</rdf:li>
            <rdf:li>Boğazköy</rdf:li>
            <rdf:li>Bogazkoy</rdf:li>
            <rdf:li>Hattusa</rdf:li>
            <rdf:li>Late Bronze Age</rdf:li>
            <rdf:li>Turkey</rdf:li>
          </rdf:Bag>
        </dc:subject>
        <dc:date>2015-05-31</dc:date>
        <dc:rights>
          <cc:Agent>
            <dc:title>Néhémie Strupler</dc:title>
          </cc:Agent>
        </dc:rights>
        <dc:relation />
      </cc:Work>
    </rdf:RDF>
  </metadata>
  <g
     inkscape:label="Layer 1"
     inkscape:groupmode="layer"
     id="layer1"
     transform="translate(-80.309019,-13.500516)">
    <path
       id="path6514"
       d="m 391.81563,198.342 c 0,0 0.20625,-0.0312 0.56875,-0.09 42.91,-6.82375 87.8325,-17.34375 129.52625,-30.75 28.32,-9.10625 54.19625,-20.905 80.0175,-39.9125 27.22375,-20.04 57.385,-46.46875 64.165,-71.78625 0.99375,-3.7125 1.44,-7.47625 1.21125,-11.18 -0.5125,-8.27 -4.33625,-10.69375 -0.98875,-19.4975 1.9825,-5.20875 5.91125,-7.895 10.90375,-9.33625 3.81125,-0.51625 7.895,0.835 11.08375,2.70625 16.39125,9.625 6.3425,34.7575 1.6875,49.0975 -2.31875,7.14875 -7.12625,13.0525 -12.32125,18.58625 -14.97125,15.94375 -24.73625,34.9975 -40.49375,50.4575 -14.0675,13.80125 -29.145,25.90625 -45.69875,36.2525 -27.92,17.45125 -87.66875,52.1 -117.9,60.6025 -5.26125,-0.0325 -23.9475,-0.14875 -23.9475,-0.14875 h -57.1875 L 391.81563,198.342 z"
       style="fill-rule:evenodd;stroke:#000000;stroke-width:1.875;stroke-linecap:round;stroke-linejoin:round;stroke-miterlimit:3.86369991;stroke-dasharray:none"
       inkscape:connector-curvature="0" />
    <line
       id="line6526"
       y2="233.967"
       x2="306.34689"
       y1="233.967"
       x1="471.6795"
       style="fill:none;stroke:#000000;stroke-width:1.8542012;stroke-linecap:round;stroke-linejoin:round;stroke-miterlimit:3.86369991;stroke-dasharray:none" />
    <path
       id="path6528"
       d="m 94.59938,14.602 c 0,0 -2.075,0.55625 -3.8625,1.03625 -17.9025,8.69 -6.35,45.06375 1.19875,57.52125 11.14375,18.38875 28.91125,35.99875 42.8325,52.67125 15.22,18.23 29.19125,31.9125 61.31875,51.55875 29.22125,17.87 80.88375,40.66125 106.81625,55.1525 1.22375,0.68375 2.00875,1.12125 2.00875,1.12125 l 1.5625,0.3125"
       style="fill:none;stroke:#000000;stroke-width:1.875;stroke-linecap:round;stroke-linejoin:round;stroke-miterlimit:3.86369991;stroke-dasharray:none"
       inkscape:connector-curvature="0" />
    <line
       id="line6530"
       y2="14.630748"
       x2="94.414375"
       y1="14.630748"
       x1="649.1449"
       style="fill:none;stroke:#000000;stroke-width:1.84668028;stroke-linecap:round;stroke-linejoin:round;stroke-miterlimit:3.86369991;stroke-dasharray:none" />
    <line
       id="line6532"
       y2="233.36885"
       x2="391.81564"
       y1="14.43574"
       x1="391.81564"
       style="fill:none;stroke:#000000;stroke-width:1.87044799;stroke-linecap:round;stroke-linejoin:round;stroke-miterlimit:3.86369991;stroke-dasharray:none" />
  </g>
  <g
     inkscape:groupmode="layer"
     id="layer17"
     inkscape:label="scale"
     transform="translate(-80.309019,-13.500514)">
    <g
       style="display:inline"
       id="g3705"
       transform="matrix(1.244841,0,0,1.3514373,-1317.4301,-1197.1057)">
      <g
         id="g5680">
        <g
           style="stroke-width:0.96372944;stroke-miterlimit:4;stroke-dasharray:none;display:inline"
           id="g3676"
           transform="translate(0,2.0000001)">
          <rect
             x="1230.9233"
             y="1090.9103"
             width="283.53973"
             height="13.916063"
             id="rect3757-68"
             style="fill:none;stroke:#000000;stroke-width:0.96372944;stroke-miterlimit:4;stroke-dasharray:none;display:inline" />
          <rect
             x="1230.7921"
             y="1097.8679"
             width="28.34347"
             height="6.9582772"
             id="rect3759-1"
             style="fill:none;stroke:#000000;stroke-width:0.96372944;stroke-miterlimit:4;stroke-dasharray:none;display:inline" />
          <rect
             x="1259.1566"
             y="1097.8684"
             width="28.34347"
             height="6.9582772"
             id="rect3761-59"
             style="stroke:#000000;stroke-width:0.96372944;stroke-miterlimit:4;stroke-dasharray:none;display:inline" />
          <rect
             x="1287.52"
             y="1097.865"
             width="28.344469"
             height="6.9582772"
             id="rect3763-46"
             style="fill:none;stroke:#000000;stroke-width:0.96372944;stroke-miterlimit:4;stroke-dasharray:none;display:inline" />
          <rect
             x="1315.8845"
             y="1097.8684"
             width="28.344469"
             height="6.9582772"
             id="rect3765-3"
             style="stroke:#000000;stroke-width:0.96372944;stroke-miterlimit:4;stroke-dasharray:none;display:inline" />
          <rect
             x="1344.249"
             y="1097.8684"
             width="28.34347"
             height="6.9582772"
             id="rect3767-4"
             style="fill:none;stroke:#000000;stroke-width:0.96372944;stroke-miterlimit:4;stroke-dasharray:none;display:inline" />
          <rect
             x="1372.6125"
             y="1097.865"
             width="141.71834"
             height="6.9577866"
             id="rect3769-0"
             style="stroke:#000000;stroke-width:0.96372944;stroke-miterlimit:4;stroke-dasharray:none;display:inline" />
          <rect
             x="1230.7921"
             y="1090.8317"
             width="28.34347"
             height="6.9582772"
             id="rect3771-4"
             style="stroke:#000000;stroke-width:0.96372944;stroke-miterlimit:4;stroke-dasharray:none;display:inline" />
          <rect
             x="1259.1566"
             y="1090.8322"
             width="28.34347"
             height="6.9582772"
             id="rect3773-0"
             style="fill:none;stroke:#000000;stroke-width:0.96372944;stroke-miterlimit:4;stroke-dasharray:none;display:inline" />
          <rect
             x="1287.52"
             y="1090.8287"
             width="28.345469"
             height="6.9582772"
             id="rect3775-6"
             style="stroke:#000000;stroke-width:0.96372944;stroke-miterlimit:4;stroke-dasharray:none;display:inline" />
          <rect
             x="1315.8845"
             y="1090.8322"
             width="28.344469"
             height="6.9582772"
             id="rect3777-7"
             style="fill:none;stroke:#000000;stroke-width:0.96372944;stroke-miterlimit:4;stroke-dasharray:none;display:inline" />
          <rect
             x="1344.249"
             y="1090.8322"
             width="28.34347"
             height="6.9582772"
             id="rect3779-1"
             style="stroke:#000000;stroke-width:0.96372944;stroke-miterlimit:4;stroke-dasharray:none;display:inline" />
          <rect
             x="1372.6125"
             y="1090.8287"
             width="141.71935"
             height="6.9577866"
             id="rect3781-5"
             style="fill:none;stroke:#000000;stroke-width:0.96372944;stroke-miterlimit:4;stroke-dasharray:none;display:inline" />
        </g>
        <g
           transform="translate(-4.8075526,-102.46773)"
           id="g3755-2"
           style="display:inline">
          <g
             id="g3304-2">
            <g
               id="g3671">
              <text
                 y="1191.0444"
                 x="1234.5"
                 font-size="12"
                 id="text3783-2"
                 style="font-size:13px;font-style:normal;font-variant:normal;font-weight:normal;font-stretch:normal;font-family:Gentium Book Basic;-inkscape-font-specification:Gentium Book Basic">0</text>
              <text
                 y="1191.0063"
                 x="1373.5"
                 font-size="12"
                 id="text3785-4"
                 style="font-size:13px;font-style:normal;font-variant:normal;font-weight:normal;font-stretch:normal;font-family:Gentium Book Basic;-inkscape-font-specification:Gentium Book Basic">5</text>
              <text
                 y="1191.0762"
                 x="1487.5"
                 font-size="12"
                 id="text3787-8"
                 style="font-size:13px;font-style:normal;font-variant:normal;font-weight:normal;font-stretch:normal;font-family:Gentium Book Basic;-inkscape-font-specification:Gentium Book Basic">10 cm</text>
            </g>
          </g>
          <g
             inkscape:groupmode="layer"
             id="layer7"
             inkscape:label="scale"
             style="display:inline" />
          <text
             xml:space="preserve"
             style="font-size:12px;font-style:normal;font-weight:normal;line-height:125%;letter-spacing:0px;word-spacing:0px;fill:#000000;fill-opacity:1;stroke:none;font-family:Sans"
             x="2077.3782"
             y="1590.157"
             id="text3215-1"
             sodipodi:linespacing="125%"
             transform="translate(3.0762894,36.91539)"><tspan
               sodipodi:role="line"
               id="tspan3217-7"
               x="2077.3782"
               y="1590.157" /></text>
        </g>
      </g>
    </g>
  </g>
  <style
     id="style5430"
     type="text/css">

@font-face{font-family:'ArialMT';src:url(&quot;data:;base64,\
T1RUTwADACAAAQAQQ0ZGIOJhRYsAAACgAAAEdkdQT1Ov/L6JAAAFGAAAAFpjbWFwATIBOQAAADwA\
AABkAAAAAQAAAAMAAAAMAAQAWAAAABIAEAADAAIAIAAtADEAMwA1ADcAQgBQ//8AAAAgAC0AMQAz\
ADUANwBCAE/////h/9X/0v/R/9D/z//F/7kAAQAAAAAAAAAAAAAAAAAAAAAAAAEABAIAAQEBCEFy\
aWFsTVQAAQEBO/gbAfgYBPgcDBUc+q/9LRwQABwIDAUeoABIgoEl/4uLHqAASIKBJf+LiwwH9ykP\
9zwQ9z4RkxwEbhIAAgEBMj9BcmlhbCBpcyBhIHRyYWRlbWFyayBvZiBUaGUgTW9ub3R5cGUgQ29y\
cG9yYXRpb24uL0ZTVHlwZSA4IGRlZgAAAAABAA4AEgAUABYAGAAjADAAMQAAAAoCAAEAGwAeACwA\
VgEVAZoB4AKXA0sDrMr3lBYcBQD6lBz7AAf+dKsV+lQcBMD+VAYO/hwO/avM+EwV90n4vftJBw75\
jxb7SBwEewZgYlJhRWJEYkxsU3YI90IH8LrjxdbO1s7BzarKCPcIBg7h+BcV90ijoCWuQr1eGV68\
yHTSG+DSqMbGH8XGqNPiGt5wz1XBHsBVRqY4G2lhhH5YH5/3MgWKl5WKkhvY0J+zyB/Is6rJ3hrN\
dcJeth62XlKhRBtFUXVfXB9cX21JfjP7SKsYofcNvejZzgjN2eys9wgb29V6ac4fzmi/XK9QCK5Q\
nUxIGkx6UWlXHmlXWWJIbOJ3zmK7TAi7TKM8LBr7FFz7AC4yHjIu+wpe+yMb+xUhsdg2HzbYWu5/\
9w4IDuD4FBX3UZuZL6xGvl0ZXL7IdNMb4tSszMcfx8yp4vcAGvJu3FLGHsZRP6kuG1FXfnFcH1xw\
Z2lwYfs9oRj3IvmFBflt+0D83QY8/B4FyOPnquwb9xT3AF8y4x/jMrf7BvsfGvsZZPsGPioe+wst\
+xRQ+zcb+xn7AbDWNx821lvuf/cPCA7sHAT6FfdB+kn7IAcuKC77GDD7OS/7OUT7PVn7Qmf7D3T7\
GoH7Jgj7TQaN9wei9yC29ze29zfK9zLc9yzc9yvh9xTm8wgOIPcqFhwFuvi6B/cE5Xxuzx/ObcBd\
sk4IsU2eSkgaTHpQaVQeaVRYXkZp5HHPX7tMCLpMo0E2GkZ9TG5QHm5QZ11ga2BrVnNLewh6SjyD\
Lhv8AfnmFffRBuHJkZawH7yasaOkrQikrZe2vhq8f7Z0sB50sGmkYJkImGBAkiIb+7kG/vQE+AEG\
yreNkKQfuJOwmKmeqZ6kpp6vCJ6ulbS6GsJ9um+0Hm+zZKdanAibWUOTLhv75wYO9wzu+V4V94fM\
91P3F/ceHvcd9xf3PND3Yxv3G/cOa0r3AR/3AUreMcT7BwjE+win+xf7Jxr7KW37GU/7CR5P+wk2\
MvsCTwhO+wL7C237Exv7HvsPrM77AR/7Ac455lP3BwhT9wdv9w73FRr3XIgV+0W7+x/qJh4l6vcL\
WPcjG/cm9wy+8uof6fK69yX3URr3C3f0Y+QeYuRQ0D68CLw9NKMqG/sd+wpcLSgfKCxZ+zH7cRoO\
IPcyFhwFuvi9B+zWhoK+H9N/x3S8arxpslypTgioTppJQhr7EWMiPDUeNDz7JGD7Yxv8DPzoBvmV\
BPgPBvcR5KK6wB/AuqXM4BrIfMBstx5stmKoWJkIlGpPjzMb/AsGDhwEcxQcBcEVAAAAAQAAAAoA\
HgAsAAFERkxUAAgABAAAAAD//wABAAAAAWtlcm4ACAAAAAEAAAABAAQAAgAAAAEACAABABoABAAA\
AAIADgAUAAEAA/9oAAEAAf/bAAEAAgADAAkAAA==&quot;)}

</style>
  <style
     id="style6509"
     type="text/css">

@font-face{font-family:'ArialMT';src:url(&quot;data:;base64,\
T1RUTwADACAAAQAQQ0ZGIMdbJ7UAAACwAAAIYEdQT1OvPr7DAAAJEAAAAGRjbWFwAdQB1wAAADwA\
AAB0AAAAAQAAAAMAAAAMAAQAaAAAABYAEAADAAYAIAAtADMANQA6AEIATwBSAGMAbf//AAAAIAAt\
ADEANQA3AEEATwBSAGMAbf///+H/1f/S/9H/0P/K/77/vP+s/6MAAQAAAAAAAAAAAAAAAAAAAAAA\
AAAAAAABAAQCAAEBAQhBcmlhbE1UAAEBATv4GwH4GAT4HAwVHPqv/S0cEAAcCAwFHqAASIKBJf+L\
ix6gAEiCgSX/i4sMB/cpD/dIEPdKEZMcCFgSAAIBATI/QXJpYWwgaXMgYSB0cmFkZW1hcmsgb2Yg\
VGhlIE1vbm90eXBlIENvcnBvcmF0aW9uLi9GU1R5cGUgOCBkZWYAAAEAAQAADgAAEgIAFgAAGAMA\
IgEAMAAAMwAARAAATgAAAAARAgABABsAHgAsAFYA4AGfAiQCagNKBBwENwR1BSwF4AZsBu8HfMr3\
lBYcBQD6lBz7AAf+dKsV+lQcBMD+VAYO/hwO/avM+EwV90n4vftJBw75jxb7SBwEewZgYlJhRWJE\
YkxsU3YI90IH8LrjxdbO1s7BzarKCPcIBg76m/dBFftB/l0HiraStZqzpM2yzMLLwcvZ1fLf9zP3\
F/cA8sPYCMPXp9PPGtJyyFi8HrxYSKM5GzRGcVdXH1dXcUOKL/tNnhiY9x669N7UCNPe9wOv9x8b\
9yH3A2Q93R/dPbQq+wcaUH9Sc1Iec1JjUFRMU0wuNfsV+wH7ADBGTmxrbGpya3dqCA7h+BcV90ij\
oCWuQr1eGV68yHTSG+DSqMbGH8XGqNPiGt5wz1XBHsBVRqY4G2lhhH5YH5/3MgWKl5WKkhvY0J+z\
yB/Is6rJ3hrNdcJeth62XlKhRBtFUXVfXB9cX21JfjP7SKsYofcNvejZzgjN2eys9wgb29V6ac4f\
zmi/XK9QCK5QnUxIGkx6UWlXHmlXWWJIbOJ3zmK7TAi7TKM8LBr7FFz7AC4yHjIu+wpe+yMb+xUh\
sdg2HzbYWu5/9w4IDuD4FBX3UZuZL6xGvl0ZXL7IdNMb4tSszMcfx8yp4vcAGvJu3FLGHsZRP6ku\
G1FXfnFcH1xwZ2lwYfs9oRj3IvmFBflt+0D83QY8/B4FyOPnquwb9xT3AF8y4x/jMrf7BvsfGvsZ\
ZPsGPioe+wst+xRQ+zcb+xn7AbDWNx821lvuf/cPCA7sHAT6FfdB+kn7IAcuKC77GDD7OS/7OUT7\
PVn7Qmf7D3T7GoH7Jgj7TQaN9wei9yC29ze29zfK9zLc9yzc9yvh9xTm8wgO9/75rxVAplSyZ74I\
Z755x9Ia9rHk2NQe1Njxr/cTG/cU8mZB2R/ZQLIxIBpHeVBoWR5nWFVkQnDlbtBbukoIukqiPTAa\
+xFfITI2HjYy+whg+yUb+yX7CLbhMh8y4F/29xQa6qPbvMweu8vQt+SiCGf3xRVGoVK4Xx5fuMV1\
0hvQxKG3uB+3tqHByhrNdMNeuB64XVKhRxtGUnVfXh9eX3RWThpR/TkVWJdZpFseo1uvZrtxCHC7\
v37CG+HSp8LDH8PCp9LgGuJu0lLEHsRRQ6c0GzZFb1NUH1NTb0U3Gg73BPfnFfdBm5o6p1C0Zhlm\
tMB5zBvCvJiktR+0pK2tpramtaHEndMIndOU1NYak4uXipseZ1JaXE1oCGdMSHlCG/sNJLfjNx83\
42H3CPckGvcpt/cL4+Ye5uL3Arj3GBvq43FY2h/aWMdCtCwItCyf+x77SBr7T3f7KWL7Ax5i+wNP\
NjtRCFE6LW77ABv7By6ry0IfQspg5Xz3Bwj5dfkbFfJw3VTIHshUSKk+GztFakpQH1BKbTYjGi6n\
P8RRHlDD0G7eG97QqMbBH8DFptzyGg7+HPdN+e0V92H3YfthB/th/e0V92H3YfthBw4giBb4xxwF\
ugX3ZQb47Bz6RgX7cQb7P/hQBfz5Bvs1/FAF92347hX4hQb7LfgqXPcPafF02hl4LXEuaS4IDiD3\
KhYcBbr4ugf3BOV8bs8fzm3AXbJOCLFNnkpIGkx6UGlUHmlUWF5GaeRxz1+7TAi6TKNBNhpGfUxu\
UB5uUGddYGtga1ZzS3sIeko8gy4b/AH55hX30QbhyZGWsB+8mrGjpK0IpK2Xtr4avH+2dLAedLBp\
pGCZCJhgQJIiG/u5Bv70BPgBBsq3jZCkH7iTsJipnqmepKaerwierpW0uhrCfbpvtB5vs2SnWpwI\
m1lDky4b++cGDvcM7vleFfeHzPdT9xf3Hh73HfcX9zzQ92Mb9xv3DmtK9wEf9wFK3jHE+wcIxPsI\
p/sX+yca+ylt+xlP+wkeT/sJNjL7Ak8ITvsC+wtt+xMb+x77D6zO+wEf+wHOOeZT9wcIU/cHb/cO\
9xUa91yIFftFu/sf6iYeJer3C1j3Ixv3JvcMvvLqH+nyuvcl91Ea9wt39GPkHmLkUNA+vAi8PTSj\
Khv7HfsKXC0oHygsWfsx+3EaDpH3NRYcBbr5Hgf3F+5+cc8fz3DBXbRICLRIn0I6GiNpM0hEHkhE\
I137IXi+crJzpnPEV8BKvj33k/wjGPuIBvtW98VS413OZroZZrprq26ebp5tmG2SCJB1Z41ZG/t1\
/R8G+ccE+DUG5NCUnr0fvZ2xqKW0CKWzmLe6GtByxFm4HrhYPKH7ARv8ZAYO/FX50PgZFfdFdHj7\
DlksPEYZRjspaPsIG/sl+wm76jMfMupf9xz3RRr3B57vseEeseHFzNm2CLbY4KDmG/cH6m5R1B/U\
ULo4oCD7Q3AYetJuwWGvCK9gWJ1PGzBCa0pSH1JKbyT7IRr7I6YkwkoeSsLSa+Mb0sahtrofurap\
zpjlCA73ffcbFvq69zX7KQesv7i1wqsIqsLKm9Ib2st7ar4fvWquXqBQCPcQ3/cByfcbG/TcblHE\
H8RQpzH7DRr9bftH+TEH04W/gKsef6p2pWyeCJ5sZ5ViG0BNclpaH1pZcjv7ARr8/ftI+UYH23zH\
brMes25bn0gbWF1+cGAfYHBrZHhYCHhYgUEqGvy7Bw4cBHMUHAXBFQABAAAACgAeACwAAURGTFQA\
CAAEAAAAAP//AAEAAAABa2VybgAIAAAAAQAAAAEABAACAAAAAQAIAAEAIgAEAAAAAwAQABYAHAAB\
AAv/jwABAAP/aAABAAH/jwABAAMAAQADAAs=&quot;)}

</style>
</svg>
