<?xml version="1.0" encoding="UTF-8" standalone="no"?>
<!-- Generator: Adobe Illustrator 15.0.2, SVG Export Plug-In . SVG Version: 6.00 Build 0)  -->

<svg
   xmlns:dc="http://purl.org/dc/elements/1.1/"
   xmlns:cc="http://creativecommons.org/ns#"
   xmlns:rdf="http://www.w3.org/1999/02/22-rdf-syntax-ns#"
   xmlns:svg="http://www.w3.org/2000/svg"
   xmlns="http://www.w3.org/2000/svg"
   xmlns:sodipodi="http://sodipodi.sourceforge.net/DTD/sodipodi-0.dtd"
   xmlns:inkscape="http://www.inkscape.org/namespaces/inkscape"
   version="1.1"
   x="0px"
   y="0px"
   width="1036.8402"
   height="152.33676"
   viewBox="0 0 1036.8402 152.33676"
   xml:space="preserve"
   id="svg2"
   inkscape:version="0.48.3.1 r9886"
   sodipodi:docname="Bo75-A2-9.svg"
   inkscape:export-filename="/media/hdd/Nehemie/Bogazkoy/BoKe/BoKeWTer/Images/SVG/Geb84/clean/Bo75-A2-9.png"
   inkscape:export-xdpi="300"
   inkscape:export-ydpi="300"><metadata
   id="metadata39"><rdf:RDF><cc:Work
       rdf:about=""><dc:format>image/svg+xml</dc:format><dc:type
         rdf:resource="http://purl.org/dc/dcmitype/StillImage" /><dc:title></dc:title></cc:Work></rdf:RDF></metadata><defs
   id="defs37">
	
	
	
	
	
		
	
		
	
		
	
		
	
		
	
		
</defs><sodipodi:namedview
   pagecolor="#ffffff"
   bordercolor="#666666"
   borderopacity="1"
   objecttolerance="10"
   gridtolerance="10"
   guidetolerance="10"
   inkscape:pageopacity="0"
   inkscape:pageshadow="2"
   inkscape:window-width="1600"
   inkscape:window-height="900"
   id="namedview35"
   showgrid="false"
   fit-margin-top="0"
   fit-margin-left="0"
   fit-margin-right="0"
   fit-margin-bottom="0"
   inkscape:zoom="0.8194609"
   inkscape:cx="524.88229"
   inkscape:cy="272.30978"
   inkscape:window-x="0"
   inkscape:window-y="26"
   inkscape:window-maximized="0"
   inkscape:current-layer="svg2" />
<style
   type="text/css"
   id="style4">

@font-face{font-family:'ArialMT';src:url(&quot;data:;base64,\
T1RUTwADACAAAQAQQ0ZGIEW25eEAAACwAAAHcUdQT1Ovtr6uAAAIJAAAAFpjbWFwAc0BzwAAADwA\
AAB0AAAAAQAAAAMAAAAMAAQAaAAAABYAEAADAAYAIAAtADIANQA6AEIATwBSAGMAbf//AAAAIAAt\
ADIANQA3AEEATwBSAGMAbf///+H/1f/R/8//zv/I/7z/uv+q/6EAAQAAAAAAAAAAAAAAAAAAAAAA\
AAAAAAABAAQCAAEBAQhBcmlhbE1UAAEBATv4GwH4GAT4HAwVHPqv/S0cEAAcCAwFHqAASIKBJf+L\
ix6gAEiCgSX/i4sMB/cpD/dGEPdIEZMcB2kSAAIBATI/QXJpYWwgaXMgYSB0cmFkZW1hcmsgb2Yg\
VGhlIE1vbm90eXBlIENvcnBvcmF0aW9uLi9GU1R5cGUgOCBkZWYAAAAAAQAOABMAFgAYABkAGgAb\
ACIAIwAwADMARABOAAAADwIAAQAbAB4ALAC2ATsBgQJhAzMDTgOMBEME9wWDBgYGk8r3lBYcBQD6\
lBz7AAf+dKsV+lQcBMD+VAYO/hwO/avM+EwV90n4vftJBw76m/dBFftB/l0HiraStZqzpM2yzMLL\
wcvZ1fLf9zP3F/cA8sPYCMPXp9PPGtJyyFi8HrxYSKM5GzRGcVdXH1dXcUOKL/tNnhiY9x669N7U\
CNPe9wOv9x8b9yH3A2Q93R/dPbQq+wcaUH9Sc1Iec1JjUFRMU0wuNfsV+wH7ADBGTmxrbGpya3dq\
CA7g+BQV91GbmS+sRr5dGVy+yHTTG+LUrMzHH8fMqeL3ABrybtxSxh7GUT+pLhtRV35xXB9ccGdp\
cGH7PaEY9yL5hQX5bftA/N0GPPweBcjj56rsG/cU9wBfMuMf4zK3+wb7Hxr7GWT7Bj4qHvsLLfsU\
UPs3G/sZ+wGw1jcfNtZb7n/3DwgO7BwE+hX3QfpJ+yAHLigu+xgw+zkv+zlE+z1Z+0Jn+w90+xqB\
+yYI+00GjfcHovcgtvc3tvc3yvcy3Pcs3Pcr4fcU5vMIDvf++a8VQKZUsme+CGe+ecfSGvax5NjU\
HtTY8a/3Exv3FPJmQdkf2UCyMSAaR3lQaFkeZ1hVZEJw5W7QW7pKCLpKoj0wGvsRXyEyNh42MvsI\
YPslG/sl+wi24TIfMuBf9vcUGuqj27zMHrvL0Lfkoghn98UVRqFSuF8eX7jFddIb0MSht7gft7ah\
wcoazXTDXrgeuF1SoUcbRlJ1X14fXl90Vk4aUf05FViXWaRbHqNbr2a7cQhwu79+whvh0qfCwx/D\
wqfS4BribtJSxB7EUUOnNBs2RW9TVB9TU29FNxoO9wT35xX3QZuaOqdQtGYZZrTAecwbwryYpLUf\
tKStraa2prWhxJ3TCJ3TlNTWGpOLl4qbHmdSWlxNaAhnTEh5Qhv7DSS34zcfN+Nh9wj3JBr3Kbf3\
C+PmHubi9wK49xgb6uNxWNof2ljHQrQsCLQsn/se+0ga+093+yli+wMeYvsDTzY7UQhROi1u+wAb\
+wcuq8tCH0LKYOV89wcI+XX5GxXycN1UyB7IVEipPhs7RWpKUB9QSm02Ixoupz/EUR5Qw9Bu3hve\
0KjGwR/Axabc8hoO/hz3TfntFfdh92H7YQf7Yf3tFfdh92H7YQcOIIgW+MccBboF92UG+Owc+kYF\
+3EG+z/4UAX8+Qb7NfxQBfdt+O4V+IUG+y34Klz3D2nxdNoZeC1xLmkuCA4g9yoWHAW6+LoH9wTl\
fG7PH85twF2yTgixTZ5KSBpMelBpVB5pVFheRmnkcc9fu0wIukyjQTYaRn1MblAeblBnXWBrYGtW\
c0t7CHpKPIMuG/wB+eYV99EG4cmRlrAfvJqxo6StCKStl7a+Grx/tnSwHnSwaaRgmQiYYECSIhv7\
uQb+9AT4AQbKt42QpB+4k7CYqZ6pnqSmnq8Inq6VtLoawn26b7Qeb7Nkp1qcCJtZQ5MuG/vnBg73\
DO75XhX3h8z3U/cX9x4e9x33F/c80PdjG/cb9w5rSvcBH/cBSt4xxPsHCMT7CKf7F/snGvspbfsZ\
T/sJHk/7CTYy+wJPCE77AvsLbfsTG/se+w+szvsBH/sBzjnmU/cHCFP3B2/3DvcVGvdciBX7Rbv7\
H+omHiXq9wtY9yMb9yb3DL7y6h/p8rr3JfdRGvcLd/Rj5B5i5FDQPrwIvD00oyob+x37ClwtKB8o\
LFn7MftxGg6R9zUWHAW6+R4H9xfufnHPH89wwV20SAi0SJ9COhojaTNIRB5IRCNd+yF4vnKyc6Zz\
xFfASr4995P8Ixj7iAb7VvfFUuNdzma6GWa6a6tunm6ebZhtkgiQdWeNWRv7df0fBvnHBPg1BuTQ\
lJ69H72dsailtAils5i3uhrQcsRZuB64WDyh+wEb/GQGDvxV+dD4GRX3RXR4+w5ZLDxGGUY7KWj7\
CBv7JfsJu+ozHzLqX/cc90Ua9wee77HhHrHhxczZtgi22OCg5hv3B+puUdQf1FC6OKAg+0NwGHrS\
bsFhrwivYFidTxswQmtKUh9SSm8k+yEa+yOmJMJKHkrC0mvjG9LGoba6H7q2qc6Y5QgO9333Gxb6\
uvc1+ykHrL+4tcKrCKrCypvSG9rLe2q+H71qrl6gUAj3EN/3Acn3Gxv03G5RxB/EUKcx+w0a/W37\
R/kxB9OFv4CrHn+qdqVsngiebGeVYhtATXJaWh9aWXI7+wEa/P37SPlGB9t8x26zHrNuW59IG1hd\
fnBgH2Bwa2R4WAh4WIFBKhr8uwcOHARzFBwFwRUAAAAAAQAAAAoAHgAsAAFERkxUAAgABAAAAAD/\
/wABAAAAAWtlcm4ACAAAAAEAAAABAAQAAgAAAAEACAABABoABAAAAAIADgAUAAEACf+PAAEAAf+P\
AAEAAgABAAkAAA==&quot;)}

</style>
<g
   id="Background"
   transform="translate(-28.579895,-195.05931)">
</g>
<g
   id="Guides"
   transform="translate(-28.579895,-195.05931)">
</g>
<path
   inkscape:connector-curvature="0"
   id="path9"
   d="m 861.51636,76.2875 c 16.45875,-13.405 34.5275,-25.25125 55.05125,-31.62875 10.5475,-3.2775 29.78875,-8.38 37.2125,-16.51 4.67875,-5.12375 5.73875,-12.24 10.9975,-16.91375 2.06875,-1.83875 4.78375,-3.83875 8.5762,-5.9625 0.7513,-0.42 1.4351,-0.7625 2.2863,-0.9425 5.1387,-1.0875 9.9337,-2.41 15.1975,-1.30875 3.0075,0.62875 8.2712,3.0725 14.02879,6.24375 10.7425,5.91625 31.7774,17.11375 31.0162,31.2925 -1.8462,5.28625 -6.435,10.54875 -11.7875,12.52875 -2.4562,0.91 -4.8337,1.5725 -7.1775,2.01125 -19.59499,3.67875 -38.20629,1.1675 -60.87124,6.445 -17.18875,4.0025 -46.16125,11.85375 -59.20875,23.55625 -0.70375,0.63125 -1.2275,0.9975 -1.2275,0.9975 l -13.44,-1.715 L 866.70136,82.35 855.60761,81.1 c 0,0 2.60625,-2.1225 5.90875,-4.8125 z"
   style="fill-rule:evenodd;stroke:#000000;stroke-width:1.875;stroke-linecap:round;stroke-linejoin:round;stroke-miterlimit:3.86369991;stroke-dasharray:none" /><path
   inkscape:connector-curvature="0"
   id="path11"
   d="m 48.197605,0.9375 c -0.78625,0.0662 -1.45375,0.17375 -2.1925,0.3275 -3.01,0.62875 -8.27375,3.0725 -14.03125,6.24375 C 21.233855,13.425 0.19635505,24.6225 0.95760505,38.80125 2.806355,44.0875 7.392605,49.35 12.745105,51.33 c 2.45625,0.91 4.83375,1.5725 7.17625,2.01125 19.59625,3.67875 38.20625,1.1675 60.8725,6.445 17.18875,4.0025 46.162505,11.85375 59.208755,23.55625 0.58125,0.52125 1.0075,0.895 1.15,0.9975"
   style="fill:none;stroke:#000000;stroke-width:1.875;stroke-linecap:round;stroke-linejoin:round;stroke-miterlimit:3.86369991;stroke-dasharray:none" /><line
   id="line23"
   y2="0.943757"
   x2="48.107605"
   y1="0.943757"
   x1="949.62262"
   style="fill:none;stroke:#000000;stroke-width:1.84327495;stroke-linecap:round;stroke-linejoin:round;stroke-miterlimit:3.86369991;stroke-dasharray:none" /><line
   id="line25"
   y2="88.443741"
   x2="529.6701"
   y1="0.943757"
   x1="529.6701"
   style="fill:none;stroke:#000000;stroke-width:1.875;stroke-linecap:round;stroke-linejoin:round;stroke-miterlimit:3.86369991;stroke-dasharray:none" /><line
   id="line27"
   y2="95.599991"
   x2="153.31136"
   y1="88.724991"
   x1="145.65511"
   style="fill:none;stroke:#000000;stroke-width:1.875;stroke-linecap:round;stroke-linejoin:round;stroke-miterlimit:3.86369991;stroke-dasharray:none" /><line
   id="line29"
   y2="93.024124"
   x2="845.24225"
   y1="85.988052"
   x1="852.30457"
   style="fill:none;stroke:#000000;stroke-width:1.82177818;stroke-linecap:round;stroke-linejoin:round;stroke-miterlimit:3.86369991;stroke-dasharray:none" /><line
   id="line31"
   y2="98.336685"
   x2="884.42169"
   y1="91.106918"
   x1="891.46198"
   style="fill:none;stroke:#000000;stroke-width:1.84380245;stroke-linecap:round;stroke-linejoin:round;stroke-miterlimit:3.86369991;stroke-dasharray:none" />
<g
   inkscape:groupmode="layer"
   id="layer1"
   inkscape:label="scale"
   transform="translate(-28.579895,-195.05931)"><g
     style="display:inline"
     id="g3705"
     transform="matrix(1.244841,0,0,1.3514373,-1150.4222,-1149.0358)"><g
       id="g5680"><g
         style="stroke-width:0.96372944;stroke-miterlimit:4;stroke-dasharray:none;display:inline"
         id="g3676"
         transform="translate(0,2.0000001)"><rect
           x="1230.9233"
           y="1090.9103"
           width="283.53973"
           height="13.916063"
           id="rect3757-68"
           style="fill:none;stroke:#000000;stroke-width:0.96372944;stroke-miterlimit:4;stroke-dasharray:none;display:inline" /><rect
           x="1230.7921"
           y="1097.8679"
           width="28.34347"
           height="6.9582772"
           id="rect3759-1"
           style="fill:none;stroke:#000000;stroke-width:0.96372944;stroke-miterlimit:4;stroke-dasharray:none;display:inline" /><rect
           x="1259.1566"
           y="1097.8684"
           width="28.34347"
           height="6.9582772"
           id="rect3761-59"
           style="stroke:#000000;stroke-width:0.96372944;stroke-miterlimit:4;stroke-dasharray:none;display:inline" /><rect
           x="1287.52"
           y="1097.865"
           width="28.344469"
           height="6.9582772"
           id="rect3763-46"
           style="fill:none;stroke:#000000;stroke-width:0.96372944;stroke-miterlimit:4;stroke-dasharray:none;display:inline" /><rect
           x="1315.8845"
           y="1097.8684"
           width="28.344469"
           height="6.9582772"
           id="rect3765-3"
           style="stroke:#000000;stroke-width:0.96372944;stroke-miterlimit:4;stroke-dasharray:none;display:inline" /><rect
           x="1344.249"
           y="1097.8684"
           width="28.34347"
           height="6.9582772"
           id="rect3767-4"
           style="fill:none;stroke:#000000;stroke-width:0.96372944;stroke-miterlimit:4;stroke-dasharray:none;display:inline" /><rect
           x="1372.6125"
           y="1097.865"
           width="141.71834"
           height="6.9577866"
           id="rect3769-0"
           style="stroke:#000000;stroke-width:0.96372944;stroke-miterlimit:4;stroke-dasharray:none;display:inline" /><rect
           x="1230.7921"
           y="1090.8317"
           width="28.34347"
           height="6.9582772"
           id="rect3771-4"
           style="stroke:#000000;stroke-width:0.96372944;stroke-miterlimit:4;stroke-dasharray:none;display:inline" /><rect
           x="1259.1566"
           y="1090.8322"
           width="28.34347"
           height="6.9582772"
           id="rect3773-0"
           style="fill:none;stroke:#000000;stroke-width:0.96372944;stroke-miterlimit:4;stroke-dasharray:none;display:inline" /><rect
           x="1287.52"
           y="1090.8287"
           width="28.345469"
           height="6.9582772"
           id="rect3775-6"
           style="stroke:#000000;stroke-width:0.96372944;stroke-miterlimit:4;stroke-dasharray:none;display:inline" /><rect
           x="1315.8845"
           y="1090.8322"
           width="28.344469"
           height="6.9582772"
           id="rect3777-7"
           style="fill:none;stroke:#000000;stroke-width:0.96372944;stroke-miterlimit:4;stroke-dasharray:none;display:inline" /><rect
           x="1344.249"
           y="1090.8322"
           width="28.34347"
           height="6.9582772"
           id="rect3779-1"
           style="stroke:#000000;stroke-width:0.96372944;stroke-miterlimit:4;stroke-dasharray:none;display:inline" /><rect
           x="1372.6125"
           y="1090.8287"
           width="141.71935"
           height="6.9577866"
           id="rect3781-5"
           style="fill:none;stroke:#000000;stroke-width:0.96372944;stroke-miterlimit:4;stroke-dasharray:none;display:inline" /></g><g
         transform="translate(-4.8075526,-102.46773)"
         id="g3755-2"
         style="display:inline"><g
   id="g3304-2"><g
     id="g3671"><text
   y="1191.0444"
   x="1234.5"
   font-size="12"
   id="text3783-2"
   style="font-size:13px;font-style:normal;font-variant:normal;font-weight:normal;font-stretch:normal;font-family:Gentium Book Basic;-inkscape-font-specification:Gentium Book Basic">0</text>

<text
   y="1191.0063"
   x="1373.5"
   font-size="12"
   id="text3785-4"
   style="font-size:13px;font-style:normal;font-variant:normal;font-weight:normal;font-stretch:normal;font-family:Gentium Book Basic;-inkscape-font-specification:Gentium Book Basic">5</text>

<text
   y="1191.0762"
   x="1487.5"
   font-size="12"
   id="text3787-8"
   style="font-size:13px;font-style:normal;font-variant:normal;font-weight:normal;font-stretch:normal;font-family:Gentium Book Basic;-inkscape-font-specification:Gentium Book Basic">10 cm</text>

</g></g><g
   inkscape:groupmode="layer"
   id="layer7"
   inkscape:label="scale"
   style="display:inline" /><text
   xml:space="preserve"
   style="font-size:12px;font-style:normal;font-weight:normal;line-height:125%;letter-spacing:0px;word-spacing:0px;fill:#000000;fill-opacity:1;stroke:none;font-family:Sans"
   x="2077.3782"
   y="1590.157"
   id="text3215-1"
   sodipodi:linespacing="125%"
   transform="translate(3.0762894,36.91539)"><tspan
     sodipodi:role="line"
     id="tspan3217-7"
     x="2077.3782"
     y="1590.157" /></text>

</g></g></g></g></svg>